<svg xmlns="http://www.w3.org/2000/svg" width="481" height="481" viewBox="0 0 481 481">
    <path fill="#F5F9FC" fill-rule="evenodd" d="M0 481h119.19c0-199.48 162.304-361.81 361.81-361.81V0C215.77 0 0 215.77 0 481"/>
</svg>
