<svg xmlns="http://www.w3.org/2000/svg" width="481" height="481" viewBox="0 0 481 481">
    <path fill="#F5F9FC" fill-rule="evenodd" d="M119.19 0c0 199.48 162.304 361.81 361.81 361.81V481C215.77 481 0 265.23 0 0h119.19z"/>
</svg>
