<svg xmlns="http://www.w3.org/2000/svg" width="308" height="308" viewBox="0 0 308 308">
    <path fill="#DD328D" fill-rule="evenodd" d="M0 308v-76.32c127.733 0 231.68-103.93 231.68-231.68H308c0 169.834-138.165 308-308 308"/>
</svg>
