<?xml version="1.0" encoding="utf-8"?>
<!-- Generator: Adobe Illustrator 24.0.1, SVG Export Plug-In . SVG Version: 6.00 Build 0)  -->
<svg version="1.1" id="Calque_1" xmlns="http://www.w3.org/2000/svg" xmlns:xlink="http://www.w3.org/1999/xlink" x="0px" y="0px"
	 viewBox="0 0 72 69" style="enable-background:new 0 0 72 69;" xml:space="preserve">
<style type="text/css">
	.st0{fill:#00BCBE;}
</style>
<g>
	<path class="st0" d="M61.9,19.26h-3.48c-0.96,0-1.74-0.78-1.74-1.74v-3.48c0-0.96-0.78-1.74-1.74-1.74H9.76
		c-0.96,0-1.74,0.78-1.74,1.74v36.5c0,0,0,6.95,6.95,6.95h43.45c0,0,5.21-0.11,5.21-6.95V21C63.64,20.04,62.86,19.26,61.9,19.26z
		 M51.65,54.02H14.97c-3.48,0-3.48-3.48-3.48-3.48V17.52c0-0.96,0.78-1.74,1.74-1.74h38.24c0.96,0,1.74,0.78,1.74,1.74v33.02
		c0,0.49,0.05,0.93,0.13,1.33C53.57,52.97,52.77,54.02,51.65,54.02z"/>
	<path class="st0" d="M47.99,22.73H16.71c-0.96,0-1.74,0.78-1.74,1.74s0.78,1.74,1.74,1.74h31.28c0.96,0,1.74-0.78,1.74-1.74
		S48.95,22.73,47.99,22.73z"/>
	<path class="st0" d="M44.52,43.59h-8.69c-0.96,0-1.74,0.78-1.74,1.74c0,0.96,0.78,1.74,1.74,1.74h8.69c0.96,0,1.74-0.78,1.74-1.74
		C46.26,44.37,45.48,43.59,44.52,43.59z"/>
	<path class="st0" d="M47.99,36.64H35.83c-0.96,0-1.74,0.78-1.74,1.74c0,0.96,0.78,1.74,1.74,1.74h12.17c0.96,0,1.74-0.78,1.74-1.74
		C49.73,37.42,48.95,36.64,47.99,36.64z"/>
	<path class="st0" d="M47.99,29.69H35.83c-0.96,0-1.74,0.78-1.74,1.74s0.78,1.74,1.74,1.74h12.17c0.96,0,1.74-0.78,1.74-1.74
		S48.95,29.69,47.99,29.69z"/>
	<path class="st0" d="M28.88,29.69H16.71c-0.96,0-1.74,0.78-1.74,1.74v13.9c0,0.96,0.78,1.74,1.74,1.74h12.17
		c0.96,0,1.74-0.78,1.74-1.74v-13.9C30.61,30.46,29.84,29.69,28.88,29.69z"/>
</g>
</svg>
