<?xml version="1.0" encoding="utf-8"?>
<!-- Generator: Adobe Illustrator 24.0.1, SVG Export Plug-In . SVG Version: 6.00 Build 0)  -->
<svg version="1.1" id="Calque_1" xmlns="http://www.w3.org/2000/svg" xmlns:xlink="http://www.w3.org/1999/xlink" x="0px" y="0px"
	 viewBox="0 0 824 338" style="enable-background:new 0 0 824 338;" xml:space="preserve">
<style type="text/css">
	.st0{fill:#FFFFFF;}
</style>
<g>
	<path class="st0" d="M200.58,85.53c-6.45,0-11.67,5.23-11.67,11.67v106.26c0,6.45,5.23,11.67,11.67,11.67
		c6.45,0,11.67-5.23,11.67-11.67V97.2C212.25,90.75,207.03,85.53,200.58,85.53z"/>
	<path class="st0" d="M306.83,85.53c-6.45,0-11.67,5.23-11.67,11.67v56.81l-31.01-62.03c-0.1-0.21-0.25-0.37-0.36-0.57
		c-0.21-0.37-0.43-0.74-0.68-1.08c-0.22-0.3-0.46-0.57-0.7-0.85c-0.25-0.29-0.51-0.56-0.79-0.82c-0.28-0.26-0.57-0.49-0.88-0.72
		c-0.3-0.23-0.6-0.44-0.91-0.64c-0.32-0.2-0.64-0.37-0.98-0.53c-0.34-0.17-0.68-0.33-1.04-0.46c-0.36-0.13-0.72-0.24-1.09-0.34
		c-0.35-0.09-0.7-0.18-1.06-0.25c-0.42-0.07-0.85-0.1-1.28-0.13c-0.23-0.01-0.44-0.07-0.67-0.07c-0.11,0-0.22,0.03-0.33,0.03
		c-0.43,0.01-0.86,0.07-1.29,0.13c-0.36,0.05-0.71,0.09-1.05,0.17c-0.35,0.08-0.69,0.21-1.04,0.32c-0.41,0.14-0.81,0.28-1.19,0.45
		c-0.1,0.05-0.21,0.07-0.32,0.12c-0.21,0.1-0.37,0.25-0.57,0.36c-0.37,0.21-0.73,0.43-1.08,0.68c-0.3,0.22-0.57,0.46-0.85,0.7
		c-0.28,0.25-0.56,0.51-0.82,0.79c-0.26,0.28-0.49,0.57-0.72,0.88c-0.23,0.3-0.44,0.6-0.64,0.92c-0.19,0.32-0.36,0.64-0.53,0.97
		c-0.17,0.34-0.33,0.69-0.47,1.05c-0.13,0.35-0.23,0.71-0.33,1.07c-0.1,0.36-0.19,0.72-0.25,1.09c-0.07,0.41-0.1,0.83-0.13,1.24
		c-0.01,0.23-0.07,0.45-0.07,0.69v106.26c0,6.45,5.23,11.67,11.67,11.67c6.45,0,11.67-5.23,11.67-11.67v-56.81l31.01,62.03
		c0.18,0.36,0.4,0.69,0.61,1.02c0.07,0.11,0.13,0.23,0.2,0.34c0.38,0.56,0.82,1.08,1.28,1.55c0.11,0.11,0.22,0.21,0.34,0.31
		c0.39,0.37,0.8,0.71,1.24,1.02c0.15,0.1,0.29,0.21,0.44,0.31c0.56,0.36,1.13,0.68,1.74,0.94c0.1,0.04,0.2,0.07,0.3,0.1
		c0.54,0.21,1.09,0.38,1.66,0.52c0.19,0.04,0.38,0.08,0.57,0.12c0.69,0.12,1.38,0.21,2.08,0.21c0.72,0,1.44-0.08,2.16-0.22
		c0.09-0.02,0.19-0.03,0.28-0.05c0.63-0.14,1.26-0.33,1.88-0.58c0.15-0.06,0.3-0.12,0.44-0.19c0.15-0.07,0.3-0.12,0.45-0.19
		c0.21-0.1,0.37-0.25,0.57-0.36c0.37-0.21,0.73-0.43,1.08-0.68c0.3-0.22,0.57-0.46,0.85-0.7c0.28-0.25,0.56-0.51,0.82-0.79
		c0.26-0.28,0.49-0.57,0.72-0.88c0.23-0.3,0.44-0.6,0.64-0.92c0.19-0.32,0.36-0.64,0.53-0.97c0.17-0.34,0.33-0.69,0.47-1.05
		c0.13-0.35,0.23-0.71,0.33-1.07c0.1-0.36,0.19-0.72,0.25-1.09c0.07-0.41,0.1-0.83,0.13-1.25c0.01-0.23,0.07-0.45,0.07-0.69V97.2
		C318.51,90.75,313.28,85.53,306.83,85.53z"/>
	<path class="st0" d="M386.53,82.32c-21.08,0-38.24,17.15-38.24,38.24v82.9c0,6.45,5.23,11.67,11.67,11.67s11.67-5.23,11.67-11.67
		V162h29.78v41.45c0,6.45,5.23,11.67,11.67,11.67s11.67-5.23,11.67-11.67v-82.9C424.76,99.48,407.61,82.32,386.53,82.32z
		 M371.64,138.66v-18.1c0-8.21,6.68-14.89,14.89-14.89c8.21,0,14.89,6.68,14.89,14.89v18.1H371.64z"/>
	<path class="st0" d="M705.29,82.32c-21.08,0-38.24,17.15-38.24,38.24v82.9c0,6.45,5.23,11.67,11.67,11.67s11.67-5.23,11.67-11.67
		V162h29.78v41.45c0,6.45,5.23,11.67,11.67,11.67s11.67-5.23,11.67-11.67v-82.9C743.53,99.48,726.38,82.32,705.29,82.32z
		 M690.4,138.66v-18.1c0-8.21,6.68-14.89,14.89-14.89s14.89,6.68,14.89,14.89v18.1H690.4z"/>
	<path class="st0" d="M637.28,120.56c0-21.08-17.15-38.24-38.24-38.24h-26.56c-6.45,0-11.67,5.23-11.67,11.67
		c0,0.55,0.09,1.07,0.16,1.6c-0.07,0.53-0.16,1.05-0.16,1.6v106.26c0,6.45,5.23,11.67,11.67,11.67s11.67-5.23,11.67-11.67V158.8
		h7.49l23.41,49.64c1.99,4.22,6.19,6.7,10.57,6.7c1.67,0,3.36-0.36,4.97-1.12c5.83-2.75,8.33-9.71,5.58-15.54l-20.52-43.52
		C628.42,148.76,637.28,135.69,637.28,120.56z M584.15,105.67h14.89c8.21,0,14.89,6.68,14.89,14.89s-6.68,14.89-14.89,14.89h-14.89
		V105.67z"/>
	<path class="st0" d="M519.35,83.93c-6.45,0-11.67,5.23-11.67,11.67v82.9c0,8.21-6.68,14.89-14.89,14.89s-14.89-6.68-14.89-14.89
		V95.6c0-6.45-5.23-11.67-11.67-11.67c-6.45,0-11.67,5.23-11.67,11.67v82.9c0,21.08,17.15,38.24,38.24,38.24
		c21.08,0,38.24-17.15,38.24-38.24V95.6C531.02,89.15,525.79,83.93,519.35,83.93z"/>
	<path class="st0" d="M106,138.66V97.2c0-6.45-5.23-11.67-11.67-11.67S82.65,90.75,82.65,97.2v106.26c0,6.45,5.23,11.67,11.67,11.67
		S106,209.91,106,203.46V162h4.53v-23.35H106z"/>
	<rect x="117.23" y="138.66" class="st0" width="7.88" height="23.35"/>
	<path class="st0" d="M147.45,85.53c-6.45,0-11.67,5.23-11.67,11.67v41.46h-3.96V162h3.96v41.45c0,6.45,5.23,11.67,11.67,11.67
		c6.45,0,11.67-5.23,11.67-11.67V97.2C159.12,90.75,153.9,85.53,147.45,85.53z"/>
</g>
<g>
	<path class="st0" d="M50.62,307.26c-0.35,0-0.65-0.12-0.89-0.36c-0.24-0.24-0.36-0.53-0.36-0.89v-16.21c0-0.37,0.12-0.67,0.36-0.9
		c0.24-0.23,0.54-0.35,0.89-0.35c0.37,0,0.67,0.12,0.9,0.35c0.23,0.23,0.35,0.53,0.35,0.9v6.87h11.11v-6.87
		c0-0.37,0.12-0.67,0.36-0.9c0.24-0.23,0.53-0.35,0.88-0.35c0.37,0,0.66,0.12,0.89,0.35c0.22,0.23,0.34,0.53,0.34,0.9v16.21
		c0,0.35-0.11,0.65-0.34,0.89c-0.22,0.24-0.52,0.36-0.89,0.36c-0.35,0-0.65-0.12-0.88-0.36c-0.24-0.24-0.36-0.53-0.36-0.89v-7.13
		H51.86v7.13c0,0.35-0.12,0.65-0.35,0.89C51.28,307.14,50.98,307.26,50.62,307.26z"/>
	<path class="st0" d="M75.49,307.38c-1.1,0-2.09-0.24-2.96-0.71c-0.87-0.47-1.56-1.16-2.06-2.07c-0.5-0.91-0.75-2.03-0.75-3.35
		v-5.89c0-0.35,0.12-0.64,0.35-0.87c0.23-0.23,0.52-0.35,0.88-0.35c0.35,0,0.64,0.12,0.87,0.35s0.35,0.52,0.35,0.87v5.89
		c0,0.9,0.17,1.63,0.5,2.22c0.33,0.58,0.79,1.01,1.36,1.29c0.57,0.28,1.22,0.42,1.94,0.42c0.69,0,1.3-0.14,1.83-0.41
		c0.53-0.27,0.96-0.64,1.28-1.1c0.32-0.46,0.48-0.98,0.48-1.56h1.51c0,0.99-0.24,1.88-0.73,2.68c-0.49,0.8-1.15,1.43-1.99,1.89
		C77.51,307.15,76.56,307.38,75.49,307.38z M80.78,307.26c-0.35,0-0.64-0.12-0.88-0.35s-0.35-0.52-0.35-0.87v-10.68
		c0-0.37,0.12-0.66,0.35-0.89c0.23-0.22,0.52-0.33,0.88-0.33c0.37,0,0.66,0.11,0.89,0.33C81.89,294.7,82,295,82,295.36v10.68
		c0,0.35-0.11,0.64-0.33,0.87C81.44,307.15,81.15,307.26,80.78,307.26z"/>
	<path class="st0" d="M92.9,307.36c-1.24,0-2.36-0.29-3.35-0.87c-0.99-0.58-1.77-1.38-2.34-2.38c-0.58-1.01-0.87-2.14-0.89-3.4
		v-10.92c0-0.37,0.12-0.66,0.35-0.89c0.23-0.22,0.52-0.33,0.87-0.33c0.37,0,0.66,0.11,0.89,0.33c0.22,0.22,0.33,0.52,0.33,0.89v6.46
		c0.56-0.67,1.23-1.2,2.02-1.59c0.79-0.39,1.65-0.59,2.6-0.59c1.16,0,2.21,0.29,3.14,0.87c0.93,0.58,1.66,1.37,2.19,2.37
		s0.8,2.13,0.8,3.39c0,1.26-0.29,2.39-0.87,3.4c-0.58,1-1.37,1.8-2.36,2.38C95.28,307.07,94.16,307.36,92.9,307.36z M92.9,305.2
		c0.81,0,1.54-0.19,2.18-0.59c0.64-0.39,1.14-0.93,1.52-1.62c0.37-0.69,0.56-1.45,0.56-2.3c0-0.86-0.19-1.63-0.56-2.3
		c-0.38-0.67-0.88-1.2-1.52-1.59c-0.64-0.39-1.36-0.59-2.18-0.59c-0.8,0-1.52,0.2-2.17,0.59c-0.65,0.39-1.15,0.92-1.52,1.59
		c-0.37,0.67-0.55,1.44-0.55,2.3c0,0.85,0.18,1.61,0.55,2.3c0.37,0.69,0.87,1.22,1.52,1.62C91.38,305.01,92.1,305.2,92.9,305.2z"/>
	<path class="st0" d="M111.38,312.87c-0.35,0-0.64-0.12-0.87-0.35c-0.23-0.23-0.35-0.52-0.35-0.87v-10.92
		c0.02-1.26,0.31-2.39,0.89-3.4c0.57-1.01,1.36-1.8,2.34-2.38c0.99-0.58,2.11-0.87,3.35-0.87c1.26,0,2.39,0.29,3.38,0.87
		c0.99,0.58,1.77,1.38,2.36,2.38c0.58,1.01,0.87,2.14,0.87,3.4s-0.27,2.39-0.8,3.39c-0.53,1-1.26,1.79-2.19,2.37
		c-0.93,0.58-1.97,0.87-3.14,0.87c-0.94,0-1.81-0.2-2.6-0.59c-0.79-0.39-1.47-0.92-2.02-1.59v6.46c0,0.35-0.11,0.64-0.33,0.87
		C112.04,312.75,111.75,312.87,111.38,312.87z M116.74,305.2c0.81,0,1.54-0.19,2.18-0.59c0.64-0.39,1.14-0.93,1.52-1.6
		c0.37-0.68,0.56-1.44,0.56-2.29c0-0.86-0.19-1.63-0.56-2.31c-0.38-0.68-0.88-1.21-1.52-1.6c-0.64-0.39-1.36-0.59-2.18-0.59
		c-0.8,0-1.52,0.2-2.17,0.59c-0.65,0.39-1.15,0.93-1.52,1.6c-0.37,0.68-0.55,1.45-0.55,2.31c0,0.85,0.18,1.61,0.55,2.29
		c0.37,0.68,0.87,1.21,1.52,1.6C115.22,305.01,115.94,305.2,116.74,305.2z"/>
	<path class="st0" d="M132.93,307.36c-1.29,0-2.43-0.28-3.42-0.85c-0.99-0.57-1.77-1.35-2.34-2.34c-0.57-1-0.85-2.14-0.85-3.44
		c0-1.31,0.28-2.46,0.85-3.46c0.57-1,1.34-1.78,2.34-2.35c0.99-0.57,2.13-0.85,3.42-0.85c1.28,0,2.41,0.28,3.4,0.85
		c0.99,0.57,1.77,1.35,2.33,2.35c0.57,1,0.85,2.15,0.85,3.46c0,1.29-0.28,2.44-0.84,3.44c-0.56,1-1.33,1.78-2.32,2.34
		C135.36,307.08,134.22,307.36,132.93,307.36z M132.93,305.2c0.83,0,1.57-0.19,2.2-0.57c0.64-0.38,1.14-0.91,1.5-1.58
		c0.36-0.67,0.54-1.45,0.54-2.32s-0.18-1.66-0.54-2.34c-0.36-0.68-0.86-1.21-1.5-1.59c-0.64-0.38-1.37-0.57-2.2-0.57
		s-1.56,0.19-2.2,0.57c-0.64,0.38-1.14,0.92-1.51,1.59c-0.37,0.68-0.55,1.46-0.55,2.34s0.18,1.65,0.55,2.32
		c0.37,0.67,0.87,1.2,1.51,1.58C131.36,305.01,132.1,305.2,132.93,305.2z"/>
	<path class="st0" d="M148.66,307.38c-1.1,0-2.09-0.24-2.96-0.71c-0.87-0.47-1.56-1.16-2.06-2.07c-0.5-0.91-0.75-2.03-0.75-3.35
		v-5.89c0-0.35,0.12-0.64,0.35-0.87c0.23-0.23,0.52-0.35,0.88-0.35c0.35,0,0.64,0.12,0.87,0.35c0.23,0.23,0.35,0.52,0.35,0.87v5.89
		c0,0.9,0.17,1.63,0.5,2.22c0.33,0.58,0.79,1.01,1.36,1.29c0.57,0.28,1.22,0.42,1.94,0.42c0.69,0,1.3-0.14,1.83-0.41
		c0.53-0.27,0.96-0.64,1.28-1.1c0.32-0.46,0.48-0.98,0.48-1.56h1.51c0,0.99-0.24,1.88-0.73,2.68c-0.49,0.8-1.15,1.43-1.99,1.89
		C150.68,307.15,149.72,307.38,148.66,307.38z M153.95,307.26c-0.35,0-0.64-0.12-0.88-0.35c-0.23-0.23-0.35-0.52-0.35-0.87v-10.68
		c0-0.37,0.12-0.66,0.35-0.89c0.23-0.22,0.52-0.33,0.88-0.33c0.37,0,0.66,0.11,0.89,0.33c0.22,0.22,0.33,0.52,0.33,0.89v10.68
		c0,0.35-0.11,0.64-0.33,0.87C154.61,307.15,154.31,307.26,153.95,307.26z"/>
	<path class="st0" d="M160.67,307.26c-0.38,0-0.68-0.1-0.89-0.3c-0.21-0.2-0.31-0.5-0.31-0.9v-10.7c0-0.38,0.1-0.68,0.31-0.89
		c0.21-0.21,0.5-0.31,0.89-0.31c0.4,0,0.7,0.1,0.9,0.3c0.2,0.2,0.3,0.5,0.3,0.9v10.7c0,0.38-0.1,0.68-0.3,0.89
		C161.37,307.16,161.07,307.26,160.67,307.26z M160.65,299.08c0-0.96,0.23-1.81,0.71-2.57c0.47-0.76,1.1-1.36,1.9-1.81
		c0.8-0.45,1.68-0.67,2.63-0.67c0.96,0,1.67,0.16,2.14,0.47c0.47,0.31,0.65,0.68,0.54,1.11c-0.05,0.22-0.14,0.39-0.27,0.51
		c-0.14,0.12-0.29,0.2-0.47,0.23c-0.18,0.03-0.37,0.02-0.57-0.02c-1.02-0.21-1.94-0.22-2.75-0.05c-0.81,0.18-1.46,0.5-1.93,0.98
		c-0.47,0.48-0.71,1.08-0.71,1.82H160.65z"/>
	<path class="st0" d="M181.24,307.26c-0.7,0-1.32-0.19-1.87-0.57c-0.54-0.38-0.97-0.91-1.27-1.57c-0.3-0.66-0.45-1.43-0.45-2.29
		v-13.07c0-0.35,0.11-0.64,0.33-0.86c0.22-0.22,0.51-0.33,0.86-0.33c0.35,0,0.64,0.11,0.86,0.33c0.22,0.22,0.34,0.51,0.34,0.86
		v13.07c0,0.59,0.11,1.08,0.33,1.46c0.22,0.38,0.51,0.57,0.86,0.57h0.6c0.32,0,0.58,0.11,0.78,0.33c0.2,0.22,0.3,0.51,0.3,0.86
		c0,0.35-0.15,0.64-0.45,0.86c-0.3,0.22-0.69,0.34-1.17,0.34H181.24z"/>
	<path class="st0" d="M183.85,295.24c-0.26,0-0.45-0.11-0.59-0.35c-0.13-0.23-0.15-0.48-0.04-0.73c0.29-0.65,0.46-1.19,0.53-1.61
		c0.06-0.41,0.07-0.77,0.01-1.08c-0.06-0.3-0.12-0.59-0.2-0.87c-0.08-0.28-0.12-0.59-0.12-0.95c0-0.41,0.14-0.76,0.43-1.03
		c0.29-0.27,0.63-0.41,1.03-0.41c0.49,0,0.88,0.21,1.15,0.62c0.27,0.41,0.41,0.93,0.41,1.56c0,0.41-0.09,0.89-0.26,1.44
		c-0.18,0.54-0.4,1.07-0.66,1.59c-0.26,0.52-0.55,0.95-0.85,1.29C184.38,295.07,184.1,295.24,183.85,295.24z"/>
	<path class="st0" d="M191.29,307.26c-0.35,0-0.65-0.12-0.89-0.36c-0.24-0.24-0.36-0.53-0.36-0.89v-16.21c0-0.37,0.12-0.67,0.36-0.9
		c0.24-0.23,0.54-0.35,0.89-0.35c0.37,0,0.67,0.12,0.9,0.35c0.23,0.23,0.35,0.53,0.35,0.9v16.21c0,0.35-0.12,0.65-0.35,0.89
		C191.96,307.14,191.66,307.26,191.29,307.26z"/>
	<path class="st0" d="M198.3,307.29c-0.35,0-0.64-0.12-0.87-0.35c-0.23-0.23-0.35-0.52-0.35-0.88v-10.68c0-0.37,0.12-0.66,0.35-0.89
		c0.23-0.22,0.52-0.33,0.87-0.33c0.37,0,0.66,0.11,0.89,0.33c0.22,0.22,0.33,0.52,0.33,0.89v10.68c0,0.35-0.11,0.64-0.33,0.88
		C198.96,307.17,198.67,307.29,198.3,307.29z M208.14,307.29c-0.35,0-0.64-0.12-0.87-0.35c-0.23-0.23-0.35-0.52-0.35-0.88v-5.89
		c0-0.91-0.17-1.65-0.5-2.23c-0.34-0.57-0.79-1-1.35-1.28c-0.57-0.28-1.22-0.42-1.95-0.42c-0.67,0-1.28,0.14-1.82,0.41
		c-0.54,0.27-0.97,0.63-1.29,1.09c-0.32,0.45-0.48,0.98-0.48,1.57h-1.51c0-1,0.24-1.9,0.73-2.69s1.15-1.42,2-1.88
		c0.85-0.46,1.79-0.69,2.85-0.69c1.1,0,2.09,0.24,2.96,0.71c0.87,0.47,1.56,1.16,2.06,2.07c0.5,0.91,0.75,2.03,0.75,3.35v5.89
		c0,0.35-0.12,0.64-0.35,0.88C208.79,307.17,208.49,307.29,208.14,307.29z"/>
	<path class="st0" d="M219.35,307.36c-1.28,0-2.41-0.29-3.41-0.87c-1-0.58-1.78-1.37-2.35-2.37c-0.57-1-0.85-2.13-0.85-3.39
		c0-1.29,0.28-2.44,0.84-3.45c0.56-1,1.32-1.79,2.3-2.36c0.97-0.57,2.09-0.85,3.35-0.85c0.94,0,1.8,0.18,2.59,0.54
		c0.78,0.36,1.48,0.9,2.11,1.61c0.22,0.26,0.3,0.52,0.24,0.79c-0.06,0.27-0.24,0.51-0.53,0.72c-0.22,0.16-0.47,0.21-0.74,0.16
		c-0.27-0.06-0.52-0.2-0.74-0.42c-0.78-0.83-1.75-1.24-2.92-1.24c-0.81,0-1.53,0.19-2.15,0.56c-0.62,0.38-1.11,0.9-1.46,1.57
		c-0.35,0.67-0.53,1.46-0.53,2.37c0,0.86,0.18,1.63,0.54,2.3c0.36,0.67,0.86,1.2,1.5,1.59c0.64,0.39,1.38,0.59,2.23,0.59
		c0.56,0,1.05-0.07,1.47-0.2s0.81-0.35,1.16-0.63c0.25-0.21,0.52-0.32,0.79-0.35c0.27-0.02,0.51,0.05,0.72,0.23
		c0.27,0.22,0.42,0.48,0.46,0.75c0.03,0.28-0.06,0.53-0.29,0.75C222.51,306.82,221.07,307.36,219.35,307.36z"/>
	<path class="st0" d="M230.91,307.26c-0.7,0-1.32-0.19-1.87-0.57c-0.54-0.38-0.97-0.91-1.27-1.57c-0.3-0.66-0.45-1.43-0.45-2.29
		v-13.07c0-0.35,0.11-0.64,0.33-0.86c0.22-0.22,0.51-0.33,0.86-0.33c0.35,0,0.64,0.11,0.86,0.33c0.22,0.22,0.34,0.51,0.34,0.86
		v13.07c0,0.59,0.11,1.08,0.33,1.46c0.22,0.38,0.51,0.57,0.86,0.57h0.6c0.32,0,0.58,0.11,0.78,0.33c0.2,0.22,0.3,0.51,0.3,0.86
		c0,0.35-0.15,0.64-0.45,0.86c-0.3,0.22-0.69,0.34-1.17,0.34H230.91z"/>
	<path class="st0" d="M240.49,307.38c-1.1,0-2.09-0.24-2.96-0.71c-0.87-0.47-1.56-1.16-2.06-2.07c-0.5-0.91-0.75-2.03-0.75-3.35
		v-5.89c0-0.35,0.12-0.64,0.35-0.87s0.52-0.35,0.88-0.35c0.35,0,0.64,0.12,0.87,0.35c0.23,0.23,0.35,0.52,0.35,0.87v5.89
		c0,0.9,0.17,1.63,0.5,2.22c0.33,0.58,0.79,1.01,1.36,1.29c0.57,0.28,1.22,0.42,1.94,0.42c0.69,0,1.3-0.14,1.83-0.41
		c0.53-0.27,0.96-0.64,1.28-1.1c0.32-0.46,0.48-0.98,0.48-1.56h1.51c0,0.99-0.24,1.88-0.73,2.68c-0.49,0.8-1.15,1.43-1.99,1.89
		C242.51,307.15,241.56,307.38,240.49,307.38z M245.78,307.26c-0.35,0-0.64-0.12-0.88-0.35s-0.35-0.52-0.35-0.87v-10.68
		c0-0.37,0.12-0.66,0.35-0.89c0.23-0.22,0.52-0.33,0.88-0.33c0.37,0,0.66,0.11,0.89,0.33c0.22,0.22,0.33,0.52,0.33,0.89v10.68
		c0,0.35-0.11,0.64-0.33,0.87C246.44,307.15,246.15,307.26,245.78,307.26z"/>
	<path class="st0" d="M256.07,307.36c-1.12,0-2.15-0.17-3.1-0.51c-0.95-0.34-1.69-0.78-2.22-1.3c-0.24-0.26-0.34-0.55-0.3-0.88
		c0.04-0.33,0.2-0.59,0.47-0.8c0.32-0.25,0.63-0.36,0.94-0.32c0.31,0.04,0.58,0.18,0.8,0.42c0.27,0.3,0.71,0.59,1.3,0.85
		c0.6,0.26,1.26,0.39,2,0.39c0.93,0,1.63-0.15,2.12-0.45c0.49-0.3,0.74-0.69,0.75-1.17c0.02-0.48-0.21-0.89-0.68-1.24
		c-0.47-0.35-1.33-0.64-2.57-0.86c-1.61-0.32-2.78-0.8-3.51-1.44c-0.73-0.64-1.09-1.42-1.09-2.35c0-0.81,0.24-1.49,0.72-2.02
		c0.48-0.53,1.09-0.94,1.84-1.2c0.75-0.26,1.53-0.39,2.35-0.39c1.05,0,1.99,0.17,2.8,0.5c0.81,0.34,1.46,0.8,1.94,1.39
		c0.22,0.26,0.33,0.52,0.31,0.8c-0.02,0.28-0.15,0.51-0.41,0.71c-0.26,0.18-0.56,0.23-0.91,0.17c-0.35-0.06-0.65-0.21-0.88-0.43
		c-0.4-0.38-0.83-0.65-1.29-0.79c-0.46-0.14-1-0.21-1.6-0.21c-0.7,0-1.3,0.12-1.78,0.36c-0.49,0.24-0.73,0.59-0.73,1.05
		c0,0.29,0.08,0.55,0.23,0.78c0.15,0.23,0.45,0.44,0.9,0.62s1.1,0.36,1.96,0.54c1.2,0.24,2.14,0.54,2.84,0.91
		c0.69,0.37,1.19,0.79,1.5,1.28c0.3,0.49,0.45,1.05,0.45,1.69c0,0.73-0.2,1.4-0.59,1.99c-0.39,0.59-0.97,1.06-1.73,1.41
		C258.15,307.18,257.21,307.36,256.07,307.36z"/>
	<path class="st0" d="M265.77,292.04c-0.43,0-0.8-0.16-1.11-0.47c-0.31-0.31-0.47-0.68-0.47-1.11c0-0.43,0.16-0.8,0.47-1.11
		c0.31-0.31,0.68-0.47,1.11-0.47c0.43,0,0.8,0.16,1.11,0.47c0.31,0.31,0.47,0.68,0.47,1.11c0,0.43-0.16,0.8-0.47,1.11
		C266.57,291.88,266.2,292.04,265.77,292.04z M265.77,307.26c-0.35,0-0.64-0.12-0.88-0.35s-0.35-0.52-0.35-0.87v-10.65
		c0-0.37,0.12-0.66,0.35-0.89c0.23-0.22,0.52-0.33,0.88-0.33c0.37,0,0.66,0.11,0.88,0.33c0.22,0.22,0.34,0.52,0.34,0.89v10.65
		c0,0.35-0.11,0.64-0.34,0.87C266.43,307.15,266.13,307.26,265.77,307.26z"/>
	<path class="st0" d="M277.47,307.36c-1.29,0-2.43-0.28-3.42-0.85c-0.99-0.57-1.77-1.35-2.34-2.34c-0.57-1-0.85-2.14-0.85-3.44
		c0-1.31,0.28-2.46,0.85-3.46c0.57-1,1.34-1.78,2.34-2.35c0.99-0.57,2.13-0.85,3.42-0.85c1.28,0,2.41,0.28,3.4,0.85
		c0.99,0.57,1.77,1.35,2.33,2.35c0.57,1,0.85,2.15,0.85,3.46c0,1.29-0.28,2.44-0.84,3.44c-0.56,1-1.33,1.78-2.32,2.34
		C279.91,307.08,278.77,307.36,277.47,307.36z M277.47,305.2c0.83,0,1.57-0.19,2.2-0.57c0.64-0.38,1.14-0.91,1.5-1.58
		c0.36-0.67,0.54-1.45,0.54-2.32s-0.18-1.66-0.54-2.34c-0.36-0.68-0.86-1.21-1.5-1.59c-0.64-0.38-1.37-0.57-2.2-0.57
		s-1.56,0.19-2.2,0.57c-0.64,0.38-1.14,0.92-1.51,1.59c-0.37,0.68-0.55,1.46-0.55,2.34s0.18,1.65,0.55,2.32
		c0.37,0.67,0.87,1.2,1.51,1.58C275.91,305.01,276.64,305.2,277.47,305.2z"/>
	<path class="st0" d="M288.92,307.29c-0.35,0-0.64-0.12-0.87-0.35c-0.23-0.23-0.35-0.52-0.35-0.88v-10.68
		c0-0.37,0.12-0.66,0.35-0.89c0.23-0.22,0.52-0.33,0.87-0.33c0.37,0,0.66,0.11,0.89,0.33c0.22,0.22,0.33,0.52,0.33,0.89v10.68
		c0,0.35-0.11,0.64-0.33,0.88C289.58,307.17,289.29,307.29,288.92,307.29z M298.76,307.29c-0.35,0-0.64-0.12-0.87-0.35
		c-0.23-0.23-0.35-0.52-0.35-0.88v-5.89c0-0.91-0.17-1.65-0.5-2.23c-0.34-0.57-0.79-1-1.35-1.28c-0.57-0.28-1.22-0.42-1.95-0.42
		c-0.67,0-1.28,0.14-1.82,0.41c-0.54,0.27-0.97,0.63-1.29,1.09c-0.32,0.45-0.48,0.98-0.48,1.57h-1.51c0-1,0.24-1.9,0.73-2.69
		s1.15-1.42,2-1.88s1.79-0.69,2.85-0.69c1.1,0,2.09,0.24,2.96,0.71c0.87,0.47,1.56,1.16,2.06,2.07c0.5,0.91,0.75,2.03,0.75,3.35
		v5.89c0,0.35-0.12,0.64-0.35,0.88C299.4,307.17,299.11,307.29,298.76,307.29z"/>
	<path class="st0" d="M312.5,307.26c-0.35,0-0.64-0.12-0.88-0.36c-0.23-0.24-0.35-0.53-0.35-0.89v-16.21c0-0.37,0.12-0.67,0.35-0.9
		c0.23-0.23,0.52-0.35,0.88-0.35c0.38,0,0.7,0.15,0.96,0.45l10.44,13.89v-13.1c0-0.37,0.12-0.67,0.36-0.9
		c0.24-0.23,0.53-0.35,0.89-0.35c0.37,0,0.66,0.12,0.88,0.35c0.22,0.23,0.34,0.53,0.34,0.9v16.21c0,0.35-0.11,0.65-0.34,0.89
		c-0.22,0.24-0.52,0.36-0.88,0.36c-0.16,0-0.33-0.04-0.52-0.11c-0.18-0.07-0.33-0.18-0.44-0.33l-10.44-13.89v13.07
		c0,0.35-0.12,0.65-0.35,0.89C313.17,307.14,312.87,307.26,312.5,307.26z"/>
	<path class="st0" d="M336.42,307.38c-1.1,0-2.09-0.24-2.96-0.71c-0.87-0.47-1.56-1.16-2.06-2.07c-0.5-0.91-0.75-2.03-0.75-3.35
		v-5.89c0-0.35,0.12-0.64,0.35-0.87s0.52-0.35,0.88-0.35c0.35,0,0.64,0.12,0.87,0.35c0.23,0.23,0.35,0.52,0.35,0.87v5.89
		c0,0.9,0.17,1.63,0.5,2.22c0.33,0.58,0.79,1.01,1.36,1.29c0.57,0.28,1.22,0.42,1.94,0.42c0.69,0,1.3-0.14,1.83-0.41
		c0.53-0.27,0.96-0.64,1.28-1.1c0.32-0.46,0.48-0.98,0.48-1.56h1.51c0,0.99-0.24,1.88-0.73,2.68c-0.49,0.8-1.15,1.43-1.99,1.89
		C338.44,307.15,337.49,307.38,336.42,307.38z M341.71,307.26c-0.35,0-0.64-0.12-0.88-0.35s-0.35-0.52-0.35-0.87v-10.68
		c0-0.37,0.12-0.66,0.35-0.89c0.23-0.22,0.52-0.33,0.88-0.33c0.37,0,0.66,0.11,0.89,0.33c0.22,0.22,0.33,0.52,0.33,0.89v10.68
		c0,0.35-0.11,0.64-0.33,0.87C342.37,307.15,342.08,307.26,341.71,307.26z"/>
	<path class="st0" d="M348.46,307.29c-0.35,0-0.64-0.12-0.87-0.35c-0.23-0.23-0.35-0.52-0.35-0.88v-10.65
		c0-0.37,0.12-0.66,0.35-0.89c0.23-0.22,0.52-0.34,0.87-0.34c0.37,0,0.66,0.11,0.89,0.34c0.22,0.22,0.33,0.52,0.33,0.89v10.65
		c0,0.35-0.11,0.64-0.33,0.88C349.12,307.17,348.83,307.29,348.46,307.29z M356.45,307.29c-0.35,0-0.64-0.12-0.87-0.35
		c-0.23-0.23-0.35-0.52-0.35-0.88v-6.85c0-1-0.25-1.75-0.74-2.24c-0.5-0.49-1.14-0.73-1.94-0.73c-0.83,0-1.52,0.29-2.06,0.86
		c-0.54,0.57-0.81,1.31-0.81,2.2h-1.51c0-1.04,0.21-1.95,0.62-2.74c0.41-0.79,0.99-1.41,1.72-1.85c0.73-0.45,1.57-0.67,2.51-0.67
		c0.91,0,1.71,0.2,2.42,0.6c0.7,0.4,1.25,0.98,1.64,1.76s0.59,1.71,0.59,2.81v6.85c0,0.35-0.11,0.64-0.34,0.88
		C357.12,307.17,356.82,307.29,356.45,307.29z M364.43,307.29c-0.35,0-0.64-0.12-0.88-0.35c-0.23-0.23-0.35-0.52-0.35-0.88v-6.85
		c0-1-0.25-1.75-0.74-2.24s-1.14-0.73-1.94-0.73c-0.83,0-1.51,0.29-2.05,0.86c-0.53,0.57-0.8,1.31-0.8,2.2h-1.99
		c0-1.04,0.22-1.95,0.67-2.74s1.07-1.41,1.88-1.85c0.81-0.45,1.73-0.67,2.77-0.67c0.91,0,1.72,0.2,2.42,0.6
		c0.7,0.4,1.25,0.98,1.64,1.76c0.39,0.77,0.59,1.71,0.59,2.81v6.85c0,0.35-0.11,0.64-0.34,0.88
		C365.09,307.17,364.79,307.29,364.43,307.29z"/>
	<path class="st0" d="M375.85,307.36c-1.32,0-2.5-0.28-3.53-0.85c-1.03-0.57-1.83-1.35-2.42-2.34c-0.58-1-0.87-2.14-0.87-3.44
		c0-1.31,0.27-2.46,0.83-3.46c0.55-1,1.31-1.78,2.28-2.35c0.98-0.57,2.09-0.85,3.35-0.85c1.24,0,2.31,0.27,3.21,0.83
		c0.9,0.55,1.58,1.31,2.05,2.27c0.47,0.97,0.71,2.08,0.71,3.34c0,0.3-0.1,0.55-0.31,0.75c-0.21,0.2-0.47,0.3-0.79,0.3h-9.65v-1.91
		h9.58l-0.98,0.67c-0.02-0.8-0.18-1.51-0.48-2.14s-0.73-1.13-1.29-1.5c-0.56-0.37-1.24-0.55-2.04-0.55c-0.91,0-1.69,0.2-2.34,0.6
		c-0.65,0.4-1.14,0.95-1.47,1.64c-0.33,0.69-0.5,1.48-0.5,2.36s0.2,1.66,0.6,2.34c0.4,0.69,0.95,1.23,1.65,1.63
		c0.7,0.4,1.51,0.6,2.42,0.6c0.49,0,1-0.09,1.52-0.27c0.52-0.18,0.94-0.4,1.26-0.63c0.24-0.18,0.5-0.27,0.78-0.28
		c0.28-0.01,0.52,0.08,0.73,0.25c0.27,0.24,0.41,0.5,0.43,0.79c0.02,0.29-0.11,0.53-0.38,0.74c-0.54,0.43-1.22,0.78-2.02,1.05
		C377.35,307.22,376.58,307.36,375.85,307.36z M375.34,292.11c-0.35,0-0.64-0.12-0.87-0.35c-0.23-0.23-0.35-0.52-0.35-0.87
		c0-0.34,0.1-0.61,0.29-0.81l2.35-2.35c0.24-0.24,0.53-0.36,0.86-0.36c0.37,0,0.66,0.12,0.88,0.36c0.22,0.24,0.34,0.54,0.34,0.89
		c0,0.16-0.02,0.31-0.07,0.45c-0.05,0.14-0.14,0.27-0.26,0.39l-2.32,2.32C375.96,292,375.68,292.11,375.34,292.11z"/>
	<path class="st0" d="M385.76,307.26c-0.38,0-0.68-0.1-0.89-0.3c-0.21-0.2-0.31-0.5-0.31-0.9v-10.7c0-0.38,0.1-0.68,0.31-0.89
		c0.21-0.21,0.5-0.31,0.89-0.31c0.4,0,0.7,0.1,0.9,0.3c0.2,0.2,0.3,0.5,0.3,0.9v10.7c0,0.38-0.1,0.68-0.3,0.89
		C386.46,307.16,386.16,307.26,385.76,307.26z M385.74,299.08c0-0.96,0.23-1.81,0.71-2.57c0.47-0.76,1.1-1.36,1.9-1.81
		c0.8-0.45,1.68-0.67,2.63-0.67c0.96,0,1.67,0.16,2.14,0.47c0.47,0.31,0.65,0.68,0.54,1.11c-0.05,0.22-0.14,0.39-0.27,0.51
		s-0.29,0.2-0.47,0.23c-0.18,0.03-0.37,0.02-0.57-0.02c-1.02-0.21-1.94-0.22-2.75-0.05c-0.81,0.18-1.46,0.5-1.93,0.98
		c-0.47,0.48-0.71,1.08-0.71,1.82H385.74z"/>
	<path class="st0" d="M397.66,292.04c-0.43,0-0.8-0.16-1.11-0.47c-0.31-0.31-0.47-0.68-0.47-1.11c0-0.43,0.16-0.8,0.47-1.11
		c0.31-0.31,0.68-0.47,1.11-0.47c0.43,0,0.8,0.16,1.11,0.47c0.31,0.31,0.47,0.68,0.47,1.11c0,0.43-0.16,0.8-0.47,1.11
		C398.46,291.88,398.09,292.04,397.66,292.04z M397.66,307.26c-0.35,0-0.64-0.12-0.88-0.35c-0.23-0.23-0.35-0.52-0.35-0.87v-10.65
		c0-0.37,0.12-0.66,0.35-0.89c0.23-0.22,0.52-0.33,0.88-0.33c0.37,0,0.66,0.11,0.88,0.33c0.22,0.22,0.34,0.52,0.34,0.89v10.65
		c0,0.35-0.11,0.64-0.34,0.87C398.32,307.15,398.02,307.26,397.66,307.26z"/>
	<path class="st0" d="M414.75,312.87c-0.37,0-0.67-0.12-0.9-0.35s-0.35-0.52-0.35-0.87v-6.46c-0.54,0.67-1.21,1.2-2.01,1.59
		c-0.8,0.39-1.67,0.59-2.61,0.59c-1.16,0-2.21-0.29-3.14-0.87c-0.93-0.58-1.66-1.37-2.19-2.37c-0.53-1-0.8-2.13-0.8-3.39
		s0.29-2.39,0.87-3.4c0.58-1.01,1.37-1.8,2.37-2.38c1-0.58,2.12-0.87,3.36-0.87c1.24,0,2.36,0.29,3.35,0.87
		c0.99,0.58,1.78,1.38,2.36,2.38c0.58,1.01,0.87,2.14,0.87,3.4v10.92c0,0.35-0.11,0.64-0.34,0.87
		C415.39,312.75,415.1,312.87,414.75,312.87z M409.36,305.2c0.81,0,1.54-0.19,2.18-0.59c0.64-0.39,1.14-0.93,1.51-1.6
		c0.37-0.68,0.55-1.44,0.55-2.29c0-0.86-0.18-1.63-0.55-2.31c-0.37-0.68-0.87-1.21-1.51-1.6c-0.64-0.39-1.36-0.59-2.18-0.59
		c-0.8,0-1.52,0.2-2.17,0.59c-0.65,0.39-1.16,0.93-1.53,1.6c-0.38,0.68-0.56,1.45-0.56,2.31c0,0.85,0.19,1.61,0.56,2.29
		c0.37,0.68,0.89,1.21,1.53,1.6C407.84,305.01,408.57,305.2,409.36,305.2z"/>
	<path class="st0" d="M425.76,307.38c-1.1,0-2.09-0.24-2.96-0.71c-0.87-0.47-1.56-1.16-2.06-2.07c-0.5-0.91-0.75-2.03-0.75-3.35
		v-5.89c0-0.35,0.12-0.64,0.35-0.87s0.52-0.35,0.88-0.35c0.35,0,0.64,0.12,0.87,0.35s0.35,0.52,0.35,0.87v5.89
		c0,0.9,0.17,1.63,0.5,2.22c0.33,0.58,0.79,1.01,1.36,1.29c0.57,0.28,1.22,0.42,1.94,0.42c0.69,0,1.3-0.14,1.83-0.41
		c0.53-0.27,0.96-0.64,1.28-1.1c0.32-0.46,0.48-0.98,0.48-1.56h1.51c0,0.99-0.24,1.88-0.73,2.68c-0.49,0.8-1.15,1.43-1.99,1.89
		C427.79,307.15,426.83,307.38,425.76,307.38z M431.06,307.26c-0.35,0-0.64-0.12-0.88-0.35s-0.35-0.52-0.35-0.87v-10.68
		c0-0.37,0.12-0.66,0.35-0.89c0.23-0.22,0.52-0.33,0.88-0.33c0.37,0,0.66,0.11,0.89,0.33c0.22,0.22,0.33,0.52,0.33,0.89v10.68
		c0,0.35-0.11,0.64-0.33,0.87C431.72,307.15,431.42,307.26,431.06,307.26z"/>
	<path class="st0" d="M442.74,307.36c-1.32,0-2.5-0.28-3.53-0.85c-1.03-0.57-1.83-1.35-2.42-2.34c-0.58-1-0.87-2.14-0.87-3.44
		c0-1.31,0.27-2.46,0.83-3.46c0.55-1,1.31-1.78,2.28-2.35c0.98-0.57,2.09-0.85,3.35-0.85c1.24,0,2.31,0.27,3.21,0.83
		c0.9,0.55,1.58,1.31,2.05,2.27c0.47,0.97,0.71,2.08,0.71,3.34c0,0.3-0.1,0.55-0.31,0.75c-0.21,0.2-0.47,0.3-0.79,0.3h-9.65v-1.91
		h9.58l-0.98,0.67c-0.02-0.8-0.18-1.51-0.48-2.14s-0.73-1.13-1.29-1.5c-0.56-0.37-1.24-0.55-2.04-0.55c-0.91,0-1.69,0.2-2.34,0.6
		c-0.65,0.4-1.14,0.95-1.47,1.64c-0.33,0.69-0.5,1.48-0.5,2.36s0.2,1.66,0.6,2.34c0.4,0.69,0.95,1.23,1.65,1.63
		c0.7,0.4,1.51,0.6,2.42,0.6c0.49,0,1-0.09,1.52-0.27c0.52-0.18,0.94-0.4,1.26-0.63c0.24-0.18,0.5-0.27,0.78-0.28
		c0.28-0.01,0.52,0.08,0.73,0.25c0.27,0.24,0.41,0.5,0.43,0.79c0.02,0.29-0.11,0.53-0.38,0.74c-0.54,0.43-1.22,0.78-2.02,1.05
		C444.24,307.22,443.47,307.36,442.74,307.36z"/>
	<path class="st0" d="M464.62,307.36c-1.32,0-2.5-0.28-3.53-0.85c-1.03-0.57-1.83-1.35-2.42-2.34c-0.58-1-0.87-2.14-0.87-3.44
		c0-1.31,0.27-2.46,0.83-3.46c0.55-1,1.31-1.78,2.28-2.35c0.98-0.57,2.09-0.85,3.35-0.85c1.24,0,2.31,0.27,3.21,0.83
		c0.9,0.55,1.58,1.31,2.05,2.27c0.47,0.97,0.71,2.08,0.71,3.34c0,0.3-0.1,0.55-0.31,0.75c-0.21,0.2-0.47,0.3-0.79,0.3h-9.65v-1.91
		h9.58l-0.98,0.67c-0.02-0.8-0.18-1.51-0.48-2.14s-0.73-1.13-1.29-1.5c-0.56-0.37-1.24-0.55-2.04-0.55c-0.91,0-1.69,0.2-2.34,0.6
		c-0.65,0.4-1.14,0.95-1.47,1.64c-0.33,0.69-0.5,1.48-0.5,2.36s0.2,1.66,0.6,2.34c0.4,0.69,0.95,1.23,1.65,1.63
		c0.7,0.4,1.51,0.6,2.42,0.6c0.49,0,1-0.09,1.52-0.27c0.52-0.18,0.94-0.4,1.26-0.63c0.24-0.18,0.5-0.27,0.78-0.28
		c0.28-0.01,0.52,0.08,0.73,0.25c0.27,0.24,0.41,0.5,0.43,0.79c0.02,0.29-0.11,0.53-0.38,0.74c-0.54,0.43-1.22,0.78-2.02,1.05
		C466.12,307.22,465.35,307.36,464.62,307.36z"/>
	<path class="st0" d="M474.56,307.29c-0.35,0-0.64-0.12-0.87-0.35c-0.23-0.23-0.35-0.52-0.35-0.88v-10.68
		c0-0.37,0.12-0.66,0.35-0.89c0.23-0.22,0.52-0.33,0.87-0.33c0.37,0,0.66,0.11,0.89,0.33c0.22,0.22,0.33,0.52,0.33,0.89v10.68
		c0,0.35-0.11,0.64-0.33,0.88C475.22,307.17,474.92,307.29,474.56,307.29z M484.4,307.29c-0.35,0-0.64-0.12-0.87-0.35
		c-0.23-0.23-0.35-0.52-0.35-0.88v-5.89c0-0.91-0.17-1.65-0.5-2.23c-0.34-0.57-0.79-1-1.35-1.28c-0.57-0.28-1.22-0.42-1.95-0.42
		c-0.67,0-1.28,0.14-1.82,0.41c-0.54,0.27-0.97,0.63-1.29,1.09c-0.32,0.45-0.48,0.98-0.48,1.57h-1.51c0-1,0.24-1.9,0.73-2.69
		s1.15-1.42,2-1.88c0.85-0.46,1.79-0.69,2.85-0.69c1.1,0,2.09,0.24,2.96,0.71c0.87,0.47,1.56,1.16,2.06,2.07
		c0.5,0.91,0.75,2.03,0.75,3.35v5.89c0,0.35-0.12,0.64-0.35,0.88C485.04,307.17,484.75,307.29,484.4,307.29z"/>
	<path class="st0" d="M496.17,307.26c-0.45,0-0.79-0.19-1.03-0.57c-0.24-0.38-0.26-0.79-0.07-1.22l6.73-16.07
		c0.24-0.56,0.63-0.84,1.17-0.84c0.58,0,0.97,0.28,1.17,0.84l6.75,16.11c0.18,0.45,0.15,0.85-0.08,1.21s-0.58,0.54-1.04,0.54
		c-0.24,0-0.47-0.07-0.68-0.2c-0.22-0.14-0.37-0.33-0.47-0.56l-5.94-14.75h0.67l-6.03,14.75c-0.11,0.26-0.28,0.45-0.49,0.57
		C496.62,307.2,496.4,307.26,496.17,307.26z M497.44,303.15l0.96-2.06h9.39l0.96,2.06H497.44z"/>
	<path class="st0" d="M519.02,307.38c-1.1,0-2.09-0.24-2.96-0.71c-0.87-0.47-1.56-1.16-2.06-2.07c-0.5-0.91-0.75-2.03-0.75-3.35
		v-5.89c0-0.35,0.12-0.64,0.35-0.87s0.52-0.35,0.88-0.35c0.35,0,0.64,0.12,0.87,0.35c0.23,0.23,0.35,0.52,0.35,0.87v5.89
		c0,0.9,0.17,1.63,0.5,2.22c0.33,0.58,0.79,1.01,1.36,1.29c0.57,0.28,1.22,0.42,1.94,0.42c0.69,0,1.3-0.14,1.83-0.41
		c0.53-0.27,0.96-0.64,1.28-1.1c0.32-0.46,0.48-0.98,0.48-1.56h1.51c0,0.99-0.24,1.88-0.73,2.68c-0.49,0.8-1.15,1.43-1.99,1.89
		C521.04,307.15,520.08,307.38,519.02,307.38z M524.31,307.26c-0.35,0-0.64-0.12-0.88-0.35s-0.35-0.52-0.35-0.87v-10.68
		c0-0.37,0.12-0.66,0.35-0.89c0.23-0.22,0.52-0.33,0.88-0.33c0.37,0,0.66,0.11,0.89,0.33c0.22,0.22,0.33,0.52,0.33,0.89v10.68
		c0,0.35-0.11,0.64-0.33,0.87C524.97,307.15,524.67,307.26,524.31,307.26z"/>
	<path class="st0" d="M533.55,307.24c-0.49,0-0.88-0.26-1.15-0.79l-5.08-10.7c-0.13-0.27-0.14-0.54-0.04-0.8
		c0.1-0.26,0.31-0.47,0.61-0.61c0.27-0.14,0.55-0.17,0.83-0.07c0.28,0.1,0.49,0.28,0.63,0.55l4.74,10.22h-1.15l4.69-10.22
		c0.14-0.27,0.36-0.45,0.66-0.55c0.3-0.1,0.59-0.07,0.9,0.07c0.29,0.13,0.48,0.33,0.57,0.6c0.1,0.27,0.08,0.54-0.05,0.81l-5.08,10.7
		C534.41,306.98,534.04,307.24,533.55,307.24z"/>
	<path class="st0" d="M547.91,307.36c-1.32,0-2.5-0.28-3.53-0.85c-1.03-0.57-1.83-1.35-2.42-2.34s-0.87-2.14-0.87-3.44
		c0-1.31,0.27-2.46,0.83-3.46c0.55-1,1.31-1.78,2.28-2.35c0.98-0.57,2.09-0.85,3.35-0.85c1.24,0,2.31,0.27,3.21,0.83
		c0.9,0.55,1.58,1.31,2.05,2.27c0.47,0.97,0.71,2.08,0.71,3.34c0,0.3-0.1,0.55-0.31,0.75c-0.21,0.2-0.47,0.3-0.79,0.3h-9.65v-1.91
		h9.58l-0.98,0.67c-0.02-0.8-0.18-1.51-0.48-2.14c-0.3-0.63-0.73-1.13-1.29-1.5c-0.56-0.37-1.24-0.55-2.04-0.55
		c-0.91,0-1.69,0.2-2.34,0.6c-0.65,0.4-1.14,0.95-1.47,1.64c-0.33,0.69-0.5,1.48-0.5,2.36s0.2,1.66,0.6,2.34
		c0.4,0.69,0.95,1.23,1.65,1.63c0.7,0.4,1.51,0.6,2.42,0.6c0.49,0,1-0.09,1.52-0.27c0.52-0.18,0.94-0.4,1.26-0.63
		c0.24-0.18,0.5-0.27,0.78-0.28c0.28-0.01,0.52,0.08,0.73,0.25c0.27,0.24,0.41,0.5,0.43,0.79c0.02,0.29-0.11,0.53-0.38,0.74
		c-0.54,0.43-1.22,0.78-2.02,1.05C549.42,307.22,548.65,307.36,547.91,307.36z"/>
	<path class="st0" d="M557.82,307.26c-0.38,0-0.68-0.1-0.89-0.3c-0.21-0.2-0.31-0.5-0.31-0.9v-10.7c0-0.38,0.1-0.68,0.31-0.89
		c0.21-0.21,0.5-0.31,0.89-0.31c0.4,0,0.7,0.1,0.9,0.3c0.2,0.2,0.3,0.5,0.3,0.9v10.7c0,0.38-0.1,0.68-0.3,0.89
		C558.52,307.16,558.22,307.26,557.82,307.26z M557.8,299.08c0-0.96,0.23-1.81,0.71-2.57c0.47-0.76,1.1-1.36,1.9-1.81
		c0.8-0.45,1.68-0.67,2.63-0.67s1.67,0.16,2.14,0.47c0.47,0.31,0.65,0.68,0.54,1.11c-0.05,0.22-0.14,0.39-0.27,0.51
		s-0.29,0.2-0.47,0.23c-0.18,0.03-0.37,0.02-0.57-0.02c-1.02-0.21-1.94-0.22-2.75-0.05c-0.81,0.18-1.46,0.5-1.93,0.98
		c-0.47,0.48-0.71,1.08-0.71,1.82H557.8z"/>
	<path class="st0" d="M572.76,307.36c-1.2,0-2.25-0.28-3.17-0.85c-0.92-0.57-1.64-1.35-2.17-2.34c-0.53-1-0.79-2.14-0.79-3.44
		c0-1.31,0.28-2.46,0.85-3.46c0.57-1,1.34-1.78,2.34-2.35c0.99-0.57,2.13-0.85,3.42-0.85c1.28,0,2.41,0.28,3.4,0.85
		c0.99,0.57,1.77,1.35,2.33,2.35c0.57,1,0.85,2.15,0.85,3.46h-1.41c0,1.29-0.24,2.44-0.73,3.44c-0.49,1-1.15,1.78-2,2.34
		C574.84,307.08,573.86,307.36,572.76,307.36z M573.19,312.7c-1.13,0-2.2-0.22-3.18-0.67c-0.99-0.45-1.83-1.1-2.51-1.96
		c-0.21-0.27-0.29-0.55-0.23-0.84c0.06-0.29,0.21-0.52,0.47-0.69c0.29-0.19,0.59-0.26,0.9-0.19c0.31,0.06,0.56,0.22,0.75,0.48
		c0.43,0.54,0.97,0.96,1.63,1.27c0.65,0.3,1.4,0.45,2.23,0.45c0.77,0,1.47-0.18,2.12-0.55c0.65-0.37,1.16-0.91,1.54-1.63
		c0.38-0.72,0.57-1.6,0.57-2.63v-3.4l0.79-2.11l1.56,0.5v5.17c0,1.26-0.28,2.41-0.84,3.44c-0.56,1.03-1.34,1.85-2.34,2.45
		S574.5,312.7,573.19,312.7z M573.24,305.2c0.83,0,1.57-0.19,2.2-0.57c0.64-0.38,1.14-0.91,1.5-1.58c0.36-0.67,0.54-1.45,0.54-2.32
		s-0.18-1.66-0.54-2.34c-0.36-0.68-0.86-1.21-1.5-1.59c-0.64-0.38-1.37-0.57-2.2-0.57c-0.83,0-1.56,0.19-2.2,0.57
		c-0.64,0.38-1.14,0.92-1.51,1.59c-0.37,0.68-0.55,1.46-0.55,2.34s0.18,1.65,0.55,2.32c0.37,0.67,0.87,1.2,1.51,1.58
		C571.68,305.01,572.41,305.2,573.24,305.2z"/>
	<path class="st0" d="M584.68,307.29c-0.35,0-0.64-0.12-0.87-0.35c-0.23-0.23-0.35-0.52-0.35-0.88v-10.68
		c0-0.37,0.12-0.66,0.35-0.89c0.23-0.22,0.52-0.33,0.87-0.33c0.37,0,0.66,0.11,0.89,0.33c0.22,0.22,0.33,0.52,0.33,0.89v10.68
		c0,0.35-0.11,0.64-0.33,0.88C585.35,307.17,585.05,307.29,584.68,307.29z M594.52,307.29c-0.35,0-0.64-0.12-0.87-0.35
		c-0.23-0.23-0.35-0.52-0.35-0.88v-5.89c0-0.91-0.17-1.65-0.5-2.23c-0.34-0.57-0.79-1-1.35-1.28c-0.57-0.28-1.22-0.42-1.95-0.42
		c-0.67,0-1.28,0.14-1.82,0.41c-0.54,0.27-0.97,0.63-1.29,1.09c-0.32,0.45-0.48,0.98-0.48,1.57h-1.51c0-1,0.24-1.9,0.73-2.69
		c0.49-0.79,1.15-1.42,2-1.88s1.79-0.69,2.85-0.69c1.1,0,2.09,0.24,2.96,0.71c0.87,0.47,1.56,1.16,2.06,2.07
		c0.5,0.91,0.75,2.03,0.75,3.35v5.89c0,0.35-0.12,0.64-0.35,0.88C595.17,307.17,594.88,307.29,594.52,307.29z"/>
	<path class="st0" d="M605.94,307.36c-1.32,0-2.5-0.28-3.53-0.85c-1.03-0.57-1.83-1.35-2.42-2.34c-0.58-1-0.87-2.14-0.87-3.44
		c0-1.31,0.27-2.46,0.83-3.46c0.55-1,1.31-1.78,2.28-2.35c0.98-0.57,2.09-0.85,3.35-0.85c1.24,0,2.31,0.27,3.21,0.83
		c0.9,0.55,1.58,1.31,2.05,2.27c0.47,0.97,0.71,2.08,0.71,3.34c0,0.3-0.1,0.55-0.31,0.75c-0.21,0.2-0.47,0.3-0.79,0.3h-9.65v-1.91
		h9.58l-0.98,0.67c-0.02-0.8-0.18-1.51-0.48-2.14c-0.3-0.63-0.73-1.13-1.29-1.5c-0.56-0.37-1.24-0.55-2.04-0.55
		c-0.91,0-1.69,0.2-2.34,0.6c-0.65,0.4-1.14,0.95-1.47,1.64c-0.33,0.69-0.5,1.48-0.5,2.36s0.2,1.66,0.6,2.34
		c0.4,0.69,0.95,1.23,1.65,1.63c0.7,0.4,1.51,0.6,2.42,0.6c0.49,0,1-0.09,1.52-0.27c0.52-0.18,0.94-0.4,1.26-0.63
		c0.24-0.18,0.5-0.27,0.78-0.28c0.28-0.01,0.52,0.08,0.73,0.25c0.27,0.24,0.41,0.5,0.43,0.79c0.02,0.29-0.11,0.53-0.38,0.74
		c-0.54,0.43-1.22,0.78-2.02,1.05C607.45,307.22,606.68,307.36,605.94,307.36z"/>
	<path class="st0" d="M614.59,301.92c-0.35,0-0.64-0.11-0.87-0.33c-0.23-0.22-0.35-0.51-0.35-0.86c0-0.37,0.12-0.66,0.35-0.89
		c0.23-0.22,0.52-0.34,0.87-0.34h5.34c0.35,0,0.64,0.11,0.86,0.34c0.22,0.22,0.34,0.52,0.34,0.89c0,0.35-0.11,0.64-0.34,0.86
		c-0.22,0.22-0.51,0.33-0.86,0.33H614.59z"/>
	<path class="st0" d="M625.5,307.26c-0.35,0-0.65-0.12-0.89-0.36c-0.24-0.24-0.36-0.53-0.36-0.89v-16.21c0-0.37,0.12-0.67,0.36-0.9
		c0.24-0.23,0.54-0.35,0.89-0.35h4.31c1.2,0,2.26,0.25,3.18,0.75c0.92,0.5,1.65,1.19,2.17,2.07c0.52,0.88,0.78,1.9,0.78,3.07
		c0,1.08-0.26,2.05-0.78,2.9c-0.52,0.85-1.24,1.51-2.17,1.99c-0.93,0.48-1.99,0.72-3.18,0.72h-3.07v5.96c0,0.35-0.12,0.65-0.35,0.89
		C626.17,307.14,625.87,307.26,625.5,307.26z M626.75,297.76h3.07c0.73,0,1.38-0.14,1.94-0.42c0.56-0.28,1-0.67,1.32-1.17
		c0.32-0.5,0.48-1.07,0.48-1.71c0-0.7-0.16-1.32-0.48-1.87c-0.32-0.54-0.76-0.97-1.32-1.27c-0.56-0.3-1.21-0.45-1.94-0.45h-3.07
		V297.76z M635.44,307.26c-0.22,0-0.43-0.05-0.61-0.14c-0.18-0.1-0.34-0.25-0.47-0.45l-4.31-6.94l2.42-0.69l3.93,6.32
		c0.29,0.46,0.33,0.9,0.12,1.3C636.31,307.06,635.95,307.26,635.44,307.26z"/>
	<path class="st0" d="M640.37,302.5c-0.35,0-0.64-0.12-0.87-0.35c-0.23-0.23-0.35-0.52-0.35-0.87v-11.49c0-0.37,0.12-0.66,0.35-0.89
		c0.23-0.22,0.52-0.33,0.87-0.33c0.37,0,0.66,0.11,0.89,0.33c0.22,0.22,0.33,0.52,0.33,0.89v11.49c0,0.35-0.11,0.64-0.33,0.87
		C641.03,302.38,640.74,302.5,640.37,302.5z M640.37,307.29c-0.35,0-0.64-0.12-0.87-0.35c-0.23-0.23-0.35-0.52-0.35-0.88v-10.68
		c0-0.37,0.12-0.66,0.35-0.89c0.23-0.22,0.52-0.33,0.87-0.33c0.37,0,0.66,0.11,0.89,0.33c0.22,0.22,0.33,0.52,0.33,0.89v10.68
		c0,0.35-0.11,0.64-0.33,0.88C641.03,307.17,640.74,307.29,640.37,307.29z M650.21,307.29c-0.35,0-0.64-0.12-0.87-0.35
		c-0.23-0.23-0.35-0.52-0.35-0.88v-5.89c0-0.91-0.17-1.65-0.5-2.23c-0.34-0.57-0.79-1-1.35-1.28c-0.57-0.28-1.22-0.42-1.95-0.42
		c-0.67,0-1.28,0.14-1.82,0.41c-0.54,0.27-0.97,0.63-1.29,1.09c-0.32,0.45-0.48,0.98-0.48,1.57h-1.51c0-1,0.24-1.9,0.73-2.69
		c0.49-0.79,1.15-1.42,2-1.88s1.79-0.69,2.85-0.69c1.1,0,2.09,0.24,2.96,0.71c0.87,0.47,1.56,1.16,2.06,2.07
		c0.5,0.91,0.75,2.03,0.75,3.35v5.89c0,0.35-0.12,0.64-0.35,0.88C650.85,307.17,650.56,307.29,650.21,307.29z"/>
	<path class="st0" d="M661.44,307.36c-1.29,0-2.43-0.28-3.42-0.85c-0.99-0.57-1.77-1.35-2.34-2.34c-0.57-1-0.85-2.14-0.85-3.44
		c0-1.31,0.28-2.46,0.85-3.46c0.57-1,1.34-1.78,2.34-2.35c0.99-0.57,2.13-0.85,3.42-0.85c1.28,0,2.41,0.28,3.4,0.85
		c0.99,0.57,1.77,1.35,2.33,2.35c0.57,1,0.85,2.15,0.85,3.46c0,1.29-0.28,2.44-0.84,3.44c-0.56,1-1.33,1.78-2.32,2.34
		C663.87,307.08,662.73,307.36,661.44,307.36z M661.44,305.2c0.83,0,1.57-0.19,2.2-0.57c0.64-0.38,1.14-0.91,1.5-1.58
		c0.36-0.67,0.54-1.45,0.54-2.32s-0.18-1.66-0.54-2.34c-0.36-0.68-0.86-1.21-1.5-1.59c-0.64-0.38-1.37-0.57-2.2-0.57
		s-1.56,0.19-2.2,0.57c-0.64,0.38-1.14,0.92-1.51,1.59c-0.37,0.68-0.55,1.46-0.55,2.34s0.18,1.65,0.55,2.32
		c0.37,0.67,0.87,1.2,1.51,1.58C659.88,305.01,660.61,305.2,661.44,305.2z M658.78,292.54c-0.35,0-0.64-0.09-0.88-0.28
		s-0.35-0.42-0.35-0.71c0-0.42,0.19-0.77,0.57-1.05l2.68-1.75c0.21-0.13,0.41-0.19,0.62-0.19c0.13,0,0.24,0.01,0.34,0.04
		c0.1,0.02,0.2,0.08,0.31,0.16l2.66,1.75c0.38,0.29,0.57,0.64,0.57,1.05c0,0.29-0.11,0.52-0.34,0.71c-0.22,0.18-0.51,0.28-0.86,0.28
		c-0.16,0-0.3-0.02-0.42-0.06c-0.12-0.04-0.24-0.11-0.37-0.2l-1.89-1.34l-1.89,1.34C659.32,292.45,659.07,292.54,658.78,292.54z"/>
	<path class="st0" d="M672.88,307.29c-0.35,0-0.64-0.12-0.87-0.35c-0.23-0.23-0.35-0.52-0.35-0.88v-10.68
		c0-0.37,0.12-0.66,0.35-0.89c0.23-0.22,0.52-0.33,0.87-0.33c0.37,0,0.66,0.11,0.89,0.33c0.22,0.22,0.33,0.52,0.33,0.89v10.68
		c0,0.35-0.11,0.64-0.33,0.88C673.54,307.17,673.25,307.29,672.88,307.29z M682.72,307.29c-0.35,0-0.64-0.12-0.87-0.35
		c-0.23-0.23-0.35-0.52-0.35-0.88v-5.89c0-0.91-0.17-1.65-0.5-2.23c-0.34-0.57-0.79-1-1.35-1.28c-0.57-0.28-1.22-0.42-1.95-0.42
		c-0.67,0-1.28,0.14-1.82,0.41c-0.54,0.27-0.97,0.63-1.29,1.09c-0.32,0.45-0.48,0.98-0.48,1.57h-1.51c0-1,0.24-1.9,0.73-2.69
		c0.49-0.79,1.15-1.42,2-1.88s1.79-0.69,2.85-0.69c1.1,0,2.09,0.24,2.96,0.71c0.87,0.47,1.56,1.16,2.06,2.07
		c0.5,0.91,0.75,2.03,0.75,3.35v5.89c0,0.35-0.12,0.64-0.35,0.88C683.37,307.17,683.07,307.29,682.72,307.29z"/>
	<path class="st0" d="M694.14,307.36c-1.32,0-2.5-0.28-3.53-0.85c-1.03-0.57-1.83-1.35-2.42-2.34c-0.58-1-0.87-2.14-0.87-3.44
		c0-1.31,0.27-2.46,0.83-3.46c0.55-1,1.31-1.78,2.28-2.35c0.98-0.57,2.09-0.85,3.35-0.85c1.24,0,2.31,0.27,3.21,0.83
		c0.9,0.55,1.58,1.31,2.05,2.27c0.47,0.97,0.71,2.08,0.71,3.34c0,0.3-0.1,0.55-0.31,0.75c-0.21,0.2-0.47,0.3-0.79,0.3h-9.65v-1.91
		h9.58l-0.98,0.67c-0.02-0.8-0.18-1.51-0.48-2.14c-0.3-0.63-0.73-1.13-1.29-1.5c-0.56-0.37-1.24-0.55-2.04-0.55
		c-0.91,0-1.69,0.2-2.34,0.6c-0.65,0.4-1.14,0.95-1.47,1.64c-0.33,0.69-0.5,1.48-0.5,2.36s0.2,1.66,0.6,2.34
		c0.4,0.69,0.95,1.23,1.65,1.63c0.7,0.4,1.51,0.6,2.42,0.6c0.49,0,1-0.09,1.52-0.27c0.52-0.18,0.94-0.4,1.26-0.63
		c0.24-0.18,0.5-0.27,0.78-0.28c0.28-0.01,0.52,0.08,0.73,0.25c0.27,0.24,0.41,0.5,0.43,0.79c0.02,0.29-0.11,0.53-0.38,0.74
		c-0.54,0.43-1.22,0.78-2.02,1.05C695.65,307.22,694.88,307.36,694.14,307.36z"/>
	<path class="st0" d="M702.78,301.92c-0.35,0-0.64-0.11-0.87-0.33c-0.23-0.22-0.35-0.51-0.35-0.86c0-0.37,0.12-0.66,0.35-0.89
		c0.23-0.22,0.52-0.34,0.87-0.34h5.34c0.35,0,0.64,0.11,0.86,0.34c0.22,0.22,0.34,0.52,0.34,0.89c0,0.35-0.11,0.64-0.34,0.86
		c-0.22,0.22-0.51,0.33-0.86,0.33H702.78z"/>
	<path class="st0" d="M711,307.26c-0.45,0-0.79-0.19-1.03-0.57c-0.24-0.38-0.26-0.79-0.07-1.22l6.73-16.07
		c0.24-0.56,0.63-0.84,1.17-0.84c0.58,0,0.97,0.28,1.17,0.84l6.75,16.11c0.18,0.45,0.15,0.85-0.08,1.21s-0.58,0.54-1.04,0.54
		c-0.24,0-0.47-0.07-0.68-0.2c-0.22-0.14-0.37-0.33-0.47-0.56l-5.94-14.75h0.67l-6.03,14.75c-0.11,0.26-0.28,0.45-0.49,0.57
		C711.44,307.2,711.22,307.26,711,307.26z M712.27,303.15l0.96-2.06h9.39l0.96,2.06H712.27z"/>
	<path class="st0" d="M731.44,307.26c-0.7,0-1.32-0.19-1.87-0.57c-0.54-0.38-0.97-0.91-1.27-1.57c-0.3-0.66-0.45-1.43-0.45-2.29
		v-13.07c0-0.35,0.11-0.64,0.33-0.86c0.22-0.22,0.51-0.33,0.86-0.33s0.64,0.11,0.86,0.33c0.22,0.22,0.34,0.51,0.34,0.86v13.07
		c0,0.59,0.11,1.08,0.33,1.46c0.22,0.38,0.51,0.57,0.86,0.57h0.6c0.32,0,0.58,0.11,0.78,0.33c0.2,0.22,0.3,0.51,0.3,0.86
		c0,0.35-0.15,0.64-0.45,0.86c-0.3,0.22-0.69,0.34-1.17,0.34H731.44z"/>
	<path class="st0" d="M736.73,312.87c-0.35,0-0.64-0.12-0.87-0.35c-0.23-0.23-0.35-0.52-0.35-0.87v-10.92
		c0.02-1.26,0.31-2.39,0.89-3.4c0.57-1.01,1.36-1.8,2.34-2.38c0.99-0.58,2.11-0.87,3.35-0.87c1.26,0,2.39,0.29,3.38,0.87
		c0.99,0.58,1.77,1.38,2.36,2.38c0.58,1.01,0.87,2.14,0.87,3.4s-0.27,2.39-0.8,3.39c-0.53,1-1.26,1.79-2.19,2.37
		c-0.93,0.58-1.97,0.87-3.14,0.87c-0.94,0-1.81-0.2-2.6-0.59c-0.79-0.39-1.47-0.92-2.02-1.59v6.46c0,0.35-0.11,0.64-0.33,0.87
		C737.39,312.75,737.1,312.87,736.73,312.87z M742.09,305.2c0.81,0,1.54-0.19,2.18-0.59c0.64-0.39,1.14-0.93,1.52-1.6
		c0.37-0.68,0.56-1.44,0.56-2.29c0-0.86-0.19-1.63-0.56-2.31c-0.38-0.68-0.88-1.21-1.52-1.6c-0.64-0.39-1.36-0.59-2.18-0.59
		c-0.8,0-1.52,0.2-2.17,0.59c-0.65,0.39-1.15,0.93-1.52,1.6c-0.37,0.68-0.55,1.45-0.55,2.31c0,0.85,0.18,1.61,0.55,2.29
		c0.37,0.68,0.87,1.21,1.52,1.6C740.58,305.01,741.3,305.2,742.09,305.2z"/>
	<path class="st0" d="M758.5,307.36c-1.32,0-2.5-0.28-3.53-0.85c-1.03-0.57-1.83-1.35-2.42-2.34c-0.58-1-0.87-2.14-0.87-3.44
		c0-1.31,0.27-2.46,0.83-3.46c0.55-1,1.31-1.78,2.28-2.35c0.98-0.57,2.09-0.85,3.35-0.85c1.24,0,2.31,0.27,3.21,0.83
		c0.9,0.55,1.58,1.31,2.05,2.27c0.47,0.97,0.71,2.08,0.71,3.34c0,0.3-0.1,0.55-0.31,0.75c-0.21,0.2-0.47,0.3-0.79,0.3h-9.65v-1.91
		h9.58l-0.98,0.67c-0.02-0.8-0.18-1.51-0.48-2.14s-0.73-1.13-1.29-1.5c-0.56-0.37-1.24-0.55-2.04-0.55c-0.91,0-1.69,0.2-2.34,0.6
		c-0.65,0.4-1.14,0.95-1.47,1.64c-0.33,0.69-0.5,1.48-0.5,2.36s0.2,1.66,0.6,2.34c0.4,0.69,0.95,1.23,1.65,1.63
		c0.7,0.4,1.51,0.6,2.42,0.6c0.49,0,1-0.09,1.52-0.27c0.52-0.18,0.94-0.4,1.26-0.63c0.24-0.18,0.5-0.27,0.78-0.28
		c0.28-0.01,0.52,0.08,0.73,0.25c0.27,0.24,0.41,0.5,0.43,0.79c0.02,0.29-0.11,0.53-0.38,0.74c-0.54,0.43-1.22,0.78-2.02,1.05
		C760,307.22,759.23,307.36,758.5,307.36z"/>
	<path class="st0" d="M771.97,307.36c-1.12,0-2.15-0.17-3.1-0.51c-0.95-0.34-1.69-0.78-2.22-1.3c-0.24-0.26-0.34-0.55-0.3-0.88
		c0.04-0.33,0.2-0.59,0.47-0.8c0.32-0.25,0.63-0.36,0.94-0.32c0.31,0.04,0.58,0.18,0.8,0.42c0.27,0.3,0.71,0.59,1.3,0.85
		c0.6,0.26,1.26,0.39,2,0.39c0.93,0,1.63-0.15,2.12-0.45c0.49-0.3,0.74-0.69,0.75-1.17c0.02-0.48-0.21-0.89-0.68-1.24
		c-0.47-0.35-1.33-0.64-2.57-0.86c-1.61-0.32-2.78-0.8-3.51-1.44c-0.73-0.64-1.09-1.42-1.09-2.35c0-0.81,0.24-1.49,0.72-2.02
		c0.48-0.53,1.09-0.94,1.84-1.2c0.75-0.26,1.53-0.39,2.35-0.39c1.05,0,1.99,0.17,2.8,0.5c0.81,0.34,1.46,0.8,1.94,1.39
		c0.22,0.26,0.33,0.52,0.31,0.8c-0.02,0.28-0.15,0.51-0.41,0.71c-0.26,0.18-0.56,0.23-0.91,0.17c-0.35-0.06-0.65-0.21-0.88-0.43
		c-0.4-0.38-0.83-0.65-1.29-0.79c-0.46-0.14-1-0.21-1.6-0.21c-0.7,0-1.3,0.12-1.78,0.36c-0.49,0.24-0.73,0.59-0.73,1.05
		c0,0.29,0.08,0.55,0.23,0.78c0.15,0.23,0.45,0.44,0.9,0.62s1.1,0.36,1.96,0.54c1.2,0.24,2.14,0.54,2.84,0.91
		c0.69,0.37,1.19,0.79,1.5,1.28c0.3,0.49,0.45,1.05,0.45,1.69c0,0.73-0.2,1.4-0.59,1.99c-0.39,0.59-0.97,1.06-1.73,1.41
		C774.05,307.18,773.11,307.36,771.97,307.36z"/>
</g>
<path class="st0" d="M762.44,268.44H65.71c-21.89,0-39.69-17.8-39.69-39.69V73.75c0-21.89,17.8-39.69,39.69-39.69h696.73
	c21.89,0,39.69,17.8,39.69,39.69v155.01C802.13,250.64,784.33,268.44,762.44,268.44z M65.71,57.4c-9.01,0-16.34,7.33-16.34,16.34
	v155.01c0,9.01,7.33,16.34,16.34,16.34h696.73c9.01,0,16.34-7.33,16.34-16.34V73.75c0-9.01-7.33-16.34-16.34-16.34H65.71z"/>
</svg>
