<?xml version="1.0" encoding="utf-8"?>
<!-- Generator: Adobe Illustrator 24.0.1, SVG Export Plug-In . SVG Version: 6.00 Build 0)  -->
<svg version="1.1" id="Calque_1" xmlns="http://www.w3.org/2000/svg" xmlns:xlink="http://www.w3.org/1999/xlink" x="0px" y="0px"
	 viewBox="0 0 178 180.1" style="enable-background:new 0 0 178 180.1;" xml:space="preserve">
<style type="text/css">
	.st0{fill:#00B2BB;}
	.st1{fill:#95C11F;}
	.st2{fill:#020202;}
	.st3{fill:#1D1E1C;}
</style>
<title>N)</title>
<path class="st0" d="M119.2,176.2c-0.6,0.2-1.3,0.4-1.9,0.6c-11,2.5-22.2,3.6-33.5,3.2l0,0c-67.6-2.6-83-66.4-83-66.4
	c53.5-5.7,82.9,4.8,99,18.6C112.6,143.2,119.8,159.4,119.2,176.2z"/>
<path class="st1" d="M178,115c0,0-14.4,43.3-53,59.8c0.2-2.3,1.5-26.3-17.9-43C119.3,120.7,140.6,112.6,178,115z"/>
<circle class="st2" cx="175.6" cy="69.7" r="2.4"/>
<circle class="st2" cx="2.9" cy="69.7" r="2.4"/>
<circle class="st2" cx="18.9" cy="39.7" r="2.4"/>
<circle class="st2" cx="53.4" cy="11.2" r="2.4"/>
<circle class="st2" cx="51" cy="44.5" r="2.4"/>
<circle class="st2" cx="93.7" cy="26" r="2.4"/>
<circle class="st2" cx="90.2" cy="2.4" r="2.4"/>
<circle class="st2" cx="131.6" cy="13.7" r="2.4"/>
<circle class="st2" cx="166.7" cy="44.5" r="2.4"/>
<circle class="st2" cx="148.4" cy="54" r="2.4"/>
<circle class="st2" cx="126.8" cy="34.8" r="2.4"/>
<circle class="st2" cx="114" cy="70.9" r="2.4"/>
<circle class="st2" cx="86" cy="69.7" r="2.4"/>
<circle class="st2" cx="43.8" cy="72.2" r="2.4"/>
<polygon class="st3" points="3.1,69.9 2.6,69.6 18.7,39.6 19.1,39.8 "/>
<polygon class="st3" points="44.1,72.2 43.6,72.1 50.8,44.5 51.3,44.6 "/>
<polygon class="st3" points="51.3,44.6 50.7,44.5 53.2,11.2 53.7,11.3 "/>
<rect x="67.6" y="47.6" transform="matrix(0.1719 -0.9851 0.9851 0.1719 27.196 128.1351)" class="st3" width="44.4" height="0.6"/>
<rect x="34.7" y="25.9" transform="matrix(0.1492 -0.9888 0.9888 0.1492 -11.9016 70.3951)" class="st3" width="0.5" height="32.5"/>
<rect x="23.1" y="50.4" transform="matrix(5.895787e-02 -0.9983 0.9983 5.895787e-02 -48.8449 90.0703)" class="st3" width="0.5" height="41.1"/>
<rect x="31.1" y="35.5" transform="matrix(0.7929 -0.6093 0.6093 0.7929 -27.5797 30.6961)" class="st3" width="0.5" height="41"/>
<rect x="49.1" y="35" transform="matrix(0.9173 -0.3981 0.3981 0.9173 -8.0733 31.7153)" class="st3" width="46.5" height="0.5"/>
<rect x="108.7" y="-5.9" transform="matrix(0.6798 -0.7334 0.7334 0.6798 21.4235 85.8248)" class="st3" width="0.6" height="48.5"/>
<rect x="91.6" y="1.8" transform="matrix(0.9896 -0.1442 0.1442 0.9896 -1.0533 13.3953)" class="st3" width="0.6" height="24.4"/>
<rect x="52.9" y="6.3" transform="matrix(0.9692 -0.2462 0.2462 0.9692 0.5879 17.873)" class="st3" width="37.9" height="0.5"/>
<rect x="13.8" y="25.2" transform="matrix(0.7721 -0.6355 0.6355 0.7721 -7.9489 28.7968)" class="st3" width="44.7" height="0.5"/>
<rect x="68.2" y="35.6" transform="matrix(0.5845 -0.8114 0.8114 0.5845 -17.9036 79.3353)" class="st3" width="0.6" height="43.1"/>
<rect x="101.3" y="52.6" transform="matrix(0.3327 -0.943 0.943 0.3327 30.4554 148.8559)" class="st3" width="38.3" height="0.6"/>
<rect x="111.2" y="-13.3" transform="matrix(0.28 -0.96 0.96 0.28 72.7617 112.5804)" class="st3" width="0.6" height="42.1"/>
<rect x="148.9" y="5.7" transform="matrix(0.6586 -0.7525 0.7525 0.6586 29.0954 122.1613)" class="st3" width="0.6" height="46.6"/>
<polygon class="st3" points="175.3,69.8 166.4,44.5 167,44.3 175.8,69.7 "/>
<rect x="147.2" y="48.9" transform="matrix(0.8848 -0.4659 0.4659 0.8848 -4.7759 79.0705)" class="st3" width="20.7" height="0.6"/>
<rect x="161.7" y="46.2" transform="matrix(0.5 -0.866 0.866 0.5 27.3871 171.2277)" class="st3" width="0.6" height="31.4"/>
<rect x="118.3" y="24" transform="matrix(0.2222 -0.975 0.975 0.2222 76.8463 144.8293)" class="st3" width="21.7" height="0.5"/>
<rect x="137.3" y="30" transform="matrix(0.6643 -0.7475 0.7475 0.6643 12.9646 117.7561)" class="st3" width="0.6" height="28.9"/>
<polygon class="st3" points="126.7,35.1 93.6,26.3 93.7,25.8 126.8,34.6 "/>
<rect x="112" y="62.2" transform="matrix(0.8975 -0.441 0.441 0.8975 -14.1084 64.2662)" class="st3" width="38.3" height="0.6"/>
<rect x="114" y="70.1" transform="matrix(0.9998 -1.954644e-02 1.954644e-02 0.9998 -1.3473 2.8437)" class="st3" width="61.6" height="0.6"/>
<rect x="99.7" y="56.3" transform="matrix(4.327071e-02 -0.9991 0.9991 4.327071e-02 25.4074 167.2327)" class="st3" width="0.6" height="28.1"/>
<polygon class="st3" points="43.9,72.4 43.8,71.9 86,69.5 86,70 "/>
<polygon class="st3" points="113.8,71.1 93.4,26.2 93.9,25.9 114.3,70.8 "/>
<polygon class="st3" points="93.6,26.3 53.3,11.5 53.5,11 93.8,25.8 "/>
<path class="st3" d="M0,97.9L1.1,97c0.9,1.5,2.6,2.4,4.3,2.4c2.2,0,3.9-1.4,3.9-3.4c0-2.1-2-2.9-4.1-3.6s-4.6-1.6-4.6-4.4
	c0-2.4,2.1-4.1,4.9-4.1c1.9-0.1,3.7,0.8,4.8,2.2l-1,0.8c-0.8-1.2-2.3-2-3.8-1.9c-2,0-3.5,1.2-3.5,3C2,90,4,90.6,6,91.3
	c2.3,0.8,4.6,1.7,4.6,4.6c0,2.5-2.2,4.6-5.2,4.6C3.3,100.6,1.2,99.6,0,97.9z"/>
<path class="st3" d="M20.6,84h1.3l6.6,9.1l6.8-9.1h1.2v16.3h-1.3V86.1l-6.8,9.2l-6.6-9v14h-1.3V84z"/>
<path class="st3" d="M52.5,84h1.4l6.3,16.3h-1.4L57,95.8h-7.7l-1.7,4.6h-1.4L52.5,84z M49.8,94.5h6.8l-3.4-8.8L49.8,94.5z"/>
<path class="st3" d="M69.8,84h5.1c2.9-0.1,5.3,2.1,5.4,5c0,0,0,0.1,0,0.1c0,2.2-1.5,4.1-3.6,4.8l3.7,6.4h-1.5l-3.3-6h-4.4v6.1h-1.3
	V84z M71.1,85.2v7.9h3.7c2.2,0.1,4.1-1.6,4.2-3.8c0-0.1,0-0.1,0-0.2c0-2.2-1.8-3.9-3.9-3.9c-0.1,0-0.2,0-0.2,0H71.1z"/>
<path class="st3" d="M93.5,87h-4.3v-3H101v3h-4.3v13.3h-3.1L93.5,87z"/>
<path class="st3" d="M109.6,84h9.7v3h-6.6v3.7h6.6v3h-6.6v3.7h6.6v3h-9.7V84z"/>
<path class="st3" d="M128,84h5.2c3.9,0,6.1,2.3,6.1,5.7c0,2-1,3.8-2.7,4.7l3.2,5.8h-3.5l-2.5-4.9h-2.7v4.9H128L128,84z M131.1,86.9
	v5.6h1.9c2.5,0,3.3-1.3,3.3-3c0-1.7-1-2.7-3.3-2.7L131.1,86.9z"/>
<path class="st3" d="M148.2,84h5.2c3.9,0,6.1,2.3,6.1,5.7c0,2-1,3.8-2.7,4.7l3.2,5.8h-3.5l-2.5-4.9h-2.7v4.9h-3.1L148.2,84z
	 M151.3,86.9v5.6h1.9c2.5,0,3.3-1.3,3.3-3c0-1.7-1-2.7-3.3-2.7L151.3,86.9z"/>
<path class="st3" d="M168.3,84h9.7v3h-6.6v3.7h6.6v3h-6.6v3.7h6.6v3h-9.7V84z"/>
</svg>
