<?xml version="1.0" encoding="utf-8"?>
<!-- Generator: Adobe Illustrator 24.1.2, SVG Export Plug-In . SVG Version: 6.00 Build 0)  -->
<svg version="1.1" id="Calque_1" xmlns="http://www.w3.org/2000/svg" xmlns:xlink="http://www.w3.org/1999/xlink" x="0px" y="0px"
	 viewBox="0 0 41 46" style="enable-background:new 0 0 41 46;" xml:space="preserve">
<style type="text/css">
	.st0{fill:#FFFFFF;}
</style>
<g>
	<g>
		<g>
			<path class="st0" d="M23.4,19.51c-0.19-0.16-0.41-0.27-0.65-0.35c-0.24-0.05-0.52-0.08-0.84-0.08h-1.25
				c-0.22,0-0.35,0.05-0.46,0.14c-0.08,0.08-0.14,0.24-0.14,0.46v3.5c0,0.16,0,0.27,0.05,0.38c0.03,0.11,0.08,0.16,0.16,0.22
				c0.08,0.05,0.22,0.08,0.41,0.08h1.25c0.22,0,0.41-0.03,0.6-0.05c0.16-0.03,0.33-0.08,0.49-0.14c0.16-0.08,0.3-0.16,0.41-0.27
				c0.16-0.16,0.3-0.33,0.41-0.52c0.11-0.19,0.19-0.41,0.24-0.65c0.05-0.24,0.08-0.49,0.08-0.79C24.16,20.59,23.92,19.94,23.4,19.51
				z M22.7,22.87c-0.08,0.05-0.16,0.11-0.24,0.14c-0.11,0.03-0.19,0.05-0.27,0.05c-0.08,0-0.22,0-0.38,0h-0.73v-3.25h0.65
				c0.3,0,0.54,0.03,0.76,0.11c0.22,0.05,0.38,0.22,0.52,0.46c0.14,0.24,0.22,0.6,0.22,1.06C23.18,22.14,23.02,22.6,22.7,22.87z"/>
			<path class="st0" d="M32.02,13.49L32,13.46v-0.03l-5.15-5.15l-0.03-0.03c0,0-0.03,0-0.03-0.03c0,0-0.03,0-0.03-0.03
				c-0.08-0.05-0.16-0.05-0.27-0.05H13.72c-0.49,0-0.95,0.19-1.27,0.52l-0.03,0.03c-0.33,0.33-0.54,0.81-0.54,1.3v23.07
				c0,0.52,0.22,0.98,0.54,1.3c0.33,0.33,0.81,0.54,1.3,0.54h16.51c0.52,0,0.98-0.22,1.3-0.54c0.33-0.33,0.54-0.81,0.54-1.3v-19.3
				C32.08,13.65,32.05,13.57,32.02,13.49z M27.01,10.1l3.06,3.06h-2.25c-0.22,0-0.43-0.08-0.57-0.24c-0.14-0.14-0.24-0.35-0.24-0.57
				L27.01,10.1L27.01,10.1z M30.91,33.06c0,0.19-0.08,0.35-0.22,0.49s-0.3,0.22-0.49,0.22H13.72c-0.19,0-0.35-0.08-0.49-0.19
				c-0.14-0.14-0.19-0.3-0.19-0.49V9.97c0-0.19,0.08-0.35,0.22-0.49l0.03-0.03c0.14-0.11,0.3-0.19,0.46-0.19H25.9v3.06
				c0,0.54,0.22,1.03,0.6,1.41c0.35,0.35,0.87,0.57,1.41,0.57h3.01L30.91,33.06L30.91,33.06z"/>
			<path class="st0" d="M18.82,19.46c-0.14-0.14-0.3-0.22-0.52-0.27c-0.19-0.05-0.49-0.08-0.84-0.08h-1.25
				c-0.22,0-0.38,0.05-0.46,0.14c-0.11,0.08-0.14,0.24-0.14,0.46v3.69c0,0.19,0.05,0.33,0.14,0.43c0.08,0.11,0.22,0.14,0.35,0.14
				c0.14,0,0.24-0.05,0.35-0.16c0.08-0.11,0.14-0.24,0.14-0.43V22h0.89c0.6,0,1.03-0.14,1.33-0.38c0.3-0.24,0.46-0.62,0.46-1.11
				c0-0.22-0.03-0.43-0.11-0.62C19.06,19.73,18.96,19.56,18.82,19.46z M18.17,20.97c-0.08,0.11-0.19,0.19-0.35,0.24
				c-0.16,0.05-0.35,0.08-0.57,0.08H16.6v-1.46h0.65c0.43,0,0.7,0.08,0.87,0.22c0.14,0.14,0.19,0.3,0.19,0.52
				C18.28,20.73,18.25,20.87,18.17,20.97z"/>
			<path class="st0" d="M25.6,19.05c-0.16,0.03-0.27,0.05-0.35,0.11c-0.08,0.03-0.16,0.11-0.19,0.19C25,19.43,25,19.54,25,19.7v3.66
				c0,0.19,0.05,0.35,0.14,0.43c0.08,0.11,0.22,0.14,0.35,0.14c0.14,0,0.24-0.05,0.35-0.14c0.08-0.11,0.14-0.24,0.14-0.43v-1.57h1.6
				c0.14,0,0.24-0.03,0.33-0.11c0.08-0.05,0.11-0.16,0.11-0.27s-0.03-0.19-0.11-0.27c-0.08-0.05-0.19-0.11-0.33-0.11h-1.6v-1.22h1.9
				c0.16,0,0.27-0.03,0.35-0.11c0.08-0.08,0.11-0.16,0.11-0.27s-0.03-0.19-0.11-0.27c-0.08-0.08-0.19-0.11-0.35-0.11H25.6
				L25.6,19.05z"/>
		</g>
	</g>
</g>
<g>
</g>
<g>
</g>
<g>
</g>
<g>
</g>
<g>
</g>
<g>
</g>
<g>
</g>
<g>
</g>
<g>
</g>
<g>
</g>
<g>
</g>
<g>
</g>
<g>
</g>
<g>
</g>
<g>
</g>
</svg>
