<?xml version="1.0" encoding="UTF-8" standalone="no"?>
<!-- Created with Inkscape (http://www.inkscape.org/) -->

<svg
   xmlns:dc="http://purl.org/dc/elements/1.1/"
   xmlns:cc="http://creativecommons.org/ns#"
   xmlns:rdf="http://www.w3.org/1999/02/22-rdf-syntax-ns#"
   xmlns:svg="http://www.w3.org/2000/svg"
   xmlns="http://www.w3.org/2000/svg"
   xmlns:xlink="http://www.w3.org/1999/xlink"
   xmlns:sodipodi="http://sodipodi.sourceforge.net/DTD/sodipodi-0.dtd"
   xmlns:inkscape="http://www.inkscape.org/namespaces/inkscape"
   width="399.99988mm"
   height="250.00024mm"
   viewBox="0 0 399.99988 250.00024"
   version="1.1"
   id="svg8"
   inkscape:version="0.92.1 r15371"
   sodipodi:docname="image par defaut.svg">
  <defs
     id="defs2" />
  <sodipodi:namedview
     id="base"
     pagecolor="#ffffff"
     bordercolor="#666666"
     borderopacity="1.0"
     inkscape:pageopacity="0.0"
     inkscape:pageshadow="2"
     inkscape:zoom="0.24748737"
     inkscape:cx="1090.6417"
     inkscape:cy="388.14501"
     inkscape:document-units="mm"
     inkscape:current-layer="g23"
     showgrid="false"
     inkscape:window-width="1360"
     inkscape:window-height="705"
     inkscape:window-x="-8"
     inkscape:window-y="-8"
     inkscape:window-maximized="1"
     fit-margin-top="0"
     fit-margin-left="0"
     fit-margin-right="0"
     fit-margin-bottom="0"
     showguides="true"
     inkscape:guide-bbox="true" />
  <metadata
     id="metadata5">
    <rdf:RDF>
      <cc:Work
         rdf:about="">
        <dc:format>image/svg+xml</dc:format>
        <dc:type
           rdf:resource="http://purl.org/dc/dcmitype/StillImage" />
        <dc:title></dc:title>
      </cc:Work>
    </rdf:RDF>
  </metadata>
  <g
     inkscape:label="Calque 1"
     inkscape:groupmode="layer"
     id="layer1"
     transform="translate(102.87193,60.345238)">
    <g
       id="g23">
      <g
         id="g864">
        <path
           id="path33"
           transform="matrix(0.26458333,0,0,0.26458333,-157.75385,-60.345238)"
           d="m 207.42773,0 v 472.44141 472.4414 h 755.9043 755.90627 V 472.44141 0 H 963.33203 Z m 661.35743,91.912109 19.5625,7.65625 c 10.7594,4.211341 24.03757,8.540901 29.50586,9.621091 9.48455,1.87344 10.3449,1.77991 18.69531,-2.04297 l 8.7539,-4.00781 12.15625,4.31836 c 11.90054,4.22831 12.6462,4.2965 35.29688,3.2168 22.80224,-1.08688 23.27614,-1.04188 32.52934,3.0625 5.1645,2.29081 14.6732,7.21881 21.1289,10.95117 10.0551,5.8134 15.8866,7.73992 40.6894,13.43359 35.0126,8.0374 46.4524,13.19334 60.2051,27.14063 20.6102,20.90181 33.4804,36.54924 38.7871,47.1543 4.8937,9.77964 5.7585,13.47518 8.0488,34.43164 3.6461,33.36268 5.4928,37.47932 26.92,59.99804 9.5521,10.03873 18.4539,20.36502 19.7832,22.94727 1.3653,2.65247 2.915,11.50211 3.5605,20.34375 1.4021,19.2062 5.9327,37.76378 10.373,42.49023 1.8277,1.9454 9.6109,6.20053 17.2969,9.45508 l 13.9746,5.91797 4.5606,9.55664 c 2.5088,5.25683 7.6702,15.01111 11.4687,21.67578 8.8524,15.53163 18.0576,21.92468 52.0879,36.17188 21.8945,9.1663 25.8341,11.39098 33.5528,18.94531 8.5946,8.41175 8.8014,8.82602 11.9921,23.97656 l 3.2481,15.41602 -4.3399,13.83593 c -2.3859,7.60944 -6.6614,18.41295 -9.5019,24.00782 -2.8405,5.59491 -6.1496,14.7488 -7.3535,20.34375 -1.204,5.59484 -6.7553,32.35705 -12.336,59.4707 l -10.1464,49.29883 -1.4102,41.71289 -1.4082,41.71289 -6.9609,13.84375 -6.961,13.8457 -14.3769,5.30664 -14.377,5.30664 -24.5293,-0.84375 c -35.9136,-1.23352 -43.6748,0.44673 -70.8164,15.33399 -20.0172,10.97922 -22.837,12.06697 -36.9883,14.26367 -10.2447,1.59024 -21.2828,2.11981 -33.3183,1.5957 -15.4069,-0.67094 -19.541,-1.44873 -28.7246,-5.39648 l -10.7286,-4.61133 -11.3164,4.22266 c -14.4923,5.4065 -42.3061,6.90635 -71.3007,3.84765 -36.33476,-3.83323 -53.90341,-11.12218 -88.44731,-36.69726 l -21.03711,-15.57422 -21.77539,-5.48438 c -39.91132,-10.05089 -90.88897,-32.26486 -105.55664,-45.99804 -2.42721,-2.27252 -8.22648,-9.91979 -12.88672,-16.99219 -4.66023,-7.07237 -10.31333,-14.06343 -12.5625,-15.53711 -3.20621,-2.10081 -10.05365,-2.99315 -31.71484,-4.13086 -18.93965,-0.99488 -28.73305,-2.14647 -31.14258,-3.66406 -1.93319,-1.21761 -5.7096,-6.56391 -8.39258,-11.87891 -2.91857,-5.78158 -14.70997,-21.21569 -29.35156,-38.42187 -31.00271,-36.43321 -39.79772,-51.32382 -44.0332,-74.54297 -1.58622,-8.69582 -3.65249,-26.67074 -4.5918,-39.94531 -0.93923,-13.2745 -2.63326,-25.98992 -3.76367,-28.25586 -1.13041,-2.26594 -14.45271,-20.76476 -29.60547,-41.10742 -30.25973,-40.62392 -43.51369,-62.68376 -51.95312,-86.47657 -4.69585,-13.23866 -5.55131,-17.70037 -5.55079,-28.95312 8.9e-4,-18.25943 5.76947,-38.94769 15.73438,-56.4336 l 7.63477,-13.39648 23.91796,-9.875 23.91993,-9.87695 7.77929,-10.375 c 6.38718,-8.51861 8.3918,-12.85347 11.20313,-24.21485 l 3.42578,-13.83789 -3.63086,-10.66992 -3.62891,-10.66992 3.91993,-3.66211 c 8.75718,-8.1795 9.0601,-16.77395 0.79296,-22.56445 -1.88581,-1.32091 -3.42968,-3.05827 -3.42968,-3.85938 0,-0.80111 4.91225,-3.92962 10.91601,-6.95312 l 10.91602,-5.4961 h 23.43555 23.43359 l 19.25195,-13.9043 c 10.58811,-7.64639 33.23692,-21.78477 50.33203,-31.41992 l 31.08203,-17.519528 44.03907,-0.269531 z"
           style="fill:#83cbeb;fill-opacity:0.68627451;stroke-width:4.04877615"
           inkscape:connector-curvature="0" />
        <g
           id="g876"
           transform="matrix(1.6748179,0,0,1.6748179,219.58595,-117.2688)">
          <text
             id="text854"
             y="82.751747"
             x="-95.10656"
             style="font-style:normal;font-variant:normal;font-weight:bold;font-stretch:normal;font-size:11.78597546px;line-height:1.25;font-family:sans-serif;-inkscape-font-specification:'sans-serif Bold';letter-spacing:0px;word-spacing:0px;fill:#000000;fill-opacity:1;stroke:none;stroke-width:0.41152391"
             xml:space="preserve"><tspan
               style="font-style:normal;font-variant:normal;font-weight:bold;font-stretch:normal;font-size:11.78597546px;font-family:sans-serif;-inkscape-font-specification:'sans-serif Bold';stroke-width:0.41152391"
               y="82.751747"
               x="-95.10656"
               id="tspan852"
               sodipodi:role="line">Acteur</tspan></text>
          <text
             id="text858"
             y="142.91946"
             x="-110.18432"
             style="font-style:normal;font-variant:normal;font-weight:bold;font-stretch:normal;font-size:11.78597546px;line-height:1.25;font-family:sans-serif;-inkscape-font-specification:'sans-serif Bold';letter-spacing:0px;word-spacing:0px;fill:#000000;fill-opacity:1;stroke:none;stroke-width:0.36743045"
             xml:space="preserve"><tspan
               style="font-style:normal;font-variant:normal;font-weight:bold;font-stretch:normal;font-size:11.78597546px;font-family:sans-serif;-inkscape-font-specification:'sans-serif Bold';stroke-width:0.36743045"
               y="142.91946"
               x="-110.18432"
               id="tspan856"
               sodipodi:role="line">La Réunion</tspan></text>
          <image
             width="54.908684"
             height="46.309608"
             preserveAspectRatio="none"
             xlink:href="data:image/jpeg;base64,/9j/4AAQSkZJRgABAQEASABIAAD/2wBDAAUDBAQEAwUEBAQFBQUGBwwIBwcHBw8LCwkMEQ8SEhEP ERETFhwXExQaFRERGCEYGh0dHx8fExciJCIeJBweHx7/2wBDAQUFBQcGBw4ICA4eFBEUHh4eHh4e Hh4eHh4eHh4eHh4eHh4eHh4eHh4eHh4eHh4eHh4eHh4eHh4eHh4eHh4eHh7/wAARCAIFAmUDASIA AhEBAxEB/8QAHwAAAQUBAQEBAQEAAAAAAAAAAAECAwQFBgcICQoL/8QAtRAAAgEDAwIEAwUFBAQA AAF9AQIDAAQRBRIhMUEGE1FhByJxFDKBkaEII0KxwRVS0fAkM2JyggkKFhcYGRolJicoKSo0NTY3 ODk6Q0RFRkdISUpTVFVWV1hZWmNkZWZnaGlqc3R1dnd4eXqDhIWGh4iJipKTlJWWl5iZmqKjpKWm p6ipqrKztLW2t7i5usLDxMXGx8jJytLT1NXW19jZ2uHi4+Tl5ufo6erx8vP09fb3+Pn6/8QAHwEA AwEBAQEBAQEBAQAAAAAAAAECAwQFBgcICQoL/8QAtREAAgECBAQDBAcFBAQAAQJ3AAECAxEEBSEx BhJBUQdhcRMiMoEIFEKRobHBCSMzUvAVYnLRChYkNOEl8RcYGRomJygpKjU2Nzg5OkNERUZHSElK U1RVVldYWVpjZGVmZ2hpanN0dXZ3eHl6goOEhYaHiImKkpOUlZaXmJmaoqOkpaanqKmqsrO0tba3 uLm6wsPExcbHyMnK0tPU1dbX2Nna4uPk5ebn6Onq8vP09fb3+Pn6/9oADAMBAAIRAxEAPwD7Looo oAKKKKACiiigAooooAKKKKACiiigAooooAKKKKACiiigAooooAKKKKACiiigAooooAKKKKACiiig AooooAKKKKACiiigAooooAKKKKACiiigAooooAKKKKACiiigAooooAKKKKACiiigAooooAKKKKAC iiigAooooAKKKKACiiigAooooAKKKKACiiigAooooAKKKKACiiigAooooAKKKKACiiigAooooAKK KKACiiigAooooAKKKKACiis7X9d0XQLI3uuarZabbjP7y5mWMEjsMnk+w5ppNuyA0aK+fvHP7U3g 7S0eHwvp15r1yDgSODbQfXcw3H6bRn1rxLxh+0b8TNfkdbPUYNDtmziKwiAbHqXbLZ+hH0r06GT4 qtry2XmYSxEI9T7l1K/sdMtGu9Rvbayt0+9LcSrGg+pYgV5/r3x1+FWj+Ys3i60upE/gske43H0D ICp/OvgXVdV1TVrp7rVdSvL+4c5eS6maRifcsSaqV6tLh6C/iTb9NP8AMwli30R9iar+1n4QiZl0 3w1rd3joZmjhB/JmP6VyerftcazISNJ8G2Ft6G6u3m/RVSvmeiu+GS4SP2b/ADZk8TN9T3q6/aq+ IkrDytO8PW/HRbaQ/wDoUlUZf2nvig7ZWXR4xjotlx+rGvE6K3WWYRfYRPt6nc9qX9pz4ohgTcaS QD0+xDn9atQ/tS/ElD+8ttBk+tqw/k9eF0UPLcK/sIPbVO59IaV+1r4mjlB1Twpo90ndbaaSE/md /wDKuq0z9rfw/IB/aXhDU7Y9/s9yk2P++glfItFYTybBy+zb5spYioup97eHv2iPhVq8CNLr0ulz OceRfWroy/VlDJ/49Xovh/xFoHiC3M+ha1p2qRAZLWlykoX67ScfjX5iVJbzzW8olt5pIZF5DoxU j8RXFU4epv4JNfj/AJGscW+qP1Kor8+/CHx0+Jvhp4Vg8STajbxkf6PqQ+0I4HYs3zgfRhXtfgf9 rDTLhvI8ZeHprI4GLnTm81Ce+UbBUdeQW+leVXyXE0tYrmXkbxxEJH0zRXOeC/HXhLxlarP4b16y vyV3NCr7Zk/3ozhl/EV0deXKMou0lY2TT2CiiipGFFFFABRRUF/e2dhbtcXt1DbQqMl5XCgfiaaT bshNpK7J6K8z8TfGbwzpokh0xJ9VuFyAYxtiz7ue3uAa828RfGLxbqR2WUlvpcPpbplz9WbP6AV6 2GyPGV9eWy89P+CeBjeJ8uwujnzPstfx2PpKeaGCMyTyxxIOrOwUD8TXLap8R/BWnErNr9rIwOCI My/+gg18uajqepanKZL++ubtz3mlLfzqofevao8LxX8Wd/T+mfM4njmb0oUkvV3/AAVj6Cv/AI5e H4iy2mmahcEdHIVFb6ZOf0rCvfjxeHIsvD1un+1NcM36BR/OvGaXj0r0ocP4KG8b+rZ4tXi3M6m0 7eiR6dJ8bfFrfct9MT6Qsf8A2aq8nxn8aNja+np9Lfr+Zrzn8KPwrqWUYJf8u0cLz/Mv+f0vvPQ/ +FzeNv8AnvY/+Ao/xqdPjX4xU/MmmN/2wI/9mrzT8KPwpvKcE/8Al2vuEs/zFf8AL6X3nrFn8c/E Mbg3el6dOvdU3ofzyf5VvWPx4sWA+2+HbmM9/JuFf+YWvCeaK555DgZ/Yt6NnVS4pzSn/wAvL+qT /Q+mdH+MPgy/H+kXNzpz/wB24hP80yP1rrtG8RaFrK50vV7K7IOCscoLD8OtfHPWlQ7WDBypHQg1 59bhejL+HJr8f8j18NxxiYaVqal6aP8AX8j7Zor5K0Lx54s0XaljrdyYlORHKfNUj0+bOB9MV6L4 b+Okm9IvEGkKVx809o2CP+AMf/Zq8fE8O4uirwtJeR9HguMMBiLKpeD89vvPcKK5zwx438M+IgBp upxGU/8ALGQ7JP8Avk10deJUpzpvlmrM+mo16VePNTkmvIKKKKg1CiiigAooooAKKKKACiiigAoo ooAKKKKACiiigAooooAKKKKACiiigAooooAKKKKACiiigAooooAKKKrarqFjpWnT6jqV3BZ2duhe aeZwiIvqSelCVwLNc9438beFvBWnfbvEus29hGR8iMS0sh9ERcs34Cvnr4wftQYM+kfDuAHqjatc Jx9YkPX6t/3zXzJrmranrmpS6lrF/cX15KcvNPIWY/ie3t2r3cHkdWr71X3V+Jy1MTGOkT6G+JH7 VGsXjvaeBdOTTIAxAvb1BLM47FY/ur+O78K+fPEGu6z4gv2v9c1S71G6bP7y4lLkewz0HsKz6K+l w2CoYde5G35nHOrOe4UUUV1mYUUUUAFFFFABRRRQAUUUUAFFFFABRRRQAUUUUAS2d1c2V1HdWdxL bzxncksTlHU+oI5Fe2/DX9pbxr4ceG08RAeJdOQFf377LpfQiXHzf8CBJ9RXhtFc1fC0cQrVI3Lh OUNj9EPhn8XfBPj+NY9I1IW+obQXsLvEcy/QdH/4CTXfV+WcUkkMqyxSNHIhDKynBUjoQe1e+fCT 9pXxL4faHTPGCy+INOzgXBP+lxj/AHj/AKwf73PP3u1fOYzIpw96g7+R2QxUftH2hVDXdZ0vQ7Fr 3Vb2K1hHd25Y+gHUn6V5T4r+OeltZKvhCP7ZLIgY3FxGyJFkZxsOCWHocD614zrms6prl615q99L dztwGkPCj0A6AewpYDh+viPeq+7H8f8AgfM+dzfizD4O9Oj78/wX+fyPXPGfxubL23hez24b/j7u R94f7Kf1P5V5Lruu6vrl0bjV9RuLuTOR5jfKv+6vQfgKzv1pK+uwmWYbCL93HXv1PzzH51jce/3s 9Oy0X3BRRRXoHkhRRRQAUUUUAFFFFABRRRQAUUUUAFFFFABRRRQA5CysGVijA5BBwQa7rwh8U/FG gGOCW5/tOzU8xXJy2PQP1H45HtXCfU0D3rnxGFo4iPLUimjrwuOr4SfNQm4vyPqPwV8TvDfiQJAZ xp9+3H2e4ONx/wBluh/n7V29fEleg+A/inr/AIcZLa8ZtU04YHlTN+8jA/uN2+hyOOMV8tj+G2ry wz+T/R/5n3eVcaKVqeNVv7y/Vf5fcfTVFc/4N8X6J4qtPO0y5UyqMyQOcSJ9R1/Gugr5WpTlTk4z Vmj7ujWp14KdN3TCiiioNQooooAKKKKACiiigAooooAKKKKACiiigAooooAKKKKACiiigAooooAK KKKACiivCf2hfj3Z+CjN4c8LNDfeIh8s0p+aKy/3v7z/AOz0Hf0rahh6mInyU1dkzmoK7O5+LnxW 8LfDfTfM1Wf7VqUqk22nQMDLKexb+4mf4j74BPFfE3xW+KPir4jakZtZuvKsUYm20+AkQxDscfxN /tHn0wOK5LWNT1DWNTn1PVbya8vLht0s0rbmc+5/SqlfZYDKqeFXNLWXf/I8+rWc/QKKKK9U5woo ooAKKKKACiiigAooooAKKKKACiiigAooooAKKKKACiiigAoorS0bSZb997ZSAH5n9fYUGdWrClFz m7Iq2FlcXs3lwJn1Y9F+tdbpOkW9gA+PMm7uR0+npVy0tobWEQwIEUfr7mpapI+VxuZzr+7HSP5+ pJBNJC4eJyprbsNRjuMJJhJP0P0rAorSM3E8SvhoVlrv3OtoNY+m6kVIiuGyOznt9a2AQRkHINdU ZKS0PCrUJ0ZWkFFFFMxCiiigAooooAKKKKACiiigAooooAKKKKACiiigAooooAKKKKALOnX15pt7 HeWFzJbXEZyrxtgj/Ee1e7fDT4vW+o+VpfiYpbXZwsd0vEcp/wBr+6f0Pt0rwEYxz1pOTXn47LaO Mjaotej6o9fK85xOW1L03p1T2Z9tKysoZWDA9CDmlr5x+FnxRvPDzRaXrTSXelcKrdZLce3qo9O3 b0r6G029tdRsYr2ynSe3lXcjocgivgMfl1XBT5ZrTo+5+s5TnOHzOnzU37y3XVf8AsUUUVwHrBRR RQAUUUUAFFFFABRRRQAUUUUAFFFFABRRRQAUUUUAFFFFABRRXzV+1T8bW0lbnwL4RusagR5epXsT f8e4I5iQj+M9Cf4enXOOjDYaeJqKnDcic1BXYz9pX4+nTGu/Bvga6/08ZjvtTibm39UhI/j7Fv4e g55X5Kdmd2d2LMxyzE5JPrSUV9zg8FTwkOWHzfc8ypUdR3YUUUV2GYUUUUAFFFFABRRRQAUUUUAF FFFABRRRQAUUUUAFFFFABRRRQAUUVraBpJvZPOmBFup+m8+g9qDKtWhQg5zegug6O14wnnBW3HT1 f/63vXWxokaBEUKqjAAHApVVVUKoAUDAA7UtUkfHYzGTxM7y26IKKKKZyBRRRQAVoaZfmAiKUkxH p/s1n0U4ycXdGdWlGrHlkdYpDqGUgg9CKd0rA0u+MDeVKSYj/wCO1vAhhkHINdcJKSPAxGHlRlZ7 BRRRVHOFFFFABRRRQAUUUUAFFFFABRRRQAUUUUAFFFFABRRRQAUUUUALmu0+GXj6/wDB9+scm+50 uVv31vn7v+2nv7dD+tcX1oyRWGIw9PEQdOorpnVg8XVwdVVaLtJH2douqWOs6ZDqOnXCT20y7lZT +h9D7Vcr5X+F/jm78H6qFcvNpczf6RBnof76+4/X8sfT+lX9pqmnw39jMs1vMgdHXuDX53meWTwN S28Xsz9gyTO6WaUrrSa3X6ryLNFFFeYe4FFFFABRRRQAUUUUAFFFFABRRRQAUUUUAFFFFABRRXGf GTx/p3w58FXGuXZjlu2/dWNqzYNxMeg+g6k+g9SKuEJVJKMVqxNpK7OF/ah+L6eBdEPh7QbkHxJf x/eTn7HEePMP+2f4R9T2GfiCWSSWV5ZXaSR2LMzHJYnqSe5q74h1jUfEGuXetatdNdXt3KZZpG7k 9h6AdAOwAFUK+6y/AxwlOy36s8urVdR3CiiivQMgrv8A4efB7x944hiu9H0VotPkGUvrtvKhPOMq Ty/II+UGu6/ZO+Ett401SXxT4itxNoenShIoG+7dTgA4Yd0UEEjuSByMivtOKNIokiiRUjRQqqow FA6ADsK+fzLOHQl7Klv18jro4fmXNI+MZP2UviAtvvTV/Drv08vz5R+vl15b8QPhz4y8CTKviXRZ rWF32x3KkSQSH0DrkZwCcHB9q/SKqms6Zp+s6ZPpmq2cN5ZXCFJYZVyrqexrzqOfV4y99Jo2lhYN aH5eUV6Z+0T8NG+G3jX7NaF5NGv1abT5HOSoB+aMnuVJHPcEH1rzOvq6FaNeCqQ2ZwSi4uzCiiit iQooooAKKKKACiiigAooooAKKKKACiipbO3kurlIIhlmP5e9ApSUU29i1ounPqFztOVhTl2/oPeu 1ijSKNY41CoowAO1Q6faR2VqkEQ4HU92PrViqSPjswxrxNTT4Vt/mFFFFM4ArpPBvgXxR4ukxoel yzQhsPO5CQoe4LHgn2GT7Vu/A7wF/wAJx4nYXm9dJsQsl2VOC5J+WMH3wcnsAe+K+wNPsrTTrKKy sbaK2toVCxxRqFVR6ACvCzPN/q0vZ01eX5H0GU5K8XH2tR2j+LPmFf2d/GZj3HUdFDY+75sn89lc V40+HHi7wkrTarpbNaLjN3bnzIhk4GSOV54+YCvtqmzRRzRPDNGkkbjayOuQw9CD1ryKWf4mMrzs 0e3V4cwso2g2n95+fNFesftD/DmLwjq0es6RHt0i/cr5Q6W8vXaP9kjJHpgj0ryevrMLiYYimqkN mfGYrDTw1V0qm6CtTR73awtpT8p+4T29qy6K6oycXc4q1KNWHKzrhSCqGkXnnxeXIf3iD8xV+utN NXR87VpypycWFFFFMzCiiigAooooAKKKKACiiigAooooAKKKKAFHJxWr4d8Pa14hujb6Pp812y43 lRhFz03MeB+Jq34A8NTeK/EtvpULGOI/PcSj/lnGOpHvyAPc19V6Bo+naFpkWnaXbJb28Y4UDkn1 J7k+teDm+cxwXuQV5/gj6rh/h2WZ3q1HamtPNvy/zPA4Pgh4reMM93pcTEfdMrkj8lrA8UfDfxX4 fjae6sBc2yDLTWp3qo75H3gPfGK+qqK+ep8R4uMrys12sfXVuC8BOFoNp973/A+JTjPy9KCc17F8 evAcOnq3ifR4Figdwt5Cgwqk8BwO2TwR6kH1rx0jHFfZ4HG08ZRVSP8AwzPzjM8uq5fXdGp02fdd w78V6L8GfHsnhjUV0vUZS2k3T/MWP/Hu5/iH+ye4/H1z51nByKD61eKwtPFU3TqLRmWAx1XBVo1q Ts1+Pk/I+2InSWNZI2DKwyCO9Orxf4AeOTMi+FdUlJkUZspG7gdYyfUdvbjtXtFfmuNwk8JWdKZ+ 1ZZmFPMMPGtDruuz7BRRRXIegFFFFABRRRQAUUUUAFFFFABRRRQAUUUUARXdxBaWk13cyrFBCjSS SMcBFAySfYAV+ff7QPxHuPiP46mvYnddHsyYNNiOQPLz/rCOzORn6YHavev20fiO2laNF4B0q4C3 eoxiXUWRsNHBn5Y+Om8g5/2R6NXyBX1WR4G0fby3e3ocOJq68iCiiivozjCiiigZ+hv7OelW+kfB TwxBbqB59mt1IcYLPKS5J/76x9AK9Bryz9lbxHF4h+C+jqrDz9MDWE6g9DGfk/NCh/GvU6/OsWpK vNS3uz1qduVWCiiiucs8K/bb0q3vPhJBqTov2jT9RiaN8c7XDIy/Q5U/8BFfE1fYv7c3iOC08DaX 4YRibrULwXDAH7sUQPX6sy4/3TXx1X2mRKSwuvd2POxVvaBRRRXsnMFFFFABRRRQAUUUUAFFFFAB RRRQAV1/hnTvstt9olX99KO/8K+lYnhuw+2XvmSLmGLlsjgnsK7KmkfP5xjLfuY/P/IKKKKo+eCi iigD6x/Za06K0+GCXiAeZe3Uskh7nadg/wDQf1Ner141+ydrkd54Iu9EY4n065LBfWOTkH/voP8A pXstfnmZKSxU+bufpmVuLwlPl7BRRRXEd5wnx802DUvhRrayqu63hFxGxH3WRgePqMj8a+Mq+v8A 9pDXItH+F19blv3+pMtpEM9icufptB/MV8gV9jw8pLDyb2v/AJHw/Ezj9ZilvbUKKKK98+cHwSvD KsiHDKc109rMs8KyJ0I6elcrWhotz5U/lMfkk6exrWlOzscGNw/tIcy3Ru0UUV0nhhRRRQAUUUUA FFFFABRRRQAUUUUAFFFFAHuv7MFjENO1fUsAytMkAPoqru/m36CvZq8N/Zk1eOO41TQ5GAeULcxe +Plcfqv617lX5vncZLGz5vL8j9m4XlCWWU+Xzv63CiiivJPoDL8XWEeqeGNSsJQu2a2dckdDg4P4 V8cj1r66+IurpofgrVNQZtrrbskX++w2r+pFfInbFfZ8LRl7Oo+l1/wf0PzXjqUHWpRXxWd/Tp+o UUUV9YfBktrNNazxXVvI0c0Th43XqrA5Br6t+GHiuHxb4YivchbyH91dxj+Fx3+h6ivk7+Vdf8J/ Fb+FPFUVxKx+w3OIrpfbs34H9M14md5f9boc0V70dv8AI+l4Zzd4DFcs37k9H5dn/XQ+q6KRGV0V 1OVYZB9RS1+dn7CFFFFABRRRQAUUUUAFFFFABRRRQAVmeK9csPDPhvUNf1NylpYQNNKQMkgDoPcn AHua06+Yv25PGrQWOm+BLOQqbnF7fbW6oCRGh+rAtj/ZWurB4d4mtGmupFSfJG58z+N/Eeo+LvFe o+ItUkZ7m+mMhychF6Kg9lGAPpWNRRX6BCChFRWyPJb5goooqxBRRRQB6J8B/ihf/DLxS14I5LvS bwCO/tAcFwM7XXsHUn8QSO+R91+CfGPhvxnpS6l4c1WC+hI+ZVbEkZ9HQ8qfqK/NCrGnX17p12l3 p95cWdzGcpLBKY3U+zA5FePmGUwxT9pF2l+Z00q7ho9j9Rq4r4o/E7wp8PdMkuNav43vdhMGnwsG nmOOPl/hH+0eKzPjPf31n+z/AKzqFnfXFveLpcbLcRyMsgJKZIYc5OT+dfn3NJJNK0s0jySMcszH JJ9Sa8PLcrWKvKUrJO1jprVnT2R0fxN8aat4+8X3XiLV2AklwkMKn5IIh91F9hk/UknvXNUUV9jT pxpxUYqyR5zbbuwoooqxBRRRQAUUUUAFFFFABRRRQAUqgswVRkk4ApK1/C1oLi/85xlIfm+rdv8A H8KDKvWVGm5vodHo9mLGxSHA3n5nI7tVyiirPhak5VJOUt2FFFFBIUUUUAdD8PvFmo+DPEsGs6cd 235J4S2FmjP3lP5ZB7EA19f+AvHfh3xnp6XGk3qC42gy2kjASxH0I7j3HBr4fp8MskMqywyPHIpy rI2CD7EV5WYZVTxfvXtLv/mevlub1cF7rV4vp/kfoLWR4l8T6B4bt1n1vVbayR2CqJH+ZifRRyfy rnfBl7dyfBGyv5rueS6bRi5naQmQtsPzbuufevja7ubm8uHuLu4luJnOWklcszH3J5NfOYDKvrU5 qUrKLt6n1GY5x9Upwko3clf0Prr42/D2P4gaDBd6bdAalZoz2Z8zMUytgleuATgYb8+OnyPqNld6 dfTWN9byW9zA5SWKQYZWHUGvXfgP8WpPDksXhzxFO0mju22Cdjk2hJ6H/pn/AC+lep/Gj4Y2PjvT RrGkNBFrUcYaGYEbLpMcKxHt91v6dPQwuIqZXU9hX+B7P+v6R5uLw1LNqX1nD/Gt0fI9FWNQtLrT 72ayvYJILiByksUgwyMOoIqvX08ZKSuj5KUXF2YUUUUwOl0y5+0Wqsfvrw31qyODXP6NP5N1sY4W Tg/XtW+a66cuZHz2LpeyqNLZhRRRVnKFFFFABRRRQAUUUUAFFFFABRRRQBf0PVLzRNWttU0+Xy7m 3fch7H1B9QRwRX038PviDoviuzjRbiO21IL+9tJGw2e5XP3h9K+VuKFJzwcGvJzLKqeOir6SWzPe yXPq+VyfKuaD3X6o+2qo63q+m6LZPe6peRWsCjJZ2xn2A6k/SuR+BF1c3Xw5tpbq5mnkE0qh5XLE ANwMnsK+dPFN1dXfiG+e6uZ7hhcSKDLIWIAY4GT2r5PA5N9ZxE6MpWUNz9AzTiP6nhKVeELuorq7 20W/3nU/Frx7J4w1BLa0V4tLtiTGp4Mj9N7enHQdufWuC70vtR0Nfd4bDU8NTVOmrJH5XjMbVxlZ 1qzu2JRRRW5yhRRRQB9Ifs/eKDrPhdtJunBu9NwgyeXiP3T+H3fwHrXpdfJfwx8RN4Y8ZWWos2LZ m8m5B6eW3BP4HDfhX1mjK6K6HKsMg+or87z3BfVsS3H4Za/5n7Bwtmf13BKMn70NH6dH+nyFooor xT6YKKKKACiiigAooooAKKKKAI7qeG1tZbm4cRwwoZJHPRVAyT+Vfm18UfFEnjPx/rHiSTzFS9uS YUkbJSIfKi/goFfZv7WniseGvg9f20MrR3msMLCHacHa3Mh+mwMv/AhXwbX1PD+GtGVZ9dEcOLnq ohRRRX0hxhRRRQAUUUUAFFFFJ7DR9/fHP/k3DW/+wTF/NK+Aa+/vjn/ybhrf/YJi/mlfANeFkP8A Bn/iOnFfEvQKKKK945QooooAKKKKACiiigAooooAKKKKACu28PWv2XTIwR88nzt+PT9MVyelW/2r UIYcZUtlvoOTXeU0eBndeyjSXq/0CiiiqPnQooooAKKKKACiiihgj7J8Df8AJBbH/sBt/wCizXxt X2T4G/5ILY/9gNv/AEWa+Nq+fyX+LW9f8z6TPv4VD/D/AJBXsnwI+LMnhyWLw94hmaTR3O2CduTa E9j6of0+leN0V6+KwtPE03CaPEwmLqYSoqlN6/mfXPxn+GNj4601dW0cwxa1HGDDMpGy6TGQjHp9 G/p0+TtQsrvT76axvreS3uYHKSxSLhlYdiK9d+BHxak8OSxeHfEc7SaO52wTsSTaE9j/ANM/bt9K 9T+NHwxsfHWmDWNJMUWtRx7oZVxsulxwrH6dG7fSvBw2IqZZU+r4jWD2f9f0j6LFYWlmtL6xhtJr df1/TPkeirGoWd1p97NZXtvJBcwOY5YnGGRh1BqvX00ZKSuj5SUXF2YoJByOCK6azm8+2SXuRz9e 9cxWv4fl/wBZAf8AeH9f6VtSlZ2ODH0uanzdjWooorpPDCiiigAooooAKKKKACiiigAooooAKKKK APpj9n//AJJlbn/pvN/6FXzpr3/Ie1D/AK+pP/QjX0X8AP8AkmNv/wBd5v8A0KvnTXv+Q9qH/X1J /wChGvmcn/3/ABHr+rPteIv+RZhPT9EUqKKK+mPigooooAKKKKAFBxX1B8DteOueBLdZpN1zYn7N L9ABtP4qRz65r5e7Zr1D9nLWvsPjGXSnP7rUISB/10TLD/x3d+leJn+F9vhHJbx1/wAz6fhTHfVc fGL2no/0/E+i6KKK/PD9fCiiigAooooAKKKKACiiigD44/bl8StfeO9L8MRsPI0q08+Tj/ltMen0 CrH/AN9Gvnius+MOvSeJvih4j1mSQyLNfyLEc5HlIdkY/wC+VWuTr9BwFH2OHhDyPJqy5pthRRRX YZhRRRQAUUUUAFFFFJ7DR9/fHP8A5Nw1v/sExfzSvgGvv745/wDJuGt/9gmL+aV8A14WQ/wZ/wCL /I6cV8S9Aooor3jlCiiigAooooAKKKKACiiigAooooA6DwbbgyzXJ/hARfx5P8h+ddNWZ4ZhEOkR nGDIS5/p+gFadUj4vMavtcRJ9tPuCiiimcQUUUUAFFFFABRRRQwR9k+Bv+SC2P8A2A2/9Fmvjavs nwN/yQWx/wCwG3/os18bV8/kv8Wt6/5n0mffwqH+H/IKKKK+gPmwr2T4EfFmTw5LF4d8QzM+kO22 CduTaknof9j+X0rxuiubFYWniabhNHThMXUwlRVKb1/M+ufjP8MrHx1pg1fSGgj1mOIGGZSNl0nU KxHt0b+nT5O1CzutPvZrK+t5La5gcpLFIuGRh2Ir1z4EfFqTw5LF4d8RTtJpDnbBOxJNoT2Pqnt2 +leqfGj4ZWPjrTP7X0hoY9biizDMpBS6THCMen0bt9K8HDYipllT6vX1g9n/AF/SPosVhqWa0vrG H0mt1/X9M+R6sadL5V7E2cAnB+ho1CyutPvZrK9t5Le5gcpLFIMMrDqDVevp4TTs0fJVYOzizraK jt5PMgjk/vKDUldx8xJNOzCiiigkKKKKACiiigAooooAKKKKACiiigD6Y+AH/JMbf/rvN/6FXzpr 3/Ie1D/r6k/9CNfRfwA/5Jjb/wDXeb/0KvnTXv8AkPah/wBfUn/oRr5nJ/8Af8R6/qz7XiL/AJFm E/w/oilRRRX0x8UFFFFABRRRQAVe0O/k0vW7LUoiQ1tOkvHcA5I/EcVRxRUzgpxcXszSnUdOalHd H2vaTxXVtFcwOHilQOjDuCMipK434Lakup/DjS2zl7dDbOPQocD/AMd2n8a7KvyivSdGrKm+jaP3 rC11iKEKq+0k/vQUUUVkdAUUUUAFFFFABWB8RtXbQPAGv61GxSSz06eaNh2cIdv64rfryX9rjVDp vwM1iNCVkvZYLVTnsZFZh+Kow/Gt8NT9pWjDu0TN2i2fBZ5OTRRRX6KjxwooopgFFFFABRRRQAUU UUnsNH398c/+TcNb/wCwTF/NK+Aa+/vjn/ybhrf/AGCYv5pXwDXhZD/Bn/iOnFfEvQKKKK945Qoo ooAKKKKACiiigAooooAKAMkCirOlRiXUraMjIMgz9M0EVJckHJ9DubaMRW8cQ6IgUfgKkooqz4OT bldhRRRQSFFFFABRRRQAUUUUMEfZPgb/AJILY/8AYDb/ANFmvjavsnwN/wAkFsf+wG3/AKLNfG1f P5L/ABa3r/mfSZ9/Cof4f8gooor6A+bCiiigAr2T4EfFmTw5LF4d8QztJo7ttgnY5NoSeh/6Z/y+ leN0VzYrC08TTcJo6sJi6mFqKpTev5n1z8Z/hjY+OtMGr6QYItajjDQzKfkukxkKxHt91vf06fJu oWd1p97NZXsD29zA5jlicYZGHBBr134EfFqTw5LF4d8RTNJo7nbBO3W0J7H1T+X0r1H4z/C+x8c2 A1rRWhi1lI8pIpHl3aY4ViOM+jfgeOnhYbE1MsqewxGsHs/6/pH0GKw1LNaX1jDq018S/r+mfNWh vvsQvdGI/r/Wrp61R060u9OvLvT723kt7mB9skUi4ZTzkEVer7ClLngmj80xkOSvJMKKKK0OUKKK KACiiigAooooAKKKKACiiigD6Y+AH/JMbf8A67zf+hV86a9/yHtQ/wCvqT/0I19F/AD/AJJjb/8A Xeb/ANCr5017/kPah/19Sf8AoRr5nJ/9/wAR6/qz7XiL/kWYT/D+iKVFFFfTHxQUUUUAFFFFABRR RQB7x+zDqCvpOr6WfvRTpOPoy4/9l/WvY6+d/wBmq6MXja7td2FnsmOPUqy/0Jr6Ir85z6n7PGz8 7P8AA/ZOFazq5ZTv0uvxCiiivHPogooooAKKKKACvn/9ui+SH4X6VY7iJLnV0bHqqRSZ/Vlr6Ar5 c/b6uCLfwdahhh2vJGXPOQIQP5mvQyuHPi4LzMq7tTZ8qUUUV96eUFFFFABRRRQAUUUUAFdX4J+H PjbxoC/hrw7eX0KttM/EcIPpvchc+2a7/wDZc+EcXxA1ubWtehc+HtOcK6A4+1zYz5eQchQCCx9w O+R9vWFpa2FnFZ2VvFbW0KhIookCoijoABwBXhZjnCw8nTpq8uvZHXRw/MrvY4r4qeHtW1z4Lap4 b0y2E+pz6ekMcXmKu5xtyNzEDseSa+CfGHg/xP4QvEtfEuiXmmSSZ8szJ8kmOu1hlWx7E1+mNZni jQNH8TaJcaNrthDfWNwuHikH5EHqCOxHIrxMvzSWEvFq6buzoq0VUPzEor0H48/De5+GvjV9MDvP pt0vn6fcMOXjzgqf9pTwfwPGa8+r7OjWjWgpwejPOlFxdmFFFFakhRRRQAUUUUAFFFFABWj4aQvr MHoNxP5Gs6tnweobVHJ/hiJ/UUI5cbLlw8n5M62iiirPiAooooAKKKKACiiigArZ8MeF/EHiW4aD QdKur91xuaNfkXPTcxwo/E1vfBvwJN468ULay74tMtsSXsyjnb2Qf7TH8gCe1fYeh6RpuiabFp2l WcVpaxKFSOMYH1Pqfc8mvFzLN44V+zgry/BHu5VkssYvaVHaP4s5/wAKaLqNl8JbTQbmAR6gmlG3 eLcCBIUIxkHHU9c18i+KvBfinwttbXtFubONm2rKQHjJ9N6krn2zX3RUN/aWt/aS2l7bx3FvKu2S ORQysPQg189gs1nhZylZNSd3/wAA+mx+UQxdOMeZpxVl/wAE/P2ivTfj38OR4K1qK90xXOi3xPlA 8+RIOTGT3GOQT7jtk+ZV9phsRDEU1Uhsz4PE4aeGqulUWqCiiitzAKKKKACvZPgR8WpPDksXh7xF O0mjudsE7Ek2hPY/9M/bt9K8bormxWFp4mm4TR1YTF1MLUVSm9fzPsP4qfDyw8YWg1rSvKj1hYf3 cq423KdQrHv7N2rwGw8N67f6rLpdnpF1NeQsVmiVfuEcfMeg/Gu5/ZZ8Za7cam/hCdHvNNigaaOV jzagHpnupJAx2PTjNfRKoiszKigtySB1r5uGZYjKXLDO0l08v67H0NfJMJnnLik3B7O3X+u58023 wb8bS2/mtb2cDY/1UlwN3/juR+tc14j8HeJfDy+Zq+kzwRZx5ww8ee3zKSB+NfXlMuIYriFoZ40k jcYZWGQRRS4mxUZXmk19xFbgnByhanJqXd2f6I+KPajpXpXxt8BxeGL1NW0uLbpd0+wx/wDPGTGc D/ZIBx6YI9K81HB5r7HCYuni6Sqw2Z+c4/A1cDXlRqrVfj5oSiiiuo4gooooAKKKKAF+lXNH0rUt XvBZ6ZYz3kxGdkSZwPU+g9zWh4I8O3fijxJbaTaErvO6aXGRFGPvN/h6kivqjwt4e0vw3pUenaXb rFGo+Z8fNI3dmPc14mbZxDBWhFXm+nb1Ppsh4dqZm3Um+WmuvVvsv8zD+D2ialoPgS303Vrc21yJ ZGaPerYDNkcgkV4F448HeJdH1C8v9Q0ieO0e4dhOmHTBY4JKk4znvivq+kkRZEKOoZWGCD0NfJ4P OKuGrzq2T5t/+Aff5jw7RxmFp0OZrkVk/lbU+JhjPNDDHI6V6x8cvh/Boh/4SHRYPLsJX23EKD5Y WPRh6KTxjscevHk5yBivvMFjKeLpKpT2f4H5TmOX1cvrujV3X3Nd0JRRRXWcAUUUUAFFFFMDtPgp cNB8TdIwcLI7xsPUFGx+uK+p6+SPhfJ5XxD0KQ/8/kY/Pj+tfW9fCcTRtiYvy/Vn6nwRO+Cmu0v0 QUUUV82fZhRRRQAUUUUAFfJv7e5P9s+Exk4FvcnH/Ao6+sq+Tf2+FI1fwk/Y290PyaP/ABr1Mm/3 uPz/ACMMR/DZ8x0UUV9yeYFFFFABRRRQAUUUUDP0J/Zs0a20T4KeG4bdMNdWovJm7s8p3kn6AgfQ CvRa8y/Zf1+DX/groTRsPOsIjYzr/daM4H5rtP416bX51ik1Xnzb3Z61O3KrBRRRXOWeC/tvaNBe /Cu01coPtOm6gmxu+yQFWX8SEP8AwGviuvsz9uPX4LL4dad4fDj7VqV8Jduf+WUQJY/99Mn6+lfG dfaZEpfVde7sedire0CiiivZOYKKKKACiiigAooooAK3PBv/ACEJT/0y/qKw63PBp/4mEo/6Zf1F COLMP92n6HVUUUVZ8WFFFFABRRRQAUUUUAfV37K2lw2fw2bUFUedf3TtI3fCHYo+nBP/AAI161Xj /wCylrMV74An0ncPP066bK/7EnzKfz3j8K9gr88zJSWKnzdz9MytxeEp8u1goooriO84H9oHS4dU +FGseYo32iLdRMf4SjAn813D8a+Na+xP2itZj0j4V6nGzYmv9tpEPUsct/46Gr47r7Hh5S+ryvtf /I+H4mcfrMbb21CiiivfPnAooooAKKKKAPpv9kTTkh8H6tqm0CS5vhDn/ZjQEfrI1e214X+yHqsU nh3WNEaQedBdC5VSeSjqFOB6Ap/49717pX59mil9bnzdz9JyhxeCp8vYKKKK4D0jmPivZx33w61y KUDCWjzDPqg3j+VfJdfV3xg1KLTPh1q8krqpuIGtkBPLNINuB6nBJ+gNfKNfbcLqXsZ32v8AofmP HDh9appb8uv3u36hRRRX1B8OFFFFABRRRQB7l+zBp0ItNX1YqplMiW6nuqgbiPxJH5Cvaa8R/Zh1 WIf2torsBIxW5jHqPut+Xy/nXt1fm+dqSx0+by/JH7Nwu4PLKfL539bhRRRXkn0BkeNNOj1bwnqm nSBSJrZ1BbscZB/A4NfHmOM19fePtVTRfBuq6i7AGO3YJ7uw2qPzIr5Bzxivs+FlL2dRva6/r8j8 146cPbUkvis7+nT9RKKKK+rPgwooooAKKKKANzwBx430PH/P/D/6GK+v6+Qfh+C3jjQwoyft8P8A 6GK+vq+I4o/jw9P1P07gb/dan+L9Aooor5g+4CiiigAooooAK+X/ANvq2drDwfdgfJFLdxn6sISP /QDX1BXgf7ctms3wo067wd9vq8YB9A0cg/ntrvyuXLi4PzMq6vTZ8W0UUV98eUFFFFABRRRQAUUU UAep/s6/Fef4aeJZFvVluNAvyq3sKctGR0lQZxuGcEdx7gY+5/DHiHRfE+kQ6toOo29/ZyqCskTZ x7MOqn2ODX5i1p+HfEOu+HLtrvQdYvtMnYbWe1naMsPQ4PI9jXi5jlEcTJ1IO0vzOmjiHDR7H6d1 zPxD8d+GfAeivqniLUEgXH7q3TDTzn0RM5P16DuRWF8YdW1PTPgPq+safez2uoR6bHIlxE+11YlM kH15Nfn9q2pajq1/Jf6rfXN9dyffnuJWkdvqxOa8PLsr+t3lKVknY6q1b2fQ6X4u+PNT+InjO41/ UP3cWPKtLYHKwQgnavueSSe5J+lchRRX2VKlGlFQirJHmtuTuwooorQQUUUUAFFFFABRRRQAVseE G26qw/vREfqD/SsetDw223WrfnqSP0NCObGx5sPNeTO2oooqz4cKKKKACiiigAooooA6r4YeNL/w P4ni1a1BmgceXdW5OBLGTz/wIdQfX2Jr7C8G+LND8W6WmoaLepOpHzxniSI+jL1B/Q9sjmvhOrWm ahf6ZeLd6de3Fncp92WCQow/Ec14+Y5TDFvni7S7/wCZ7WWZxUwXuSV49u3off1ZviPXdJ8O6ZJq Os30VpbIOWc8t7AdSfYVznhDUb+5+DFnqlxdzS3z6OZmnZsuX8sndn1zXx1rWsarrN0LrVtSu7+Y DAe4lLkD0Gegr57AZU8TUkpSsouzPp8xzhYSnGUY3cldHW/Gb4gT+PPEKyxK8GlWmUs4W4Yg9XYZ xuOPwAA9SeEoor7OhQhQgqcFZI+ExFeeIqOpN3bCiiitjEKKKKACiiigDqPhd4ivvC3i631ewwSi lZYyeJYzjcp/T6EA19heD/Fmi+KNNW7027QuB+9gYgSRH0Zf69K+J9AUm5duwT+ororO6ubO4S5t Lia2nQ5SSJyrL9COa8/H5NDGxUk7SXX/ADN8FxHUyyq4Nc0H07PyPtSq2pahY6batdaheQWsC/ek lcKB+Jr5Xh+InjWKLyl8R3u3/aIY/mRmsPV9X1TVpll1PULm8dRhTNIX2j2z0/CvHp8L1ub35q3k e1W45w6j+6ptvz0X6n0r8WvCL+NfDcX9n3e24tyZoF3fu5sjofw6HtmvmK9triyu5bO7gkguIWKS RuMMpHY16b8HPiU+gyR6HrkzPpbHEUzHJtye3+5/KvRPir8PrTxfY/2rpbRR6qseYpBjbcLjhSf5 GujB4iplFX6vX+B7P+vx7HJmGEo8QUPrmE/iL4o/1+Hc+aMUVNeW1xZXclpdRPDPE5R42GCpHUGo TX10ZKSuj4CUXB8sgooooJCiiigDT8Na1e+H9bttWsHxNA2dp+6691PsRxX1F4E8aaN4s09JbO4V LpVHnWzkCRD9O49xXyX9etSW08ttOk0E0kMyHckkbFWU+oI6V4+Z5RDHJO9pLr/mfQ5Jn9XK5ONu aD3X6o+1qr6he2mn2j3V9cxW8EYyzyMFAH1Ncd8D9RvdS+Htvd6hdS3M3nSqZJWLMQG45NfPPjLV 9U1PW7tNQ1C5ukhuJFiWWUsqDcRwDwK+SwWTzxOInRcrcu5+gZnxFHB4SnXULuorpdtt/vOq+Mfx BHiy6TTdMLJpVu27cQQZ36biP7o7D3yfbzrnvQOOaB1yelfe4TC08JSVKmtEfleOxtXHVnWqu7f9 WQlFFFdBxBRRRQAUUUUwOm+FkYm+ImhIRkC8Rvy5/pX1rXy18DrZrj4naWVG5YTJI3sBGwH6kV9S 18JxPK+Kiuy/Vn6pwTC2Bk+8v0QUUUV82fZBRRRQAUUUUAFeVftX6UdV+BmubBmSzMN2o/3JF3f+ Olq9VrH8caQdf8Ga1ogALX1jNbpk4G5kIB/MitsPU9nVjPs0TJXi0fmTRSujI7I6lWU4IPUGkr9G R5AUUUUxBRRRQAUUUUAFFFFJ7DPv745/8m4a3/2CYv5pXwDX398c/wDk3DW/+wTF/NK+Aa8LIf4M /wDEdOK+JegUUUV7xyhRRRQAUUUUAFFFFABRRRQAVY02QQ6hbyk4CyKT9M81XoHBoIqRUouL6no1 FRWkomtYph0dA35ipas+DmnGVmFFFFBIUUUUAFFFFABRRRQwR9k+Bv8Akgtj/wBgNv8A0Wa+Nq+y fA3/ACQWx/7Abf8Aos18bV8/kv8AFrev+Z9Jn38Kh/h/yCiiivoD5sKKKKACiiigAooooA2PDq/u 5n9SB/n861apaImywU92JY1drsgrRR85i5c1WTCiiiqOcU5616l8HPiU+gyRaHrcrPpbnbDM3Jti ex/2P5V5aD2PSjvxXJjMHTxdJ06i0/I7svx9bAVlVouzX3NdmfS/xV+H9p4xsBqmlGKPVVQGOQH5 Lheysf5Gvm6+tbiyupbW7gkgnhYpJG64ZSOxFel/B34lSaDLHomuTM+lscRTMcm3Pp/ufyr0b4q/ D+z8X6f/AGppZij1VI8xyLjbcLjhWP8AI189hcVVymr9XxGsHs/6/peh9jjsDQz6g8Zg1aqvij3/ AK79T5nxRU17bXFldyWl3C8M8TlJI3GCpHY1Ca+sjJSV0fBSi4PlkFFFFBIUUUUAfTHwA/5Jjb/9 d5v/AEKvnTXv+Q7qH/X1J/6Ea+i/gB/yTG3/AOu83/oVfOmvf8h7UP8Ar6k/9CNfM5P/AL/iPX9W fa8Rf8izCf4f0RSooor6Y+KCiiigAooooAKKKKAPVv2Z7UyeML+7xkQ2RUn3Z1/+JNfQteQ/sx2C xaBqmokfPPcLFn2Vc/zY169X5xntX2mOn5WX4H7LwtR9lllPzu/xCiiivIPoQooooAKKKKACiiig D85vjr4ffwx8W/EmlMoCC9aeDHTy5f3ifkGA+oNcVX0l+3X4aW18UaJ4rhHy39s1pOP+mkRyrfUq +P8AgFfNtfoGX1vbYaEvI8mrHlm0FFFFdpmFFFFABRRRQAUUUUnsNH398c/+TcNb/wCwTF/NK+Aa +/vjn/ybhrf/AGCYv5pXwDXhZD/Bn/i/yOnFfEvQKKKK945QooooAKKKKACiiigAooooAKKKKAOx 8LTCXSVTvExU/wAx/OtWuX8HXG26ltj0kXcPqP8A9f6V1FUj4zMqXssRJd9fvCiiimcIUUUUAFFF FABRRRQwR9k+Bv8Akgtj/wBgNv8A0Wa+Nq+yfA3/ACQWx/7Abf8Aos18bV8/kv8AFrev+Z9Jn38K h/h/yCiiivoD5sKKKKACiiigApQMnApKtaXEZb6MYyFO4/hTSu7ETkoRcn0OggQRQpGP4VAp5oor tPmG7u7CiiigQUUUUAKc9a9S+DvxKfQZItD1yZn0tjthmbk2xPY/7H8q8tB7HpR34rkxmDpYum6d Rafkd2X4+tgKyq0nZr7muzPpf4q/D+08YWA1TSjFHqqoDFKCNlwvZWP06Gvm6+tbmyu5bS7geCeF ikkbjDKR2Nel/Bz4lSaDLHoeuTM+lscRStybcnt7p/KvRvit8P7Txhp41XSzEmqpHmKQH5LhccKx 6fQ189hcVVymr9XxGsHs/wCv6XofY47A0M+oPGYNWqr4o9/66PqfM+KKmvbW4sruS0u4XhniYo6O MMpHY1Ca+sjJSV0fBSi4PlkFFFFBJ9MfAD/kmNv/ANd5v/Qq+dNe/wCQ9qH/AF9Sf+hGvov4Af8A JMbf/rvN/wChV86a9/yHtQ/6+pP/AEI18zk/+/4j1/Vn2vEX/Iswn+H9EUqKKK+mPigooooAKKKK ACjHGaX+GtPwtpkms+ItP0uJS5uJ1VgOy5yx/AZP4VFSoqcHJ7I1o0pVaihHdux9NfB/TRpfw70m Agh5IvPfIwcud3P5gV1tNijSKNY41CoowAO1Or8pr1XVqSm+rufvWFoLD0YUl9lJfcFFFFZG4UUU UAFFFFABRRRQB5j+0/4VfxZ8HdWgt4vNu9PxqFuvctEDuA9zGXH41+f9fqa6q6MjqGVhggjII9K/ OP40+EG8D/EvWPD6xOlrHN5lmW53QP8AMnPfAO0n1U19Pw/ifioP1X6nFi4bSOOooor6Y4gooooA KKKKACiiik9ho+/vjn/ybhrf/YJi/mlfANff3xz/AOTcNb/7BMX80r4Brwsh/gz/AMR04r4l6BRR RXvHKFFFFABRRRQAUUUUAFFFFABRRRQBPp1wbW9inBI2Nzj07/pXfKQyhgcgjINedV2Xhm6+06Yq sQXi+Q/Tt+n8qaPCzqheMaq6aM1KKKKo+bCiiigAooooAKKKKGCPsnwN/wAkFsf+wG3/AKLNfG1f ZPgb/kgtj/2A2/8ARZr42r5/Jf4tb1/zPpM+/hUP8P8AkFFFFfQHzYUUUUAFFFFABWxoEOEec9zt FZCqWYKBkk4FdTaRCC3SIfwjB+ta0Y3dzz8wq8tPl7j6KKK6TxAooooAKKKKACiiigBTnrXqXwd+ JT6DJHomtzM+lucRTMcm3J7f7n8q8tB7HpR34rkxmDpYum6dRafkd+X5hWwFZVaTs19zXZn0v8VP h9Z+MLEappRij1VEzHIMbbhccKx/ka+br21ubK7ltLqF4J4XKSRuMFSOoNel/Bz4lPoMseh63Kz6 W7bYZm5NsT2P+x/KvRvit8P7TxjYDVdLaJNVSMGOQH5LhOysf5GvnsLiquU1fq+I1g9n/X9L0PsM dgcPn2HeMwatVXxR7/8AB7PqfM+KKmvba4srqS1u4ZIZ4mKSRuuGUjsRUJr6yMlJXR8FKLg7M+mP gB/yTG3/AOu83/oVfOmvf8h7UP8Ar6k/9CNfRf7P/Pwyt/8ArvN/6FXzpr3/ACHdQ/6+pP8A0I18 zk/+/wCI9f1Z9nxF/wAizCen6IpUUUV9MfFBRRRQAUUUUAKOeK9X/Zt0P7X4lutblX93YxbI8jq7 9/wUH/vqvKP519VfB/w+fD3gazt5UC3NwPtM/GDucZwfcDA/CvC4gxfscK4LeWn+f9eZ9VwjgPrO OVRr3Ya/PodhRRRX58frgUUUUAFFFFABRRRQAUUUUAFfOf7bngdtT8M2XjayiZ7jSj9nvAve3Ykh j/uufyc19GVU1rTbLWNIu9J1GBLizvIWgnjYZDIwwR+Rrowtd4erGouhE488bH5eUV0vxP8ACN94 G8cal4avss1rJ+5kz/rYjyj/AIjGfQ5Hauar9Cp1FUgpx2Z5MlyuwUUUVYgooooAK3PCXg/xR4su Tb+HNCvtSZfvtDESif7zH5V/E16B+zX8JW+JHiCW91TzYfDunMPtLLkG4c8iFW7ccsRyBjoSDX3L oek6Zoelw6Xo9jb2NlAu2OGFAqqPoK8TMc3jh5OnBXl+COmjh3JXexx3xb0LVtY+CGq6Bpto1xqc 2nRwxwKwBZwUyMk47HvXwB4h0LWvD2oNYa7pN5pt0vWK5haNiPUZ6j3HFfp7WF458I+H/GmhS6N4 i0+O7t3BKMRiSFsY3o3VWHr+eRXiZdmjwl4yjdN38zqrUfadT8zqK7X4z/D3UPhv40n0O6dp7Vx5 1ldbcCaIng+zDoR6j0Iriq+ypVY1YKcXdM82UXF2YUUUVoIKKKKACiiigArY8LeFfEnim9+x+HdF vdTmH3hbxFgg9Wboo9yRXZfs+/C6f4meLHt5pJLfRrELLqE6fewSdsa/7TYPPYAn2P3l4a0HR/DW jw6RoOnQafYwj5IYVwM9yT1JPcnJNeLmObrCv2cFeX5HTRoOer2PhU/s+/FvyPO/4RNsf3ftsG78 t9cH4n8NeIPDF8bHxBo97pk/ZbiIqGHqp6MPcZr9OKyvFXhzRPFOjTaRr+mwX9lKPmjlXOD6qeqn 3HNebS4gqqXvxVvI2lhVbRn5jVp+Grz7LqKqxxHL8jex7Guw+Pfwzuvhn4x/s8Svc6XeKZtPuGHz MgOGRsfxKSM+oIPGcDzyvp6NaNaCnB3TPNxNBThKnPqejUVQ0G9+22CsxzKnyyfX1/Gr9dB8JVpy pTcJboKKKKCAooooAKv6Jo2ra3eCz0fTrq/nP8EEZcgepx0Hua6D4U+CLzx34oTTYWeGziXzby4C 58tPQf7RPA/E9jX2J4X8PaP4Z0uPTdFsYrW3TrtHzOfVj1Y+5rx8yzaOEfs4K8vy9T3MryaWMXtJ u0fz9DD8J6TqNn8H7PRbm1ZNQTSTA0JIyJChGM9Opr498ReHNd8O3At9b0m7sHP3fNjIVv8Adbof wNfedU9a0rTta06XTtVs4by0lGHilXIP+B9xXzuBzWWFnKTV1J3Z9NmGUQxdOMVKzirI+A6K9C+N 3w8k8Ca8jWheXSLwlrWRuTGR1jY+o7HuPoa89r7TD1oV6aqQejPhMRQnh6jp1FZoKKKK2MAoopVB ZgoGSeAKAL+hQeZceaw+WP8AnW70qCwgFvbLH36sfep+tdkI8qPncVW9rUbWwUUUVRzBRRRQAUUU UAFFFFABRRRQApz1r1L4O/Ep9Bkj0TXJmfS3OIpmOTbH0/3P5V5aD2PSjvxXJjMHSxdN06i0/I7s vzCtgKyq0nZr7muzPpf4rfD+y8X6d/aml+VHqyJujkXG24XHCsf5GvnT+ytTOpvpYsLp76NyjW6R FnDDqMDmvVPgB4z1RNUi8KzxS3tnICYXBy1tgZOc/wAH8ieOuK9zSys0upLpLWFbiUASShBuYDpk 9TXyscfiMnlLD1PeXTX+vuPvZZVhOIoRxdJ8ktpK3X/PzOR+C+lajo3gG3sdTtntbkSyOY2xkBmy OlfPfjbw7rmj6xeTalplzbwyXDtHKyZRgWJGGHH4V9c1HdW8F1bvb3MMc0MilXR1DKwPYg152Czi phq863Knzb/8A9jMeHaeMwtPDqbXIrJ/dv8AcfFJ64oORxXpvxq+HyeGrgazpETf2XO+14xk+Q56 f8BPb0PHpXmX1r73CYuni6SqU3oz8qzDAVcBXdGqtV+PmhKKKK6ThCiiigEdj8IPDZ8SeNbWGVA1 pbf6Rc5GQVU8L+JwPpmvqquB+B3hf/hHfCKz3MbLf35E0wZcFFx8qfgOfqTXfV+c53jfrWJfL8Md EfsnDOW/UcEub4pav9F8kFFFFeOfRBRRRQAUUUUAFFFFABRRRQAUUUUAeD/thfDl/FPg9PFOlW7S atoqMZVQfNLa9WHuUOWHsW9a+Ka/U1lDKVYAqRggjg18G/tPfDFvAHjRrzTYCugaoxltCB8sD9Wg 9sdR7Hvg19PkWO/5h5/L/I4sVS+2jySiiivpjiCiiigZ+gn7MmhQaD8FPD8cQXzL2D7dOw/ieU7h n6LtX/gNelV5v+zPrlvrvwT8OywsDJZ2/wBinXujxHbz9VCt9GFekV+c4q/t58292evC3KrBRRRW BR5N+0r8K7z4neHtNi0eexttVsLkskt27LGYWXDrlVY5yEI47H1rwf8A4ZQ+In/QZ8K/+BVx/wDG a98/aQ+Kdz8MfD2mz6XbWd3qd/clEhugxQRKpLt8pBzkoB9TXhX/AA1j46/6F/w5/wB+5v8A47Xv Zf8A2h7H9x8Pmc1X2XN725B/wyh8RP8AoM+Ff/Aq4/8AjNH/AAyh8RP+gz4V/wDAq4/+M1P/AMNY +Ov+hf8ADn/fub/47R/w1j46/wChf8Of9+5v/jtdv/Ct5fgY/uCD/hlD4if9Bnwr/wCBVx/8Zo/4 ZQ+In/QZ8K/+BVx/8Zqf/hrHx1/0L/hz/v3N/wDHaP8AhrHx1/0L/hz/AL9zf/HaP+Fby/AP3BB/ wyh8RP8AoM+Ff/Aq4/8AjNH/AAyh8RP+gz4V/wDAq4/+M1P/AMNY+Ov+hf8ADn/fub/47R/w1j46 /wChf8Of9+5v/jtH/Ct5fgH7g+hf2e/h9c/DfwANE1GSzm1Ga6kuLqW1YsjE4CgMyqThVXqOua9F rz39n/4gz/EjwCuu30Nrb38V1Jb3MVvkIpGCuASTyrL365r0Kvm8T7T2sva/FfU7YW5Vy7BRRRWB R5r+0V8Obr4leB4tJ0x7GDU7a7Se3muyVVRgq67lViAQemOSBnpXzx/wyh8RP+gz4V/8Crj/AOM1 9FftC/Eaf4a+CItXsIbS51C4u0gt4LnO1hgsxwpB4A9epFfPn/DWPjr/AKF/w5/37m/+O17mXfX/ AGX7j4bnNV9lze/uWNF/Zg+Iun3ZkOseF3iYYdRdT5Pv/qa2/wDhnfxx/wBBHQP/AAIl/wDjVc5/ w1j46/6F/wAOf9+5v/jtaWiftR+L9Rd4ZdG0GKUcqEjlww/F69BPNvL8DyMbhMvlerUT07Gj/wAM 7eN/+gj4f/8AAiX/AONUf8M7eN/+gj4f/wDAiX/41Uv/AA0T4v8A+gVo3/fuT/4uj/honxf/ANAr Rv8Av3J/8XV/8K/l+B5P/CL/AHvxIv8Ahnbxv/0EfD//AIES/wDxql/4Z28b/wDQR8P/APgRL/8A Gqk/4aJ8X/8AQK0b/v3J/wDF0f8ADRPi/wD6BWjf9+5P/i6P+Ffy/AP+EX+9+J7B8DPAFz4C8P3d tqUtpPqF3ceZJLbszLsAARcsAePm7d69Crz/AOB/j2fx54eurq/itoL+1uPLkjgyF2EAq2CSefmH 4V6BXzGL9r7aXtvi6n1mC9j7CPsfh6BRRRXOdR59+0NpEOrfCnVWcDzbELdwsezIefzUsPxr44r7 I/aE1aHSvhTqwkYCS8VbWFT/ABM5GfyUMfwr43r7Hh7m+ryvtf8AyPh+JuX6zG29tfxCiiivfPnA rT0O23yG4cfKnC+5qjawNcTrEnfqfQV00MawxLGgwqjArWlC7uefjsRyR5Fux1FFFdJ4gUUUUAFF FFABRRRQAUUUUAFFFFABRRRQB7f+zDpcXl6trDKDKGS2jPdRjcfz+X8q9srxT9mHU4hDq+kMyiUu lyg7sMbT+WF/Ova6/N885vr0+by/I/ZuF+T+zKfJ539bhRRRXkn0Bi+OdLj1nwhqmnSKp822fbns wGVP4EA18f44zX2D431OPR/COqajIygQ2zlc92Iwo/EkCvj7PGK+z4W5vZ1L7XX9fkfm3HXJ7alb 4rO/p0/USiiivqz4IXJArvfgp4QPibxOtzdRk6dYESTEjh3/AIU/qfYe9cZpVhdarqVvp1jEZbid wiKPU/0HUmvrLwF4btvCvhm20qABpFG+eTvJIep/oPYCvBz3MfqtH2cH70vwXc+q4Wyf69ifa1F7 kNX5vov1ZvAADAGAKKKK/Pz9cCiiigAooooAKKKKACiiigAooooAKKKKACud+JHhDS/HXg+98N6s uIblcxyhAzQSDlZFz3B/MEjvXRUVUZOLUlugaufmZ458L6t4N8T3vh/WoDFd2rY4+7Ip+66nupHP /wBesSvvr9or4T23xJ8NieyEcPiGwQmymY4Eg6mJj6Hsex9ia+DNRs7rTr+ewvoJLe6t5DHLE4wy MDgg19zluPji6evxLc8utSdN+RBRRRXpGJ7B+zP8W/8AhXOvy6fq7SyeHdRYfaAuWNtIBgSqvfsG A5IwecAH7j0jUtP1fTodR0u8gvbOZd0U0LhkcexFfl5XQeD/ABt4s8ITmXw1r99puW3NHFJmNz6s hyrfiDXiZjk8cTL2lN2l+DOmjiORWex+l1Y3jLxToXhDQ5tZ8QajDZWsSkjcfmkP91F6sx9BXxJL +0Z8W3tzEPEUCMRgyLYQbv8A0DH6V5z4k8Ra74kvvtuv6ve6ncDIV7mYvtB7DPQewrzaPD9Vy/ey SXkbSxUbe6jpfjb8RL74keNZtZnVoLKJfJsLYtnyoge/+0x5J/DoBXDUUV9TSpRowUIKyRwtubuw ooorQQUUUUAFFFFAHp/7OvxRk+Gfi6SW8SSfRNQCxX8ScsuD8sqjuy5PHcE98V93+Hdb0nxDpEGr aJqEF/YzjMc0LZB9j3BHcHkd6/MGtvwn4u8T+FLprjw5rt/pjtguIJSEkI6bl+634g14mY5RHEv2 kHaX5nTRxDho9j9M6zPE+v6P4Z0afWNd1CGxsYRl5ZWxk9lA6sx7Acmvh8/tG/FsweX/AMJFAGxj zP7Pg3fX7mP0rz3xX4r8S+K7pbrxHrd9qcqklPtEpZUz12r0UewArzKPD9Zy/eSSRvLFxtodf+0F 8TZ/iX4x+2Qo8Gj2IaHToW4baTzI3+02Bx2AA7ZPm9FFfU0KMaEFCC0Rwyk5O7CnwSvDMssTFXU5 BFMorUlpNWZ3ek30d/aCVcBxw6+hq3XCaVfSWF0JU5U8Ov8AeFdvazxXMCzQtuRhkVSZ8fmOBeHn ePwvb/IkooopnnHZfCTxxdeBfFCaggeWxnAivYAfvpn7w/2l6j8RxmvsPw1r2k+I9Ki1PRr2K6tp RkFTyp7qw6gjuDXwVWjoOu6zoN19q0bU7qwlONzQSFd2OxHQj2NeLmWURxT9pB2l+Z7mV5zLBr2c 1eP5eh971V1XUbHSrCW/1K7htLWIZkllcKqj3Jr5JHxv+JHk+WdbhY4+/wDYoQ3/AKDj9K4/xL4o 8Q+JJhLrmr3d+Q25Vlf5FP8AsqPlX8BXlUuHa7l+8kkvLU9qrxNQUf3cW352X6nW/HH4it4512OK y3x6PZEi2U8GVj1kYdvQDsPqa86oor6nD4eGHpqnBaI+QxNeeIqOpUd2wpQCSABknoKStnRrLaBc Sj5j9wHt710Ri5OxxV60aULss6ZaC2hyw/eN9729quZzR2pBXYlZWR87Um6knKW4UUUUEBRRRQAU UUUAFFFFABRRRQAUUUUAFFFFAGz4P1++8M6/b6xZH95EcPGTgSofvKfr+hwa+pvB/inSPE+lpfad dIxx+9iY4eI+jCvkCrOn315p1wLmwu57WccB4ZCjfmK8XNcnhjrTi7SXX/M+kyLiGplbcJLmg+nZ 90faVMuJobeF5p5UijQZZ3bAA9Sa+YLX4seOreARf2wsvGA0ltGW/Pbz+NYPiHxZ4i8QZXV9Xubq MkHyyQseR/sLhf0rwKfDGIcrTkkvK7/Q+srcb4RQvThJy87Jffd/kdt8bfiDH4hmGh6PKTpkD7pZ QcCdx0x/sj9Tz2FeYdfmNNPWl5P0r6/B4SnhKSp09kfnuYY+rj67rVXq/wAF2QDPXtSd6UnsOles fA74fHVbmPxFrMB+wRHNvE4/1zD+Ig9VH6n2HKxuNp4Sk6k/+HKy7LquPrqjTW/4LuzrvgP4GGjW A8Q6nFjUblcQow5hjP8A7Me/oOPWvVKAABgDAFFfmmKxM8TVdWe7P2rAYGlgaEaNNaL8X3Ciiiuc 7AooooAKKKKACiiigAooooAKKKKACiiigAooooAK8L/ab+C0fjeyl8UeHYgniS3i/eRDgXyKAAvs 4A+U9+h7Ee6UVtQrzoTU4PUmcVNWZ+WtzBNbXEltcxSQzROUkjkUqyMDggg8gg9qjr7Z/aN+Bdt4 2ik8R+F4YbbxIgzLFkJHfD0Y9A/ox69D2I+LdQs7vT72ayvraW2uYHKSxSqVZGHUEHpX3OBx9PFw vHfqjzKtJ03qQUUUV3GQUUUUAFFFFABRRRQAUUUUAFFFFABRRRQAUUUUAFFFFABRRRQAVoaJqb6f PzloG++v9R71n0UEVaUasHCaumehwyxzRLLE4dGGQRT64rRdUl0+XacvAx+ZPT3FdjbTxXEKzQuH RuhFUnc+PxuBnhpd49GSUUUUzhCiiigAoorU0zTixE1wuF6qp7/WqjFydkZVq0aUeZhpNhvInmX5 Oqqe/ufatmijNdUYqKsjwK9eVaV2FFFFUYBRRRQAUUUUAFFFFABRRRQAUUUUAFFFFABRRRQAUUUU AFFFFMBQM0D0oHtXpHwm+Gtx4nmTVNXSS30hDkDlXuPYei+p/Aeo5cXi6eFpupUdkduBwFbHVlSo q7f4eb8iP4Q/DybxRepqWpRPFo0Tcnobhgfuj/Z9T+A9vpK2ghtreO3t4kiijUKiKMBQOwpLS2gt LWO1tYUhgiUKiIMBQOwqWvzrMcxqY2pzS0S2XY/YsnyelllHkhrJ7vv/AMAKKKK889cKKKKACiii gAooooAKKKKACiiigAooooAKKKKACiiigAooooAK8o+O/wAFtG+JFqb+2aLTfEUaBY7zb8swHRJQ Oo7A9R7jivV6K1o1p0ZqcHZomUVJWZ+ZfjLwvrvhDXZtE8QafJZXkR+6wysi54dG6Mpx1FYtfpT8 RPA3hvx7oZ0nxHYieNSWhmQ7ZYGIxuRux9uQccg18WfGf4HeKPh7LJfxIdX0Et8l7AvzRD0lT+H6 8r7gnFfX4DN6eItGppL8/Q4KuHcNVseU0UUV7JzBRRRQAUUUUAFFFFABRRRQAUUUUAFFFFABRRRQ AUUUUAFFFFAwq5peoz6fNujO5D95CeD/APXqnRQRUpxqRcZK6Z3unX1vfQ+ZC3I+8p6r9as157bT zW0wlgco47iuq0jXYbrEVzthm7H+Fv8ACqTPl8dlU6V509Y/ijYpVUswVQST0AqW1tprl9sa8d2P QVu2NlFajI+aQ9WP9K1hTcj57EYqFFW3ZW03TRHiW4AL9QvYVp0tJXTGKirI8OrWlVlzSCiiimZB RRRQAUUUUAFFFFABRRRQAUUUUAFFFFABRRRQAUUUUAFFFFAC5/KlUEsFUEknAA71o+HNB1XxDqCW Ok2b3ErdSBhUHqzdAK+hfht8LtL8MhL/AFHy9Q1XGd5X93CfRAf/AEI815eYZrRwUdXeXb+tj3cp yHE5lL3VaHWT2+XdnF/Cv4TSXRj1fxTC0cA+aKxPBf3k9B/s/n6V7rDHHDEsUSBEUYVQOAKdRXwW Nx9bGT56j9F0R+r5bleHy6l7OivV9WFFFFcR6QUUUUAFFFFABRRRQAUUUUAFFFFABRRRQAUUUUAF FFFABRRRQAUUUUAFFFFABSSIkiNHIqujAhlYZBB7GlooA+f/AIvfs06B4hM2qeDZY9D1I5Y2xUm1 mPsBzGfcZHt3r5Q8beDPE/gzUv7P8S6Rc2Ep+47DMcg9VcfK34Gv0vqhr2jaVr2mS6ZrWn22oWUv 34Z4w6n8DXsYPOa1D3Z+8vxOephoy1Wh+YFFfXPxM/ZY0u9M1/4E1I6dOx3fYLxi8B9kfll/Hd9R Xzf45+HvjLwTMU8R6Dd2cW7atxs3wOe2JFyv4Zz7V9PhcxoYj4Za9upxVKM4bnLUUUV3GQUUUUAF FFFABRRRQAUUUUAFFFFABRRRQAUUUUAFFavhnw3r3ibUBYeH9IvdTuMAlLaEtsB4yx6KPc4FfQPw 5/ZV1S7CXfjrVRp0XB+xWLLJN7hpDlV/AN9a5MTjqGHXvyt+ZpCnOeyPnXRdK1PWtRi07SLC4vru U4SGCMux/Advevpj4Rfsul1i1T4i3DIpXcmlWsvOc/8ALWQe2flX1HzcYr6J8E+CfC3guxNn4a0W 109GAEjouZJMf33OWb8TXQ181jM8q1fdpe6u/U7KeGitZanmnjD4O+HNTs0/sKGLRbmKMJGIl/cs B0DL/Uc+ua8O8W+ENd8L3Bj1WxdIyxCXCfNE/wBG7fQ4NfXlRXdtb3ls9tdQRzwuMPHIoZWHuDU4 DPcRhfdl70fPf5M8PNuF8Ljrzh7k+62fqj4qGO9HIr6D8Y/BfSb/AH3OgTnTrgjiFstCx+nVfw49 q8g8U+CPEvhuRzqOnSGBefPh+ePHqSOn44r6/B5vhsVpGVn2ejPzvMOH8dgbucLx7rVf8D5nNUUU V6h4YUUUUAFFFFABRRRQAUUUUwCiiikAUUUUAFFFFABxSjFWNOsrvULpbSytJrqdukcKFmP4CvS/ CHwX1vUSk+uzLpVsRny1AeY/0X9fpXJisdh8Mr1ZW/P7j0cFlWKx0uWjBvz6ffseXwRSzzJDBE8s jnCoilmY+gA616p4D+Depai0d54jZtPtOv2dT++f6noo/M/SvYvCPgvw94XhVdLsEE+3a9zJ80r/ AFbt9BgV0NfJ4/iOpVvGguVd+p97lfBtKjaeLfM+y2+fczvD2h6XoGnrYaTaR20C9Qo5Y+pPUn61 o0UV81KTk7yep9tCEYRUYqyQUUUVJQUUUUAFFFFABRRRQAUUUUAFFFFABRRRQAUUUUAFFFFABRRR QAUUUUAFFFFABRRRQAUUUUAFFFFABUdzBBcwPBcwxzQuMPHIoZWHoQeDUlFAHkvjr9nr4b+KJZrq LTZNEvJB/rdNYRpn1MZBT64AJ9a8Q8X/ALKnjCwBl8N6xp+tRg8Ry/6NN+Gcr/48K+yaK9ChmmJo aRldeeplKhCW6Pza8V/Dvxx4XmePXfC+qWqqcGUQl4fwkXKn865av1OrmvEXgDwT4hlebWvCmj3s 8hy88lonmn/gYG79a9WlxC/+XkPu/r9TCWE7M/Naivu3Xf2bfhXqT77fS77SmP3vsd6+D+Em4D8M VyWp/sl+F5C39m+KdYtR/CJoo5sfkFruhnuFl8V18v8AIyeFmtj4/or6dvP2RdQVj9j8c2sq9vO0 5k/lIaz5P2SvFQb934p0Vl9WSUH+RroWb4N/b/P/ACI+r1Ox85UV9GD9kvxbkZ8UaIB3wkv/AMTV y2/ZH1lj/pPjOwjH/TOzZ/5sKP7Wwf8AP+Yewqdj5nor630z9kfRI8f2l4y1C5Hf7PZpDn82euo0 X9l/4ZWMiverq+qY6pcXexD/AN+wp/WsJZ5hY7Nv5f5lrCze58QVr+H/AAt4k8QTLFoeg6nqLMcD 7NbO4H1IGAPc1+gWifCf4baOyPYeC9HV0OVeWATMD65fJzXaIqooRFCqowABgAVxVeIv+fcPvNI4 Tuz4j8Jfsw/EXVZFbWP7P0K3xkmacSyY9ljyPzYV7P4H/Zh8CaMI5/EEt34hulOSsrGGDP8AuKdx /FiD6V7tRXlV83xVbTmsvLQ3hQhHoU9I0rS9HtBaaRptnp9uOkVrAsSD8FAFXKKK85tvc2CiiikA UUUUAFIyqylWUMD1BGaWigDjfEnwy8H64TJLpv2S4II860byzn1IHyk/UGvNPEPwO1W3Dy6LqcN6 uciOZfLbHpkZBP5V77RXpYbNsXh9Izuuz1PGxvD+Axms6aT7rRnyJrfgvxTozkahol2q9d6J5if9 9LkD8awGBVirAgjqD2r7arJ1jw3oGsNv1PSLK6kxjfJCrMPxxXtUeKJbVYfc/wBH/mfMYrgaL1oV Pk1+q/yPjsUc19O6p8IvBF7uaPTpbNz/ABW87DH4HI/SsC7+BWhuD9m1nUIj23qjj+Qr0qfEmDl8 V18v8rnjVeDMxh8Npej/AM7HgGKK9on+A10D+48SwsPR7Ur/ACc1Tl+BWuKAY9Z09/UbXFdSzzAv /l5+D/yOJ8LZov8Al1+K/wAzyP8ACivW/wDhRWv/APQZ0z8n/wAKni+A+pk/vdfs1H+zCzf1FDzz Ar/l5+f+Qlwxmn/Pp/ev8zx7HvSV7nZfAa2U5vfEUsg9IrYL+pY1s2XwR8KQyK1xc6hdAdVaUKD/ AN8gH9awnxDgo7Sb+T/4B1U+D8ynvFL1a/S586ZqzYafqF++yxsrm5b0hiZz+gr6o074d+CrFQIf D1k5HeZTKf8Ax7NdLbwQ28KwwRJFGowqqMAVwVeKIL+HTb9X/wAOeth+BZ/8vqqXor/nY+aND+Ef jHUnTz7OLTom5L3LgHH+6uTn2OK9D8OfBDQ7TEmtX1xqL944/wB1H+h3H8xXrFFeNiM+xlZW5uVe X+e59Jg+Fcuw2rjzP+9r+Gxn6Nomk6PCsOmafb2iKuP3SBc+59T71oUUV5EpOTvJ3PoYQjBWirIK KKKkoKKKKACiiigAooooAKKKKACiiigAooooAKKKKACiiigAooooAKKKKACiiigAooooAKKKKACi iigAooooAKKKKACiiigAooooAKKKKACiiigAooooAKKKKACiiigAooooAKKKKACiiigAooooAKKK KACiiigAooooAKKKKACiiigAooooAKKKKACiiigAooooAKKKKACiiigAooooAKKKKACiiigAoooo AKKKKACiiigAooooAKKKKACiiigAooooAKKKKAPAvEX7RkWk/GQ+C/8AhHvM0yG9WwuLszYlEpYK XC4xtBPTOSBnjpXvtfn58Rv+TlNV/wCxl/8Aawr9A69PMMNTowpOC3WphRm5N3CiiivMNwooooA8 C8c/tFxeGfi6fCDaB5umW1xHbXl2ZSJQzYy6KARhd3Q8nHavT/i/41i+H/gK+8TvZtevAUjihDbQ zuwVcnsMnJr4q+PP/Jwuv/8AYUT+SV9Qftj/APJDNR/6+7b/ANGCvcrYKjGeHSXxWv57f5nNGrJq Xkan7PXxVb4o6HqNzc6ZHp97p8yxyxxuWRlcEqwyMj7rDHtXIfEb9okeE/iyfCK6Alxp9rNFDeXL SkSZcKSUUDGFDDg9cHpXPfsDf8g3xd/12tP/AEGWvIf2iv8Ak4bXv+v6H/0COtaWAoSxtSk17qWn 4EyqyVNSPv2iiivnjrCiiigAooooAKKKKACiiigAooooAKKKKACsTx74jtvCPg7VPEt3DJPDp8Bl MSEAuegXJ6ZJAz2rbrzz9pP/AJIb4q/68x/6Gta0IKdWMXs2hSdk2cv8AfjxbfEfV7nQdV02HStV CmW1WOUslwg+8BnBDDrjuMnjFe11+X/h/VtQ0HW7LWtKuDb31lMs8EgGdrA5HHQj1B4Ir9EfhD46 0/4h+CLPxBZlI52Hl3luDkwTD7y/TuD3BFerm2XLDNVKa91/gzChW59HudfRRRXinQFZPjLXbfwx 4U1PxDdQyTQ6fbPcPHHjc4UZwM+ta1cT8ef+SNeLf+wXN/6DWlGKnUjF9WhSdk2cf+z18bZPifqu paTe6JHpt3aQ/aYmhmLo8e4KQcgYYEj656DFezV8bfsI/wDJSdb/AOwO3/o6OvsmuvM6EKGIcIKy M6MnKF2FFFFcBqFFFFABRRRQAUUUUAFFFFABRRRQAVR1/V9O0HRrrWNXu4rSxtIzJNNIwAUf1JOA B1JIA60niDWNN0DRrrWNXu4rSytYzJLLIcAADoPUnoAOSeBXw98cvirrnxZ8TQ6LosF1HoiT+XYW EeS9y5OBJIB1Y9h/Dn6k92BwM8VPtFbsyq1VBeZ7f8Pv2kYPFvxVg8Lw+HWh0q+laGzuvNzNkAkM 64xg46A8Z6mvoGvF/wBnT4J2nw/sU1vXUhu/EtxGN3AdLIHqiHu3qw9wOOvtFTjfYe0tQ2X4jp81 veCiiiuM0CiiigAoqG7urazi867uIbePON8rhRn0yamoAKKKKACiiigAooooAKKKKACiiigAoooo AKKKKACiiigAooooAKKKKACiiigD8/PiN/ycpqv/AGMv/tYV+gdfn58Rv+TlNV/7GX/2sK/QOvbz f+HR9P8AI5sPvIKKKK8Q6QooooA/Pz48/wDJwuv/APYUT+SV9Qftj/8AJDNR/wCvu2/9GCvl/wCP P/Jwuv8A/YUT+SV9Qftj/wDJDNR/6+7b/wBGCvp8R/Ewvy/Q4o7TOD/YG/5Bvi7/AK7Wn/oMteQ/ tFf8nDa9/wBf0P8A6BHXr37A3/IN8Xf9drT/ANBlrxz9pSQw/HzxHMBkpdxtj1xEhrbDf8jKr6f5 ET/gxP0Cor5H/wCGuNb/AOhN07/wLf8A+Jo/4a41v/oTdO/8C3/+Jrxv7Gxf8v4o6frFPufXFFfK uhftZX1xrFpb6j4PtltJZVSV4Ltt6qSASAV5I647+or6qrkxOEq4ZpVFa5pCpGewUUVwPxI+MHgT wFJ9m1rVfOv/APnys182Yf7wyAn/AAIjPasadOdR8sFdlNpas76ivlnV/wBrlRcFdJ8EloQeHur/ AAzD/dVCF/M16l+z38XD8UrLVftGkLpl3pzxhlSUyI6ODggkDBBU5HuK6q2XYijD2lSNkZxrQk7J nqlFeC/HH9oR/h943bwvp/htdQkt4o5Lmae4MYy43BUAU54I59SRjjnB8MftaaRPciLxH4Vu7KI/ 8t7K4E+D7qwXj3BP0pwy3EzpqpGN0wdaCdmz6Yorm/Afjrwp440/7Z4a1iC9CjMkOds0X+8h+YfX GD2JrpK45RlB2krM0TT2CiiipGFeeftJ/wDJDfFX/XmP/Q1r0OvPP2k/+SG+Kv8ArzH/AKGtb4X+ PD1X5kz+FnyN8A/h9B8RovFWj5SPUINOWewlY4CTCTAB/wBkgkH657VN8AvH1/8ACn4kzWOtpNBp txL9j1a1YYMLqxAkx6oc59i3tXbfsHf8jv4i/wCwan/owVuftnfDDen/AAsXRbcZULFq8SDr0CT4 9uFb/gJ9TX09bExnip4Wr8MrW9bf18zhjB8imt0fUUMkc0STQyLJG6hkdTkMDyCD3FOr5u/Y0+Jx 1XSz4A1q5X7ZYxb9MZ2AMsI+9EPUp1H+znstfSNfMYnDyw9V05dDuhNTV0FcT8ef+SNeLf8AsFzf +g121cT8ef8AkjXi3/sFzf8AoNLDfxoeq/MJ/Cz5s/YR/wCSk63/ANgdv/R0dfZNfG37CP8AyUnW /wDsDt/6Ojr1747/AB3X4a+K7HQLfw+dTkkgW4uHe48oKhYgBODk/KeT044NermdCpXxrhTV3Zfk YUJKNJNntdFU9C1GDWNEsNWtgwgvbaO5jDdQrqGGfwNXK8VqzsdIUV4x8f8A44/8Kw1/TtEttAGp 3F1bfapXkuPKVIy7KAMKcklW+nHBzx6WfE1mPAJ8Y+VJ9j/sv+09n8Xl+V5uPritZYepGEZtaS2J U0212Nyivk6P9rrUPPy/gi1aLd90agQSPrs6/hXf+B/2nPAWuSw2utQ3nh66kIUmcCWAE9P3i8ge 7KAPWuqrleKpq7h92pCrwfU9yorN1HW9PtPDN34hSeO6sLa0kuzJA4dXRFLEqRweAa+YR+1zf/ai 3/CEW32ffwn9oEPt9N2zr+FY4fBVsTf2avYqdSMNz6worwvwP+094D1uWK11u3vfD1zIwXdNia3B PT94vI+pUAete3WV3a31pHd2VzDc28q7o5YXDo49QRwRWdbD1aDtUjYcZxlsyaiiisSjyT9p/wCH /iT4heD7DT/DdzCJbW78+S2ml2JMNpA56ZGTjPHJqt+zt8FLL4d2Y1nWRBe+J51IaVfmjtEP8EZI 6kfeb8BxnPsFzPDbQPcXE0cMMY3PJIwVVHqSeAK8Z8eftJ/D/wAOT3FlprXXiC8hOwfYwBblvQzH gj3UNXfRnia1L6vSV15fqzKShGXOz2qivk6f9rnUTKTB4ItVjzwHv2Y4+uwV9L+BfEVt4t8H6X4k s4ZIYdQt1mEUn3kJ6qfXBBGfas8Rgq+GSlUja5UKkZ7G1RRXMfEDx94U8Cad9s8SatDalhmKAHdN L/uoOSPfoO5Fc0ISm+WKuym0tWdPRXzL4m/a10uG5aLw54SuryEf8t725WE5/wBxQ3HvuH0ro/gX +0C/xD8ZnwzqHh1NOllgeW3lgnaRSV5KsCoxxnn1GO9dk8txMKbqSjZIzVaDdkyx+1R8L/FnxFt9 Ffw1dwMli0gms55zGrFtuJB2JABHPY8d69L+F2haj4Z+HuiaBq179tvbG1WGWYMWBI6AE84UYUZ7 AVxX7QfxjX4Wrpdvb6N/ad7qG9wry+XHHGmASSASSSwwMetd38PfE9r4z8F6X4ns4Xgiv4fM8pzk xsCVZcjrhgRnvjNKq6/1aCkvcvoEeXndtzeoornPHXjjwt4I077d4l1i3sVIJjiJ3Syn0RB8zfgM DviuSMZTdoq7NG7bnR0V80eJv2tNHguGi8OeFLy+jA4nvLlYMn2RQ2R9WB9q2vgl+0NL4/8AHUPh a/8ADUWntdRyPbzQ3RkwUUsVYFR1Ctg8dBxzx2Sy3ExpupKNkjNVoN2TPfaK8u/aD+LP/CrNM0uS HR/7Tu9SkkWJXm8tEWMKWJIByfmAA47ntg9b8MPFcXjfwHpXimK1a1F/EWaEtu2MrsjAHuNynB7j Fc7oVI01Va91l8y5uXqdJRRXl/7QfxX/AOFW6Tpc8OkjUrvUZnSON5TGiqgBYkgHn5lAHufSppUp VpqEFdscpKKuz1CiuW+FPjCHx54D07xPDaPafalYPCzbtjqxVgD3GQcH0rqamcHCTjLdAndXQUVg +NPGHhrwbph1HxJq9vp8P8Ac5eQ+iIPmY+wFeFeKf2stBtpmi8N+GL3UVHHn3cwt1/BQGJH1xW9D B18R/DjcmVSMd2fSdFfOnwn/AGlJfF/jzTvDWpeGIrGPUHMUU8FyZCj7SRkFRkHGPbNfRdTiMNUw 8uSorMcJqaugooorAoKKKKACiiigAooooA/Pz4jf8nKar/2Mv/tYV+gdfn58Rv8Ak5TVf+xl/wDa wr9A69vN/wCHR9P8jmw+8gooorxDpCiiigD8/Pjz/wAnC6//ANhRP5JX1B+2P/yQzUf+vu2/9GCv l/48/wDJwuv/APYUT+SV9Qftj/8AJDNR/wCvu2/9GCvp8R/Ewvy/Q4o7TOD/AGBv+Qb4u/67Wn/o MteP/tHIsn7QfiBHGVa8iBHqPLjr2D9gb/kG+Lv+u1p/6DLXkP7RX/Jw2vf9f0P/AKBHW1D/AJGV b0/yIl/BifXP/CkPhT/0Jen/APfUn/xVH/CkPhT/ANCXp/8A31J/8VXolFfM/Wq/87+9ndyR7HCa Z8Hvhlpt/Df2fg3TY7iBw8TsGfaw6HDEjNd3RVPXdRt9H0S/1e7O23sbaS5lPoiKWP6A1nKc6j95 3Y0ktjwz9qr4yzeD4B4R8MXBTXbiPfdXKHmzjI4A9JG6j0HPcV4j8Gvgh4m+Jjf29qN2+maNLIWa +mUyS3Tbju2AnnnOWPGfXBFY/gDSL/4x/G5V1OUkajdSXuoPyNkKncVHpxhB6ZFff2n2drp9hBYW MEdva28axxRIMKigYAFe/XrLLKSo0vjerZyxj7Z8z2PJtE/Zu+FOnIBcaRe6o4/jvL6TP5RlF/Sv RfCHhPw34RsHsfDWj2umQSPvkWFeXb1YnJP4mtuivDqYmrV+OTfzOmMIx2RyfjL4b+B/GN4l74k8 OWl/dIgjEzFkfbnONykEivOfFf7MHw61O2l/sX+0NBuSv7torhp4lP8AtLISSPYMK9yoqqWLr0vg m18xOEZbo/Pvxp4Q8dfA/wAa2d6l00Lht9jqVqSYZwMEqQfw3I36jmvsH4CfEu0+Jfg1b8osGrWe 2HUoB0EmOJFHXY+CRnpgjnGTu/FDwdp3jvwVf+HNRVQJ03W8pHMMwB2OPoevqCR3r40/Zs13UvAn x1tNIvYng+23LaNfwN1Vy+1fxEgX8M+tew5LMsLKT/iQ/FHOl7GdujPvGiiivnzrCvPP2k/+SG+K v+vMf+hrXodeeftJ/wDJDfFX/XmP/Q1rfC/x4eq/Mmfws8C/YO/5HfxF/wBg1P8A0YK+ur61t76y nsruFZra4jaKaNhw6MMMD7EEivkX9g7/AJHfxF/2DU/9GCvsCu7Of98l8vyMsP8Awz4A+L3g/WPg 58VI5tImmht1lF7o91nJ2BuEJ7lfukdxjsa+z/hB470/4h+CLTX7MxxzkeXeWytk28w+8p9u49QR VP45/Dy0+I/ga40lgkepQAzadOxI8uYDocfwsPlPpnPUCvkb4B+PdQ+FHxJlsNaSe3024l+x6tbP wYXUkCTHqhzn1BPtXW7Zlhr/APLyH4/1+Zn/AAankz71rifjz/yRrxb/ANgub/0Gu0hljmhSaGRJ I5FDI6HKsDyCCOori/jz/wAka8W/9gub/wBBrxcN/Gh6r8zpn8LPmz9hH/kpOt/9gdv/AEdHWd+2 7/yWGD/sEwf+hyVo/sI/8lJ1v/sDt/6OjrO/bd/5LDB/2CYP/Q5K+mj/AMjWXocX/Lg+t/hf/wAk z8Lf9ga0/wDRKV0dc58L/wDkmfhb/sDWn/olK6Ovlqnxs7o7Hxl+3X/yVTSP+wJH/wCj5q+gz/ya 9/3JX/tlXz5+3X/yVTSP+wJH/wCj5q+gz/ya9/3JX/tlXsYj/dMP6s54fHM+Wf2VPBPhvx5451TS PE1i13axaU88arM8ZSQTRKGypGeGPByOa9M+J37K9sljJqHgHU7gzxqWOn3xDCQ/7EgA2n2YHJ7i uW/YU/5Klq//AGBJP/R0FfZta5ljq+HxXuS0stOgqNKMqeqPz38D/EfxR8P7HXvB18k8mmXtrcWV zp9xkG1lZGXfGD90hjyOhHvgjQ/Ze8HeHvHHxDuNF8SWb3dmNOkmVUmeMq4dAGypB6E8HivWP22/ h/b/AGC2+IOmwBJ1kW11Pb0ZTxHIR6g/KT7r6Vw/7EP/ACWC6/7BM3/ocdej7eFTBzr0tG1rbujB xaqqLO3+Jn7K1p9ie98AanOLlASbC/dWWT/ckAG09sNkH1FeX/BX4peI/hJ4sbQtcS7/ALFFwYtS 02VTvgfJBeMMflYHkjow/Aj7xr5k/bb8AQzaVbfEHTrci4gdbbUio4aM8RyN7hsLn/aX0ry8Fjvr H+zYnVPZ9mdFSly+9A+lNPu7bULC3v7KZJ7a5iWaGVejowBVh7EEGpZHSONpJHVEQFmZjgADqSa8 D/Yk8VXGs/D6/wDD1029tDnUQt/0xl3Mo/Blf8MVsftfeMJfDPwql0+0kaO71yX7GrqcFYsZlP4j Cf8AA686WCmsV9X63saqouTnPAv2h/jBq3xC8Qy+G/Dc048ORzeVBFbg79QfOA7AckE/dT6EjPTt fhX+y0bqzi1Lx/fz2pkXcum2bASJn/npIcjP+yo/HtVf9iPwFa6hfX3jvUYVlFhJ9lsFZcgS7QXk +oDKB/vH0FfW1enjcb9U/wBmw2iW76mFKn7T35nwv+1Z4C8NeAPE2i6f4YspLaC4sGlm8y4eQuwc jJ3E449MCvqb9m//AJId4V/68/8A2dq8A/bx/wCR58Pf9gxv/RrV7/8As3/8kO8K/wDXn/7O1LGz lUy+lKTu7/5jpJKrJIr/ALQfxPt/hp4Q+0QBJtavt0Wnwt0DAcyN/srkcdyQO5I+RfAfgnxz8bPF 95eyXbykvvv9UuyTHFnooA6n0RcAD0FWvj1rl/8AEX463dlYhpVju10jTowc5CvsyP8Aecsfx9q+ 2fh14S0zwP4PsPDelKPJtU/eSlQrTyH70jY7k/kMDoBVcyy3DxcV+8l+Are2n5I8x8LfsxfDfS7e L+149Q1y4C/vHmuWhjZvULGQQPYsfqa9G8FfDzwX4MuZbnwz4ftdOnlj8qSVCzOyZzt3MScZA49h 6V1NFePVxder8c2/mdEYRjsj5K/b2/5D/hX/AK9bj/0Ja9q/Zc/5IL4X/wCuM3/o+SvFf29v+Q/4 V/69bj/0Ja9q/Zc/5IL4X/64zf8Ao+SvUxX/ACLaXr/mYU/40iz8ePiVZ/DTwa2oFEuNVuy0Om2x PDSY5dh12LkE49QOM5Hx74N8J+O/jj42u7xrpp5C2++1G7JENspyQoA/Hai/oMmtT9pnxBqPjn44 XekWatMmnzjSbGBf4nDbX/EykjPoB6V9kfCzwZp/gLwRYeHNPVSYUD3Mo/5bTkDe5+pHHoAB2rSM lluFjJfxJ/ghNe2nbojzPwz+y98PdOsUXV5NR1u82fPLJO0MZb1VIyCB7Fj9a8A/ZLAX9oHRFHAC 3YH/AIDyV9518G/sm/8AJwei/wC7d/8ApPJRgsRVrYev7SV9P8x1IRjONken/t9/8e3g3/fvf5QV 6p+yr/yQLwx/uXH/AKUy15X+33/x7eDf9+9/lBXqn7Kv/JAvDH+5cf8ApTLWFb/kWU/8T/Ucf48v 67Hp9fL37fX/AB4+D/8Arpefyhr6hr5e/b6/48fB/wD10vP5Q1hlH++Q+f5Muv8Aw2ekfsjf8kH0 T/rpcf8Ao566T4zfEHTvhx4Mm1u7VZ7tz5Nja7sGeU9B7KOpPp7kVzf7I3/JB9E/66XH/o56+d/2 wPFk/ib4tNoVpOZbLRUFpFEucNcNgykf7Wdqf8AreGF+s4+cZbJtsl1OSkmcxo2k+P8A46eP5ZWm e8uWIa4uZSVt7KIngD+6OuFHJ568mvo/wd+y54D020iPiKe+128ABl/em3gJ9FVDuA+rGvQvgl4E tPh94AsNFjhiF+6CbUZlHMs5Hzc9wv3R7D3NdvU4zNakpclF8sVtYKdBJXlqz8/PgvBFa/tF6Jaw J5cMOtNHGuScKCwAyeelfoHXwD8Iv+TltJ/7Dsn/AKE9ff1aZ5/Fh6CwvwsKKKK8Q6QooooAKKKK ACiiigD8/PiN/wAnKar/ANjL/wC1hX6B18FftQWDeHf2gNVurdNqTyQ6hFnuWRWY/wDfatX3N4c1 a017QLDW7Bt1rfW6XER/2WAI/nXuZr71ChJbW/yOahpKSL9FFFeGdIUUUjsqIzuwVVGWYnAA9aAP z9+O/P7Q2v45/wCJog4+iV9Qftj/APJDNR/6+7b/ANGCvmDR5o/iB+0rb3cSO1rqfiITqO/kCbd/ 6AtfT/7Y/wDyQzUf+vu2/wDRgr6fFXjXw0Hurfp/kcMNYzZwf7A3/IN8Xf8AXa0/9BlryH9or/k4 bXv+v6H/ANAjr179gb/kG+Lv+u1p/wCgy15n+2Fo02k/G6+vGULDqltBdwkH0URn8d8Z/MVrQkv7 Uqruv8gl/AR910Vi+A9bj8SeC9G16KRHF9ZxTMV6Byo3D8GyPwrar5SScW0zuTuFebftPXL2nwI8 UyxkgtbxxnHo80aH9GNek15h+1X/AMkC8T/7lv8A+lMVb4X+PD1X5kz+Fnjf7BWlQya34p1xj++t raC0jH+zKzM3/olP1r6zr5c/YE/49fGX+/Zfynr6jrqzdt4yfy/JGeH/AIaCiiivNNgqDUL2z06y lvdQu4LS1hG6WaeQIiD1LHgD61Br+rWGhaLd6xqlwtvZWcRlmkboqivhL4o/ELxh8ZvGUWk6ZDdv YyT7dM0iA8EjOHcdDJjJJPCjPQZNd2CwM8U272it2ZVKqh6n0H4y/ai8C6RM1vodpf6/IrYMkY8m H8GYZP8A3zj3r5O8f+Kf+Ek+IOpeLbCzbS3u7oXSQiTeY3AGTuwMncCenevo74d/sp6bHZJdeOdX uJ7tsN9j09gkcfszkEsfpj6nrXh/7RfhjRvB/wAV9S0HQLY22n28UBSMyM5BaJWY5Yk8kk17+XPB QquFC7dt/wCv8jlre0cbyP0D0y4+16bbXeAPOhSTA7bgD/WrFZ/hn/kW9M/684v/AEAVoV8pJWbO 5bBXnn7Sf/JDfFX/AF5j/wBDWvQ688/aT/5Ib4q/68x/6Gta4X+PD1X5in8LPAv2Dv8Akd/EX/YN T/0YK+wK+P8A9g7/AJHfxF/2DU/9GCvsCu3Of98l8vyMsP8AAgr5b/bN+F+9P+Fi6JbDcu2PVo41 OSOiz/hwrfgfU19SVDfWtvfWU9leQpNbXEbRTRuMq6MMMp9iCRXJhMTLDVVUiaVIKcbM+dP2Nfif /aul/wDCv9auSb6yQvpju3MsA5aPnunbr8vstet/Hn/kjXi3/sFzf+g18b/F3wfrPwb+KcU+kzTw Wwl+2aPdjJJQHhCe5XO1h3BBPDV9Ma147sPiH+zF4h1+z8uO4bSpY722Vsm3mC/Mv07g9wRXqYvD R9tDEUvhk195hTm+Vxe6PHP2Ef8AkpOt/wDYHb/0dHWd+27/AMlhg/7BMH/oclaP7CP/ACUnW/8A sDt/6Ojpf26tMmt/iJo2reWwt7zTPKV+zSRyMWH4K6fnXcmlm3y/Qz/5cH1L8L/+SZ+Fv+wNaf8A olK6OuE/Z91hNc+DHha8UqWj09LV8HPzQ/ujn3OzP413dfM1ouNSSfdnZHZHxl+3X/yVTSP+wJH/ AOj5q+gz/wAmvf8Aclf+2VfPn7df/JVNI/7Akf8A6Pmr6DP/ACa9/wByV/7ZV62I/wB0w/qzCHxz Pnz9hT/kqWr/APYEk/8AR0FfZtfGX7Cn/JUtX/7Akn/o6Cvs2sc6/wB7fovyKw/8NHF/HXS49Y+D viuyk6DS5p14/jiXzF/8eQV8t/sQ/wDJYLr/ALBM3/ocdfWvxR/5Jl4p/wCwNef+iXr5K/Yh/wCS wXX/AGCZv/Q462wEn9Sromr/ABIn2xXHfG7Tk1X4QeLLNxnOlTyqPVo0Lr+qiuxrnvib/wAk28T/ APYHu/8A0S9eRRbVSLXdHRLZnyX+w9ey2/xbvbMOfKutJlDKehZZIyD+Hzfma3f29NTeTxJ4Z0bO Et7OW5+pkcL/AO0v1rl/2Kf+S0/9wy4/mldB+3jpskXjXw9rBT93caa1sG945SxH/kUV9RNR/taN +36M4l/AZkfCz9oqXwF4GsPC9p4Nt7pLQSFrg3xQyszsxJHln1x1PAFdP/w11ff9CLbf+DI//G67 L4E/Cr4ZeKPhJ4e1zUPCtpdXlxbsJ5jLIC8iSMjE4fHVa7f/AIUX8J/+hMs/+/0v/wAXXHXxOX+1 lz03e7v6/eXGFXlVmfHfxy+J0vxR1yw1SXRo9LaztjbhEuPN3ZYtnO1cda+vvgZeHTP2dNC1AruN rpMk+099u9v6VMPgZ8JwQf8AhDLLj/prL/8AF11Pii1trD4fapZWcEcFrb6VNFDEgwqIsRCqB2AA ArnxmNo16cKNKLST6l06Uotykz4l/ZVtP7U+PehyXP7zy2nunLHJLCJyD9dxBr74r4T/AGOf+S56 d/163P8A6KNfdlVnv+8peS/UMN8AUUUV4p0HyV+3t/yH/Cv/AF63H/oS17L+zTMLb9nvw7cFdwit Z3Iz1xNKa8a/b2/5D/hX/r1uP/Qlr1/9nf8A5Nu0T/rxuf8A0bLXu4hXy6l6/wCZyw/iyPlf9m6z /t79oLQHu3Ln7XNeyM3JLpG8gP8A30BX39Xwb+yN/wAl90X/AK53X/pO9feVRnr/AH8V5fqx4X4A r4N/ZN/5OD0X/du//SeSvvKvg39k3/k4PRf927/9J5KMs/3fEen6Mdb44Hp/7ff/AB7eDf8Afvf5 QV6p+yr/AMkC8Mf7lx/6Uy15z+3pYSyeGPDGpqhMVveTQM3oZEVh/wCij+VdT+xfrsep/BqLS8AS 6PezW5Hcq7ecpP8A38I/4DRVXNlcGukv8xR/js9sr5e/b6/48fB//XS8/lDX1DXy9+31/wAePg// AK6Xn8oa5sp/3yHz/Jl1/wCGz0j9kb/kg+if9dLj/wBHPXxtc+I0tvi3N4rubRdRWLWnvzA8mFmx MXCs2DweOxr7J/ZG/wCSD6J/10uP/Rz18k+BdK0iP472Wg+JrZLnTzrLWVzFIxCsS7RrkjH8RU16 +AcViMQ5ef6nPU+GB6//AMNdX3/Qi23/AIMj/wDG6P8Ahrq+/wChFtv/AAZH/wCN17T/AMKL+E// AEJln/3+l/8Ai6P+FF/Cf/oTLP8A7/S//F1xfWst/wCfT+//AIJryVv5j4++Bdyb/wDaB8PXvl7D casZigOdu7ccZ9s1+hFcb4V+Fvw/8L6xHq+g+F7Oyv4gwjnBd2TIKnbuJxkEjjsTXZVy5ljIYuop QVklYujTdONmFFFFecbBRRRQAUUUUAFFFFAHzl+234Fl1Xw9Y+NtPg8yfSlMF7tHzG3Y5VvorE59 nJ7Vm/scfFS1bT0+HevXaxTxMTpEkjACRScmDP8AeBOV9QSOwz9N3dvDd2strcxLLBMhjkjYZDKR gg+xFfG3xz/Z21rw3ez674Ht5tU0ZiZGtIwWuLPvgDrIvoR8w7g4yfawdaliKH1Ws7dmc1SMoy54 n2bRXwn4K/aI+JHhSBNOu57fWYITt2alGxlUf3d4Ib/vrOK9Bi/a8mFuBL4BjaXby66sQufp5R/n Wc8lxUXaKv8AMpYiDPquvB/2s/iraeGPC9x4P0i7D6/qcflziNubW3YfMSezMOAOuCTx8ufF/GP7 TPxD12CW00tbHQoZRtDWiFpwD/tsTg+4ANR/Bz4GeK/iDq6a34mW803Q5JPOnurnP2i8yckRhuef 7545yM9K6KGWLDP22KaSXTuRKtz+7A6/9iDwNLPrN749vYMW9rG1rp5ZfvSt/rHX6L8uf9ojtXqX 7Y//ACQzUf8Ar7tv/Rgr1bQtJ07QtHtNH0i0jtLC0iEUEMfRFH15J7knknJOTXlX7Y3/ACQzUf8A r7tv/RgrmWKeJx0aj7r7i3DkpNHBfsDf8g3xd/12tP8A0GWui/bQ8CS+IPBNv4q0+F5L3Qy3nKvJ a2bG4477SAfoWrnv2Bwf7L8XHHBntef+Ay19OSxpLG0UqK6OCrKwyGB6gj0q8dXlQzCVSPS35IVO PNSSZ8n/ALHXxVstMi/4V9r9wlvHLMZNMuJGwoZuWiYngAnlfUkjuK+sq+QPjz+zpq2m6jc+IPAF m9/psjGWTTohme2OckRr/GnoB8w6YPWuN8E/H74k+DLddKnuIdUggO0QapEzSRj+7vBDfmTiujEY KGO/f4Zq73XmRGq6XuzPvGvMP2q/+SBeJ/8Act//AEpiry/w5+1pDc6hZ2mr+CmgilkVJrm21Dft BONyxmMZ+m6vUP2qv+SBeJ/9y3/9KYq8+GFq4fE01VVrtfmbc8Zwdjyv9gT/AI9fGX+/Zfynr6jr 5d/YFH+ieMT232X8pq+oqebf75P5fkgofw0FFFFecanzV+3N4wlstD0rwXaXDxtqBN3eqpxuiQ4j U+xfJ+qCtD9i/wCH9vpXhF/HF/BG+o6qWS0YjmG2U4OPQswJPsF968b/AGyr17r44Xlu2dtnZ20K /Qpv/m5rsPCv7U1v4f8ADOmaFa/D7dDp9pHbI39sY3BFC5/1HU4zX0rwtZ5fCnQV+bV7HHzxVVuR 9c18G/tff8l51n/rja/+iEr0v/hr4f8ARPf/ACs//aK8G+MHjX/hYPjy88U/2b/Zv2pIk+zef5u3 ZGF+9tXOcZ6UZTgMRh67nUjZW7ryCvVhONkz9EPDP/It6Z/15xf+gCtCs/w1x4c0wHr9ki/9AFaF fOT+JnWtgrzz9pP/AJIb4q/68x/6Gteh155+0l/yQ3xV/wBeY/8AQ1rXC/x4eq/MU/hZ4F+wd/yO /iL/ALBqf+jBX2BXx/8AsHA/8Jv4hPb+zU/9GCvsCu3Of97l8vyMsP8AAFFFFeWbnB/HP4e2nxG8 C3OksEj1GDM+nTsB+7mA4Un+633T+B6gV8O+G/E+u+Bo/E/hi5gmjh1O0l0+/s5cqY5QCFfH95Tk fQn2r9Hq+W/2zvhfvj/4WNolsu5QsWrRRryR0Wf8OFP/AAE+te3lGLipewq/C9vU5sRTuuZHNfsI /wDJSdb/AOwO3/o6OvbP2q/AM/jf4bPcadG0mqaMzXltEq5aZMYkjHfJXkY6lQO9eKfsJA/8LJ1s 9v7Hb/0dHX2RU5nVlRx/PHdWCjFSpWZ8VfsofFu18E6lP4W8RzGLRdQmEkVwx+W1nOFy3ojADJ7E A9CTX2nDJHNCk0MiSRuoZHQ5VgeQQR1FfNX7QH7OjaveXPifwEkUV3KTJdaWSEWVu7RHopPJKng9 iOh8T8MfEX4pfCi8fRluL2zjiOG03UoS0a/7qtyo5zlSAfeuithaWY/vqErS6pkxm6Puy2O2/br/ AOSqaR/2BI//AEfNX0Gf+TXv+5K/9sq+L/i98RdU+JevWetavY2dpc21ktpi13BHw7NuwxJH3+mT 0r7RIP8Awy+R3/4Qr/2ypY6lKjh6EJ7phSkpSk0fPf7Cn/JUtX/7Akn/AKOgr7Nr4y/YU/5KlrH/ AGBH/wDR8NfZtcmdf72/RfkaYf8Aho5z4o/8ky8U/wDYGvP/AES9fJX7EP8AyWC6/wCwTN/6HHX1 r8Uf+SZ+Kf8AsDXf/ol6+Sv2If8AksF1/wBgmb/0OOtcB/udcmr/ABIn2xXPfE3/AJJt4n/7A93/ AOiXroa574mZPw38Tgdf7Hu//RL15FP4kdD2PkD9in/ktP8A3DLj+aV7z+174Kn8V/DE6lYRtJf6 HIbtEUZLxEYlA9wMP/wAjvXg37FP/Jaf+4ZcfzSvt9lDKVYAqRggjg17ea1nRx0akeiRzUI81KzP kD9jn4oWXh+7n8D69dJbWV9N51jPIcJHOQA0ZY8ANgEe4/2q+wK+Sfj9+zpf219c+Jfh/aG6s5WM k+lR/wCtiY5JMQ/iX/ZHzDtkcDgPBfx1+J3gWMaRNdC/gt/3a2mrws7RYGNu7IkGMYwTgelXicHD H/v8M9XugjUdL3Zn3rWP43/5EvXP+wdcf+i2r5q079rq6SBF1HwLDNN/G9vqRjX8FMbfzr33/hIL TxZ8H7nxFYxyRwaho80yRuPmTMbZU+4OR+FeXVwVfDSTqxtqbRqRmtD5D/Y5/wCS56d/163P/oo1 92V8J/scg/8AC89N9rS4/wDRZr7srsz3/eV6Izw3wBRRRXjHQfJX7e3/ACH/AAr/ANetx/6Etev/ ALO//Jt2if8AXjc/+jZa8g/b2/5D/hX/AK9bj/0Ja9h/ZzGf2ctCUjrZXHH/AG1lr3a//Ivo+v8A mcsP4sj5h/ZG/wCS+6L/ANc7r/0nevvKvzf+FPjJvh/8Q7HxUun/ANoCz81Ta+d5XmB42T721sY3 A9O2K95/4a+H/RPf/Kz/APaK6M1wGIxFZSpxurLqvMmhVhCNmz6nr4N/ZN/5OD0X/du//SeSvS/+ Gvf+qef+Vr/7RXmX7JT7v2gNCY8blu8D/t2kNThMHXw2Gr+1ja68uzHUqRlONj7D+M3g5fHfw41X w6Ni3MsYltHbos6Hcn0BI2k+jGvjr4A/EO8+Evj66tNctrmPTrlvsuqWzKRJA6k4k2dd6kkEehPt X3tXh37Q3wItPHjv4h8OtBYeIguJQ/EV4AON2Oj9AG9OD2I4suxVOMZUK/wS/Bl1qbbU47o9l0XV NO1rTYdS0m9gvbOYbo5oXDKw9jXzV+31/wAePg//AK6Xn8oa8Y03Wfir8GNYa1H9p6GWO5ra5j32 0/bIByjdD8ynPvUfxc+LWv8AxM0/SLfXrKwhl0xpmWS1VlEm8J1DE4xs7etehg8qnRxMakGpQ11+ RlUrqUHF7n1n+yN/yQfRP+ulx/6OevnX9rfwddeE/ivJ4hs43jsdab7bDKvRLgEeYufXdh/+Be1f RX7I/wDyQfRP+ulx/wCjnrs/iV4J0Tx94Wn0DW4SY3+eGZAPMgkHR0J6Ht7gkVwwxf1XHTk9m2ma unz0kjC+BPxN034keEYblZo49atUVNStcjcr4/1ijujdQe2cdRXodfAfjb4dfEf4PeIBqlm95Hbx HEGsaazCMgj7rEcp3yrcHHcV1Xhv9qjx7YhY9Y0/SNYQfecxGGVvfKnb/wCO1pWyh1H7TDNOLJji Le7Pc+0qK8A+F37S1n4z8a2Hhm68JTaW9+/lxTpfi4AbaSAw2LgHGM817/Xk18PUoS5aiszojNSV 0FFFFYlBRRRQAUUUUAFFFFABRRRQBzPirwB4K8UyGXX/AAxpl/MRjzngAl/77GG/WuaPwF+EhOf+ ENtv/Amf/wCLr0uito4irBWjJr5slwi90cj4a+GfgDw3cLc6N4S0q2uF+7MYfMkX6M+SPwNddRRW cpym7ydxpJbBVHX9H0vX9HudH1mxgvrC6TZNBMuVYZyPoQQCCOQQCMEVeoqU7DMPwZ4S8OeDtMfT fDOlQ6daySGV0jLNubAGSWJJ4A71uUUU5ScndgFc94q8EeEPFPzeIfDemajJjAlmt1MoHoHHzD8D XQ0U4ycXeLsJq557p3wT+Fun6lBqFp4Ps0uIJBLEzSyuqsDkHazFTz6iu21zStO1vSbnSdWtIryx uk2TQSDKuvoauUVU61SbTlJtrzBJLYwPBXg3wz4LsZrLwxpMWmwTv5kqozMXbGMksST+db9FFRKT k7tjSsFFFFIDjvGPww8B+L9UGqeI/Dlvf3oQR+cZJEYqOgO1hn8axf8AhQvwk/6E23/8Cp//AIuv S6K2jia0VaM2l6slwi90eaf8KF+En/Qm2/8A4FT/APxdSWvwL+E9vcRzx+DLMvGwZRJNM65HqrOQ R7EYr0ein9ar/wA7+9hyR7BRRRWBQVX1KytNS0+40+/t47m0uI2imhkXKupGCCPSrFFAHOeCPAvh PwVHcp4X0SDTRdEGcozMz4zgEsScDJ46c10dFFVKTk7ydwSsFFFFSAVDf2lrf2U1le28VzbToY5Y pFDK6kYIIPUVNRQBzXgnwH4Q8FG6PhfQ7fTWuseeyMzM+M4GWJOBk8DiulooqpScneTuJK2wVQ1v RdH1y1FrrWk2Gp24ORFd26TJn6MCKv0Uk7bDPOZfgb8KJJ/ObwZZBs5wssqr/wB8hsfpXoH2W1+x fYvs0P2Xy/K8jYPL2Yxt29MY4x0xU1FXOrUn8UmxKKWyOX8FfD7wb4MuLm48MaDb6dNdDbM6M7Mw znGWJwM9hxXUUUVMpSk7ydwSS2GyxpLE0UqK8bqVZWGQwPUEdxXM+C/h94M8G3V1deGfD9rp090N s0qFmYrnO0FiSq57DA4HoK6iihSaVk9B2CkdVdGR1DKwwQRkEelLRUgcv4N+HvgvwdfXV94a8PWm nXV0uyWVNzMVznaCxO1c4+UYHA44GOoooqpSlJ3k7iStsFYnibwl4X8TReX4g8P6bqfGA1zbK7r9 GIyPwNbdFKMnF3THa55s/wACPhK77z4NtQfa4mA/IPXoWnWVpp1hb2Fjbx29rbxrFDFGMKiKMAAe gFT0VdStUqfHJv1YlFLZHLeEPh34K8I6rdar4c8P2unXl0hjlliLElCQxUAkhRkDgYHA9K6miipl KUneTuCSWwUUUVIzn/G3grwr41tbe28UaLbalHbOXhMmVaMnrhlIYA4GRnBwM9BWvpVhZaVpttpu nW0drZ20axQwxjCooGABVmiq5m1a+gWPOr/4H/Cq+vZry48G2fnTOXfy5pY1yTk4VXCj6ACof+FC /CT/AKE23/8AAqf/AOLr0uitViq62m/vZPJHseYz/AX4T+Q/l+DbfftO3/Sp+uP9+vlr9ksBf2gd EUcALdgf+A8lfedfBv7Jv/Jwei/7t3/6TyV6+Ar1KmGrqcm9Or8mc9WKU42PvKiiivBOor6jY2Wp Wj2mo2dveWz/AH4Z4hIjfVSCDXCXvwR+FN5KZZfBenqxOcQtJEPyRgK9DorSFapT+CTXoxOKe5S0 LSdN0LSLbSNIs4rKwtU2QwRDCoM5wPxJq7RRUN31YxGAZSrAEEYIPeuL174T/DfXLg3GpeDdIeZj lpIofJZj6sY8En3NdrRTjOUNYuwmk9zifCvwm+HfhfWItY0LwvaWl/CCIp98kjJkEEjexwcEjI55 rtqKKc6kpu8nd+YJJbBRRRUDCiiigAooooAKKKKACiiigAooooAKKKKACiiigAooooAKKKKACiii gAooooAKKKKACiiigAooooAKKKKACiiigAooooAKKKKACiiigAooooAKKKKACiiigAooooAKKKKA CiiigAooooAKKKKACiiigAooooAKKKKACiiigAooooAK+Df2Tf8Ak4PRf927/wDSeSvvKuR8M/DT wN4b8TXXiTRPD1tZ6nc798yMxChzlgiE7Uyf7oHHHTiu/CYxUKVWDXxK35mU6fNJPsddRRRXAahR RRQAUUUUAFFFFABRRRQAUUUUAFFFFABRRRQAUUUUAFFFFABRRRQAUUUUAFFFFABRRRQAUUUUAFFF FABRRRQAUUUUAFFFFABRRRQAUUUUAFFFFABRRRQAUUUUAFFFFABRRRQAUUUUAFFFFABRRRQAUUUU AFFFFABRRRQAUUUUAFFFFABRRRQAUUUUAFFFFABRRRQAUUUUAFFFFABRRRQAUUUUAFFFFABRRRQA UUUUAFFFFAH/2Q== "
             id="image868"
             x="-100.57154"
             y="86.137878" />
        </g>
      </g>
    </g>
  </g>
</svg>
