{
    "welcomeTpl" : "costum.views.custom.alfph.home",
    "sourceKey" : true,
    "slug" : "alfph",
    "favicon" : "/images/alfph/index.png",
    "metaImg" : "/images/alfph/metaImg.png",
    "logoMin" : "/images/alfph/docDetail.png",
    "logo" : "/images/alfph/docDetail.png",
    "filters" : {
        "sourceKey" : true
    },
    "js" : {
        "urls" : [
            "alfph_index.js"
        ]
    },
    "htmlConstruct" : {
        "appRendering" : "horizontal",
        "redirect" : {
            "logged" : "welcome",
            "unlogged" : "welcome"
        },
        "header" : {
            "menuTop" : {
                "left" : {
                    "buttonList" : {
                        "xsMenu":{
                            "buttonList":{
                                "app":{
                                    "label":true,
                                    "spanTooltip":false,
                                    "buttonList":{
                                        "#accueil": true,
                                        "#search": true,
                                        "#annonces": true
                                    }
                                },
                                "add":true
                            }
                        },
                        "logo" : {
                            "height" : 40
                        }
                    }
                },
                "center" : {
                    "class":"padding-top-10 text-right col-sm-7 col-lg-7 hidden-xs",
                    "menu":true,
                    "buttonList":{
                        "app" : {
                            "img" : true,
                            "label" : true,
                            "class": "hidden-xs padding-right-30",
                            "buttonList" : {
                                "#accueil": true,
                                "#search": true,
                                "#annonces": true
                            }
                        } 
                    }
                },
                "right" : {
                    "buttonList":{ 
                        "networkFloop" : false,
                        "userProfil" : {
                            "img" : true,
                            "name" : true
                        },
                        "dropdown" : {
                            "connected":true,
                            "buttonList":{
                                "admin" : true,
                                "logout" : true
                            }
                        },                    
                        "login" : true
                    }
                }
            }
        },
        "subMenu" : false,
        "adminPanel" : {
            "js" : true,
            "add" : true,
            "menu" : {
                "directory" : {
                    "label" : "Répertoire des actions",
                    "icon" : "lightbulb-o",
                    "color" : "#976BB6"
                },

                "statistic" : false,
                "converter" : false,
                "import" : false,
                "community" : {
                    "show" : true,
                    "label" : "Communauté"
                },
                "reference" : {
                    "show" : false
                }
            }
        },
        "directory" : {
            "preview" : true,
            "footer" : {
                "add" : true
            }
        },
        "footer" : {
            "url" : "costum.views.custom.alfph.footer"
        },
        "element" : {
            "initView" : "detail", 
            "menuLeft" : {
                "buttonList" : {
                    "detail" : true,
                    "gallery" : {
                        "label" : "Gallerie"
                    },
                    "answerInvitation":true,
                    "linksBtn":true,
                    "invite":true,
                    "events" : true,
                    "projects" : true,
                    "community" : true,
                    "collections" : {
                        "label" : "Favoris",
                        "icon" : "star",
                        "class" : "",
                        "separator" : true,
                        "view" : "directory",
                        "dataAttr" : {
                            "dir" : "collections",
                            "icon" : "star"
                        },
                        "typeAllow" : [ 
                            "citoyens"
                        ]
                    }
                }    
            },
            "menuTop" : {
                "left":{
                    "buttonList":{
                        "imgUploader":true
                    }
                },
                "right":{
                    "buttonList" : {
                        "imgProfil":true,
                        "nameProfil":true,
                        "newspaper" : true,
                        "cospace":false,
                        "chat":false,
                        "create":true,
                        "dropdown":{
                            "buttonList":{
                                "history" : false,
                                "settings" : true,
                                "settingsCommunity" : true,
                                "mindmap" : false,
                                "editSlug" : false,
                                "delete" : true
                            }
                        }
                    }
                }
            }
        },
        "menuBottom" : {
            "addClass":"hidden-xs",
            "buttonList" : {
                "add" : {
                    "label" : "Référencer"                
                }
            }    
        }
    },
    "css" : {
        "urls" : [ 
            "alfph_index.css",
            "alfph_filters.css"
        ],
        "loader" : {
            "background" : "white",
            "ring1" : {
                "color" : "#e7e6e6",
                "height" : 360,
                "width" : 360,
                "left" : -15,
                "borderWidth" : 4,
                "top" : -35
            },
            "ring2" : {
                "color" : "#32a2a4",
                "height" : 350,
                "width" : 350,
                "left" : -10,
                "borderWidth" : 5,
                "top" : -30
            }
        },
        "progress" : {
            "value" : {
                "background" : "#00aca9"
            },
            "bar" : {
                "background" : "white"
            }
        },
        "menuTop" : {
            "background" : "#e2e2e2",
            "button" : {
                "paddingTop" : 0,
                "fontSize" : 25,
                "color" : "#00aca9"
            },
            "app" : {
                "paddingLeft" : "30px",
                "button" : {
                    "fontSize" : 24,
                    "fontWeight" : 800,
                    "paddingBottom" : "0px",
                    "marginLeft" : "10px",
                    "textTransform" : "capitalize",
                    "color" : "#00aca9"
                }
            },
            "badge" : {
                "background" : "#497614",
                "border" : "3px solid white"
            },
            "scopeBtn" : {
                "display" : "none"
            },
            "filterBtn" : {
                "display" : "none"
            },
            "connectBtn" : {
                "background" : "#757ca0",
                "color" : "white",
                "fontSize" : 18,
                "borderRadius" : 10,
                "padding" : "8px 15px"
            }
        },
        "menuApp" : {
            "top" : "55",
            "background" : "#f6f6f6",
            "button" : {
                "fontSize" : 25,
                "color" : "#41445c",
                "hover" : {
                    "borderBottom" : "2px solid #fff"
                }
            }
        },
        "button" : {
            "footer" : {
                "add" : {
                    "background" : "#00aca9",
                    "color" : "white"
                }
            }
        },
        "font" : {
            "url" : "/font/coeurNumerique/SharpSansNo1-Medium.ttf"
        }
    },
    "app" : {
        "#welcome" : {
            "subdomainName" : "Accueil"
        },
        "#accueil" : {
            "hash" : "#app.welcome",
            "icon" : "home",
            "subdomainName" : "Accueil",
            "placeholderMainSearch" : "what are you looking for ?",
            "useFooter" : true
        },
        "#annonces" : {
            "subdomainName" : "Les besoins",
            "icon" : "heartbeat",
            "hash":"#default.index.goToSearch.true",
            "useFilter" : true,
            "filters" : {
                "type" : "ressources"
            }
        },
        "#search" : {
            "hash" : "#app.search",
            "icon" : "search",
            "subdomainName" : "Les actions",
            "placeholderMainSearch" : "what are you looking for ?",
            "useFilter" : true,
            "filterObj" : "costum.views.custom.alfph.filters",
            "urlExtra" : "/page/search",
            "filters" : {
                "types" : [ 
                    "projects"
                ]
            },
            "searchObject" : {
                "indexStep" : "0"
            }
        },
        "#live" : {
            "subdomainName" : "Le live",
            "formCreate" : false,
            "useFilter" : false,
            "viewMode" : "list"
        }
    },
    "typeObj" : {
        "projects" : {
            "add" : true,
            "name" : "Action",
            "dynFormCostum" : {
                "beforeBuild" : {
                    "properties" : {
                        "theme":{
                            "inputType" : "select",
                            "label" : "Thématique(s) de l'action",
                            "order":2,
                            "placeholder" : "Sélectionner une catégorie",
                            "list" : "theme",
                            "select2" : {
                                "multiple" : true
                            },
                            "rules" : {"required": true}
                        },
                        "parent" : {
                            "inputType" : "finder",
                            "id" : "parent",
                            "label" : "Qui porte le projet",
                            "initMe" : true,
                            "placeholder" : "Sélectionner un projet",
                            "rules" : {
                                "required" : false,
                                "lengthMin" : [ 
                                    1, 
                                    "parent"
                                ]
                            },
                            "initType" : [ 
                                "organizations", 
                                "projects"
                            ],
                            "openSearch" : true
                        },
                        
                        "formLocality" : {
                            "label" : "Adresse, pour la ville, précisez le code postal (59000, 59800, 59260)",
                            "rules" : {
                                "required" : true
                            }
                        }

                    }
                }
            }
        },
        "ressources" : {
            "add" : true,
            "name" : "Besoin",
            "dynFormCostum" : {
                "beforeBuild" : {
                    "properties" : {
                        "formLocality" : {
                            "label" : "Adresse, pour la ville, précisez le code postal (59000, 59800, 59260)"
                        }
                    }
                },
                "onload" : {
                    "actions" : {
                        "required" : {
                            "parent" : 1
                        },
                        "presetValue" : {
                            "section" : "need",
                            "category" : "service"
                        }
                    }
                }
            }    

        },
        "organization" : {
            "add" : "onlyAdmin"
        },
        "event" : {
            "add" : "onlyAdmin"
        }
    },
    "map" : {
        "menuRight":false,
        "activePreview":true,
        "forced":{
            "latLon" : [ 
                50.333267, 
                2.2859
            ],
            "zoom":7
        }
    },
    "lists" : {
        "theme" : [
            "Valorisation des circuits courts",
            "Lutte contre l'isolement (notamment des personnes fragiles)",
            "Lutte contre l'illettrisme",
            "Echanges de savoirs, entraide, et soutien scolaire",
            "Valorisation et découverte du patrimoine et de l’histoire locale",
            "Créativité artistique",
            "Innovation sociale",
            "Démocratie numérique",
            "Insertion par l'économique",
           "Transition énergétique et écologique"
        ]   
        
    }
}