{
  "slug" : "anatole",
  "welcomeTpl" : "costum.views.custom.anatole.home",
  "sourceKey" : true,
  "host":"www.mayenne-demain.fr",
  "favicon" : "/ico/mayenneDemain/favicon.ico",
  "metaImg" : "/images/mayenneDemain/banner.png",
  "logoMin" : "/images/mayenneDemain/logo-min.png",
  "js" : {
    "urls" : [
      "anatole_progressbar.js"
    ]
  },
  "css" : {
    "urls" : [
      "scroll.css",
      "style.css",
      "font-awesome.css",
      "responsive.css",
      "font.css"
    ],

    "loader" : {
      "background" : "white",
      "ring1" : {
        "color" : "#8a2f88",
        "height" : 360,
        "width" : 360,
        "left" : -15,
        "borderWidth" : 4,
        "top" : -35
      },
      "ring2" : {
        "color" : "#71b62c",
        "height" : 350,
        "width" : 350,
        "left" : -10,
        "borderWidth" : 5,
        "top" : -30
      }
    },
    "progress" : {
      "value" : {
        "background" : "#8a2f88"
      },
      "bar" : {
        "background" : "#fff"
      }
    },
    "menuTop" : {
      "background" : "#8a2f88",
      "button" : {
        "paddingTop" : 0,
        "fontSize" : 30,
        "color" : "white"
      },
      "app" : {
        "paddingLeft" : "30px",
        "button" : {
          "fontSize" : 24,
          "fontWeight" : 800,
          "paddingBottom" : "0px",
          "marginLeft" : "10px",
          "textTransform" : "capitalize",
          "color" : "white"
        }
      },
      "scopeBtn" : {
        "color" : "#8a2f88"
      },
      "filterBtn" : {
        "color" : "#8a2f88"
      },
      "badge" : {
        "background" : "#8a2f88",
        "border" : "1px solid white"
      },
      "connectBtn" : {
        "background" : "white",
        "color" : "#8a2f88",
        "fontSize" : 18,
        "borderRadius" : 10,
        "padding" : "8px 15px"
      }
    },
    "menuApp" : {
      "background" : "#8a2f88",
      "button" : {
        "fontSize" : 25,
        "color" : "#fff",
        "hover" : {
          "borderBottom" : "2px solid #fff"
        }
      }
    },
    "button" : {
      "footer" : {
        "add" : {
          "bottom" : 25,
          "background" : "transparent",
          "color" : "white"
        },
        "toolbarAdds" : {
          "bottom" : 30
        }
      }
    },
    "color" : {
      "purple" : "#8a2f88"
    }
  },
  "htmlConstruct" : {
    "appRendering" : "horizontal",
    "header" : {
      "menuTop" : {
        "navLeft" : {
          "logo" : {
            "height" : 60
          },
          "app" : {
            "label" : true,
            "icon" : false,
            "tooltips" : false
          },
          "searchBar" : false,
          "useFilter" : {
            "scopeFilter" : false,
            "showFilter" : false
          }
        },
        "navRight" : {
          "connected" : {
            "dropdownUser" : {
              "languages" : false,
              "statistics" : false,
              "documentation" : false,
              "donate" : false,
              "admin" : true,
              "settings" : false,
              "logout" : true
            },
            "userProfil" : {
              "img" : true,
              "name" : false
            },
            "networkFloop" : false,
            "notifications" : false,
            "dda" : false,
            "chat" : false,
            "home" : false
          },
          "disconnected" : {
            "languages" : false,
            "login" : true
          }
        }
      }
    },
    "subMenu" : false,
    "topMenu" : false,
    "menuBottom" : {
      "add" : false,
      "donate" : false
    },
    "adminPanel" : {
      "add" : true,
      "statistic" : true,
      "directory" : true,
      "community" : true,
      "reference" : {
        "initType" : [
          "organizations"
        ]
      }
    },
    "directoryViewMode" : "block",
    "directory" : {
      "header" : {
        "map" : false,
        "viewMode" : false,
        "add" : {
          "proposals" : true
        }
      },
      "results" : {
        "proposals" : {
          "defaultImg" : "/images/mayenneDemain/default_directory.png"
        }
      },
      "footer" : {
        "add" : true
      }
    },
    "footer" : {
      "url" : "costum.views.custom.mayenneDemain.footer"
    },

    "element" : {
      "initView" : "detail",
      "menuLeft" : {
        "detail" : true,
        "gallery" : true,
        "community" : true
      },
      "menuTop" : {
        "news" : false,
        "params" : {
          "history" : true,
          "slug" : true,
          "delete" : true
        }
      }
    },
    "redirect" : {
      "logged" : "welcome",
      "unlogged" : "welcome"
    }
  },
  "filters" : {
    "sourceKey" : true,
    "searchTypeGS" : [
      "proposals"
    ]
  },
  "app" : {
    "#home" : {
      "hash" : "#app.view",
      "icon" : "",
      "urlExtra" : "/page/home/url/costum.views.custom.mayenneDemain.home",
      "useHeader" : true,
      "useFooter" : true,
      "useFilter" : false,
      "inMenu" : true,
      "subdomainName" : "Accueil"
    }
  },
  "searchOpenMenu" : {
    "url" : "#dda",
    "msg" : "Toutes les idées"
  },
  "typeObj" : {
    "organizations" : {
      "add" : true
    },
    "proposals" : {
      "add" : "true",
      "color" : "purple",
      "name" : "Idée",
      "createLabel" : "Ajouter une idée",
      "dynFormCostum" : {
        "onload" : {
          "actions" : {
            "formatAmendVote" : 1,
            "adminOnly" : {
              "producerfinder" : 1,
              "imageuploader" : 1
            },
            "setTitle" : "Ajouter une idée",
            "html" : {
              "titletext>label" : "Détail de l'idée",
              "infocustom" : "Si vous identifiez un problème, merci de proposer une idée constructive pour le résoudre.<br/> Proposez votre idée en vous demandant et #SiJétaisMaire ? de manière à ce que les autres internautes puissent voter pour ou contre votre idée."
            },
            "presetValue" : {
              "voteDateEnd" : "28/03/2020 23:59",
              "voteAnonymous" : true,
              "voteCanChange" : true,
              "majority" : 50,
              "amendementAndVote" : false,
              "amendementActivated" : false,
              "multiChoicecheckboxSimple" : false
            },
            "hide" : {
              "voteDateEnddatetime" : 1,
              "urlsarray" : 1,
              "voteAnonymouscheckboxSimple" : 1,
              "voteCanChangecheckboxSimple" : 1,
              "majoritytext" : 1,
              "amendementAndVotecheckboxSimple" : 1,
              "amendementActivatedcheckboxSimple" : 1,
              "multiChoicecheckboxSimple" : 1,
              "answersarray" : 1,
              "multiChoicecheckboxSimple" : 1,
              "producerfinder" : 1
            }
          }
        }
      }
    },
    "citoyens" : {
      "add" : true
    }
  }
}

