{
    "slug" : "candidatGenerique",
    "welcomeTpl" : "costum.views.custom.candidatGenerique.home",
    "sourceKey" : true,
    "isTemplate" : true,
    "favicon" : "/ico/mayenneDemain/favicon.ico",
    "metaImg" : "/images/mayenneDemain/banner.png",
    "logo" : "/images/smarterritoire/default.png",
    "logoMin" : "/images/smarterritoire/default.png",
    "shortDescription" : "Testez notre costum qui se base sur le design le costum Mayenne avec la possibilité de modulé ces app à sa guise",
    "name" : "Candidat Générique",
    "js" : {
        "urls" : [
            "candidatGenerique_index.js"
        ]
    },
    "dynForm" : {
        "jsonSchema" : {
            "title" : "Template config",
            "type" : "object",
            "properties" : {
                "text1" : {
                    "label" : "Text 1",
                    "inputType" : "textarea",
                    "path" : "costum.text1"
                },
                "logoMin" : {
                    "label" : "Image Logo",
                    "inputType" : "text",
                    "path" : "costum.logoMin"
                },
                "elementBanner" : {
                    "label" : "Image Banière",
                    "inputType" : "image",
                    "path" : "costum.elementBanner"
                },
                "color1" : {
                    "label" : "Couleur 1",
                    "inputType" : "colorpicker",
                    "path" : "costum.colors.pink"
                },
                "color2" : {
                    "label" : "Couleur 2",
                    "inputType" : "colorpicker",
                    "path" : "costum.colors.dark"
                },
                "typeObj" : {
                    "label" : "Selectionnez les éléments qui peuvent etre ajouter",
                    "inputType" : "select",
                    "placeholder" : "---- Things that can be added ----",
                    "options" : {
                        "poi" : "Point of Interests",
                        "organization" : "Organization",
                        "project" : "Projects",
                        "event" : "Events",
                        "person" : "People",
                        "proposal" : "Proposals"
                    },
                    "path" : "costum.slug"
                },
                "menuApp" : {
                    "label" : "Selectionnez les modules qui peuvent etre ajouter",
                    "inputType" : "select",
                    "placeholder" : "---- Active Modules ----",
                    "options" : {
                        "search" : "Search",
                        "agenda" : "Agenda"
                    },
                    "path" : "costum.slug"
                }
            }
        }
    },
    "css" : {
        "urls" : [
            "index.css"
        ],
        "font" : {
            "url" : "/font/mayenneDemain/fengardoneue_regular-webfont.ttf"
        },
        "loader" : {
            "background" : "white",
            "ring1" : {
                "color" : "#8a2f88",
                "height" : 360,
                "width" : 360,
                "left" : -15,
                "borderWidth" : 4,
                "top" : -35
            },
            "ring2" : {
                "color" : "#71b62c",
                "height" : 350,
                "width" : 350,
                "left" : -10,
                "borderWidth" : 5,
                "top" : -30
            }
        },
        "progress" : {
            "value" : {
                "background" : "#8a2f88"
            },
            "bar" : {
                "background" : "#fff"
            }
        },
        "menuTop" : {
            "background" : "#8a2f88",
            "button" : {
                "paddingTop" : 0,
                "fontSize" : 30,
                "color" : "white"
            },
            "app" : {
                "paddingLeft" : "30px",
                "button" : {
                    "fontSize" : 24,
                    "fontWeight" : 800,
                    "padding" : "5px",
                    "marginLeft" : "10px",
                    "textTransform" : "capitalize",
                    "color" : "white"
                }
            },
            "xsMenu" : {
                "button":{
                    "color":"#2C3E50"
                }
            },
            "scopeBtn" : {
                "color" : "#8a2f88"
            },
            "filterBtn" : {
                "color" : "#8a2f88"
            },
            "badge" : {
                "background" : "#8a2f88",
                "border" : "1px solid white"
            },
            "connectBtn" : {
                "background" : "white",
                "color" : "#2cb522",
                "fontSize" : 18,
                "borderRadius" : 10,
                "padding" : "8px 15px"
            }
        },
        "menuLeft" : {
            "background" : "#8a2f88",
            "button" : {
                "fontSize" : 25,
                "color" : "#fff",
                "hover" : {
                    "borderBottom" : "2px solid #fff"
                }
            }
        },
        "button" : {
            "footer" : {
                "add" : {
                    "bottom" : 25,
                    "fontSize" : 20,
                    "background" : "transparent",
                    "color" : "white"
                },
                "toolbarAdds" : {
                    "bottom" : 30
                }
            }
        },
        "color" : {
            "purple" : "#8a2f88"
        }
    },
    "appMenusPath":[
        "header.menuTop.left.buttonList.app",
        "header.menuTop.left.buttonList.xsMenu.buttonList.app"
    ],
    "htmlConstruct" : {
        "appRendering" : "horizontal",
        "header" : {
            "menuTop" : {
                "left" : {
                    "buttonList":{
                        "xsMenu":{
                            "aClass":"padding-left-10",
                            "buttonList":{
                                "app":{
                                    "label" : true,
                                    "icon" : false,
                                    "tooltips" : false,
                                    "buttonList":{

                                    }
                                }
                            }
                        },
                        "logo" : {
                            "height" : 60
                        },
                        "app" : {
                            "label" : true,
                            "icon" : false,
                            "tooltips" : false,
                            "buttonList":{

                            }
                        }
                    }
                },
                "right" : {
                    "buttonList" : {
                        "userProfil" : {
                            "img" : true,
                            "name" : false
                        },
                        "dropdown" : {
                            "connected":true,
                            "buttonList":{
                                "admin" : true,
                                "logout" : true
                            }
                        },
                        "login":true
                    }
                }
            }
        },
        "menuLeft":false,
        "menuBottom" : {
            "buttonList" : {
                "add" : {
                    "class" : "pull-left padding-10 bottom-add"
                }
            }
        },
        "adminPanel" : {
            "add" : true,
            "statistic" : true,
            "directory" : true,
            "community" : true,
            "reference" : {
                "initType" : [ 
                    "projects",
                    "events"
                ]
            }
        },
        "directoryViewMode" : "block",
        "directory" : {
            "header" : {
                "map" : false,
                "viewMode" : false,
                "add" : {
                    "proposals" : true,
                    "classifieds" : true
                }
            },
            "results" : {
                "proposals" : {
                    "defaultImg" : "/images/filiereCostum/no-banner.jpg"
                }
            },
            "footer" : {
                "add" : true
            }
        },
        "footer" : {
            "url" : "costum.views.custom.candidatGenerique.footer"
        },
        "element" : {
            "initView" : "detail",
            "menuLeft" : {
                "buttonList":{
                    "detail" : true,
                    "gallery" : true,
                    "community" : true
                }
            },
            "menuTop" : {
                "left":{
                    "buttonList":{
                        "imgUploader":true
                    }
                },
                "right":{
                    "buttonList":{
                        "newspaper" : true,
                        "params" : {
                            "buttonList":{
                                "history" : true,
                                "slug" : true,
                                "delete" : true
                            }
                        }
                    }
                }
            }
        },
        "redirect" : {
            "logged" : "welcome",
            "unlogged" : "welcome"
        }
    },
    "filters" : {
        "sourceKey" : true,
        "searchTypeGS" : [ 
            "proposals"
        ]
    },
    "app" : {
        "#home" : {
            "hash" : "#app.view",
            "icon" : "",
            "urlExtra" : "/page/home/url/costum.views.custom.mayenneDemain.home",
            "useHeader" : true,
            "useFooter" : true,
            "subdomainName" : "Accueil"
        },
        "#projects" : {
            "hash" : "#app.search",
            "urlExtra" : "/page/projects",
            "subdomainName" : "Projets",
            "placeholderMainSearch" : "what are you looking for ?",
            "icon" : "",
            "filters" : {
                "types" : [ 
                    "projects"
                ]
            },
            "searchObject" : {
                "indexStep" : "10"
            }
        },
        "#search" : {
            "hash" : "#app.search",
            "icon" : "search",
            "urlExtra" : "/page/annuaire",
            "subdomainName" : "Recherche",
            "placeholderMainSearch" : "what are you looking for ?",
            "useHeader" : false,
            "useFooter" : true,
            "filters" : {
                "types" : [
                    "events",
                    "projects"
                ]
            },
            "searchObject" : {
                "indexStep" : "0"
            }
        },
        "#live" : {
            "icon" : "",
            "subdomainName" : "Actualité",
            "slug" : "candidatGenerique",
            "nameMenuTop" : "Actus",
            "formCreate" : false,
            "useFilter" : false,
            "viewMode" : "list"
        },
        "#agenda" : {
            "icon" : "",
            "subdomainName" : "Agenda"
        },
        "#map" : {
            "icon" : "map",
            "urlExtra" : "/page/maps",
            "subdomainName" : "Carte",
            "useFooter" : false,
            "useHeader" : true,
            "filters" : {
                "types" : [ 
                    "organizations",
                    "events"
                ]
            },
            "searchObject" : {
                "indexStep" : "0"
            }
        },
        "#dda" : {
            "icon" : "",
            "subdomainName" : "Propositions",
            "placeholderMainSearch" : "Que cherchez vous ?",
            "showInviteBtn":false,
            "showAmendmentBlock":false,
            "showExternLinkBlock":false
        },
        "#annonces" : {
            "subdomainName" : "Annonces",
            "icon" : ""
        }
    },
    "searchOpenMenu" : {
        "url" : "#dda",
        "msg" : "Toutes les idées"
    },
    "typeObj" : {
        "events" : {
            "add" : true
        },
        "projects" : {
            "add" : true
        },
        "classifieds" : {
            "add" : "true",
            "color" : "blue",
            "name" : "Annonce",
            "createLabel" : "Ajouter une annonce",
            "dynFormCostum" : {
                "onload" : {
                    "actions" : {
                        "adminOnly" : {
                            "producerfinder" : 1,
                            "imageuploader" : 1
                        },
                        "setTitle" : "Ajouter une annonce",
                        "hide" : {
                            "urlsarray" : 1
                        }
                    }
                }
            }
        },
        "proposals" : {
            "add" : "true",
            "color" : "purple",
            "name" : "Idée",
            "createLabel" : "Ajouter une idée",
            "dynFormCostum" : {
                "onload" : {
                    "actions" : {
                        "formatAmendVote" : 1,
                        "adminOnly" : {
                            "producerfinder" : 1,
                            "imageuploader" : 1
                        },
                        "setTitle" : "Ajouter une idée",
                        "html" : {
                            "titletext>label" : "Détail de l'idée",
                            "infocustom" : "Si vous identifiez un problème, merci de proposer une idée constructive pour le résoudre.<br/>"
                        },
                        "hide" : {
                            "urlsarray" : 1
                        }
                    }
                }
            }
        }
    }
}