{ 
    "welcomeTpl" : "costum.views.custom.chtitube.home",
    "slug" : "chtitube",
    "host":"www.chtitube.fr",
    "favicon" : "/ico/chtitube/favicon.ico",
    "class" : {
        "function" : [ "elementAfterSave"]
    },
    "typeObj" : {
        "organizations" : {
            "add" : true,
            "createLabel" : "",
            "dynFormCostum" : {
                "beforeBuild" : {
                    "properties":{
                        "description":{
                            "order" : 8,
                            "inputType" : "textarea",
                            "markdown" : true,
                            "label" : "Description compléte",
                            "rules" : {
                                "maxlength" : 2000
                            }
                        }
                    }
                },
                "afterSave":"costum.chtitube.dynForm.afterSave",
                "onload" : {
                    "actions" : {
                        "setTitle" : "Modifier la page",
                        "html" : {
                            "infocustom" : ""
                        },
                        "presetValue" : {
                            "role" : "admin"
                        },
                        "hide" : {
                            "roleselect" : 1,
                            "urlsarray" : 1,
                            "emailtext":1
                        },
                        "required" : {
                            "locality" : 1
                        }
                    }
                }
            }
        },
        "poi":{
            "add":true,
            "dynFormCostum" : {
                "beforeBuild": {
                    "properties":{
                        "sectionBtn":{
                            "label" : "choisissez un type de point d'intérêt",
                            "trad": [],
                            "setLabel": true,
                            "sizeClass":"col-xs-12" 
                        }
                    }
                },
                "afterSave":"costum.chtitube.dynForm.afterSave",
                "onload" : {
                    "actions" : {
                    	"hide": {
                    		"parentfinder" : 1
                    	}
                    }
                }
            }
        },
        "projects" : {
            "add" : true,
            "dynFormCostum" : {
                 "beforeBuild" : {
                    "properties":{
                        "description":{
                            "order" : 8,
                            "inputType" : "textarea",
                            "markdown" : true,
                            "label" : "Description compléte",
                            "rules" : {
                                "maxlength" : 2000
                            }
                        }
                    }
                },
                "afterSave":"costum.chtitube.dynForm.afterSave",
                "onload" : {
                    "actions" : {
                        "hide":{
                            "publiccheckboxSimple":1,
                            "parentfinder":1,
                            "emailtext":1
                        }
                    }
                }
            }
        },
        "citoyens" : {
            "add" : true
        },
        "events" : {
            "add" : true,
            "dynFormCostum" : {
                "beforeBuild" : {
                    "properties":{
                        "description":{
                            "order" : 8,
                            "inputType" : "textarea",
                            "markdown" : true,
                            "label" : "Description compléte",
                            "rules" : {
                                "maxlength" : 2000
                            }
                        }
                    }
                },
                "afterSave":"costum.chtitube.dynForm.afterSave",
                "onload" : {
                    "actions" : {
                        "formatAmendVote" : 1,
                        "adminOnly" : {
                            "producerfinder" : 1
                        },
                        "setTitle" : "Ajouter un évènement",
                        "html" : {
                            "titletext>label" : "Détail de l'idée",
                            "infocustom" : "Relayer un événement (manifestation festive, culturelle, atelier, ...) récurrent ou non, que vous organisez ou dont vous avez connaissance."
                        },
                        "hide" : {
                            "urlsarray" : 1,
                            "parentfinder" : 1,
                            "emailtext":1,
                            "publiccheckboxSimple":1
                            
                        }
                    }
                }
            }
        },
        "proposals" : {
            "add" : true,
            "color" : "azure",
            "name" : "Idée",
            "createLabel" : "Ajouter une idée",
            "dynFormCostum" : {
                "afterSave":"costum.chtitube.dynForm.afterSave",
                "onload" : {
                    "actions" : {
                        "formatAmendVote" : 1,
                        "adminOnly" : {
                            "producerfinder" : 1
                        },
                        "setTitle" : "Ajouter une idée, une proposition, un sondage",
                        "html" : {
                            "titletext>label" : "Détail de l'idée",
                            "infocustom" : "Si vous identifiez un problème, merci de proposer une idée constructive pour le résoudre.<br/> Prenez-vous au jeu des élections municipales à venir et demandez-vous '<i>#SiJétaisMaire?</i>'. Vous avez la possibilité de soumettre des propositions ('Pour/Contre' ou 'choix multiples') pour procéder à un vote à l'issue du jeu Chtitube."
                        },
                        "presetValue" : {
                            "voteDateEnd" : "31/03/2020 23:59"
                        },
                        "hide" : {
                        	"producerfinder": 1,
                        	"voteDateEnddatetime" : 1,
                            "urlsarray" : 1,
                            "amendementActivatedcheckboxSimple":1,
                            "majoritytext" : 1,
                            "voteCanChangecheckboxSimple":1,
                            "voteAnonymouscheckboxSimple":1
                        }
                    }
                }
            }
        }
    },
    "htmlConstruct" : {
        "appRendering" : "vertical",
        "redirect" : {
            "logged" : "welcome",
            "unlogged" : "welcome",
            "register" : "welcome"
        },
        "adminPanel" : {
            "add" : false,
            "js":true,
            "menu":{
                "validation" : {
                    "label" : "Validation des ajouts",
                    "class" : "text-green-k",
                    "view" : "validation",
                    "icon" : "check"
                },
                "statistic" : true,
                "directory" : true,
                "mails":true,
                "community":{"show":true}
            }
        },
        "header" : {
            "menuTop" : false
        },
        "subMenu" : {
            "url": "costum.views.custom.chtitube.menuLeft"
        },
        "directory":{
            "preview" : true
        },
        "footer":false,
        "element" : {
            "initView" : "detail",
            "menuLeft" : {
                 "detail" : true,
                "community" : true,
                "gallery" : true,
                "events" : true,
                "projects" : true,
                "ressources" : true,
                "classifieds" : true,
                "jobs" : true
            },
            "menuTop" : {
                "img" : true,
                "btnGroup" : {
                    "imgProfil":true,
                    "nameProfil":true,
                    "newspaper" : true,
                    "cospace":true,
                    "chat":true,
                    "create":true,
                    "params" : {
                        "dropdown":{
                            "history" : true,
                            "settings" : true,
                            "mindmap" : true,
                            "editSlug" : true,
                            "delete" : true
                        }
                    }
                }
            }
        },
        "preview" : {
            "toolBar":{
                "close":true,
                "edit":true
            },
            "banner":{
                "edit":true,
                "imgProfil":true
            },
            "body":{
                "name":true,
                "shortDescription":true,
                "eventInfos":true,
                "tags":true,
                "locality":true,
                "description":true,
                "url":true,
                "shareButton":[{"type":"facebook"}, {"type":"twitter"} ]
            }
        },
        "menuBottom" : {
            "add" : false,
            "donate" : false
        }
    },
    "js" : {
        "urls" : [ 
            "chtitube_index.js"
        ]
    },
    "css" : {
        "urls" : [ 
            "index.css",
            "filters.css"
        ],
        "font" : {
            "url" : "/font/lapossession/MorebiRoundedMediumStencil.otf"
        },
        "loader" : {
            "background" : "#000",
            "ring1" : {
                "color" : "rgb(255,255,255)",
                "height" : 360,
                "width" : 360,
                "left" : -15,
                "borderWidth" : 4,
                "top" : -35
            },
            "ring2" : {
                "color" : "#fbde0c",
                "height" : 350,
                "width" : 350,
                "left" : -10,
                "borderWidth" : 5,
                "top" : -30
            }
        },
        "progress" : {
            "value" : {
                "background" : "#fbde0c"
            },
            "bar" : {
                "background" : "#000"
            }
        },
        "menuTop" : {
            "display":"none",
            "background" : "white",
            "button" : {
                "paddingTop" : 0,
                "fontSize" : 25,
                "color" : "#a34a08"
            },
            "badge" : {
                "background" : "#337ab7",
                "border" : "1px solid white"
            },
            "scopeBtn" : {
                "color" : "#4797cc",
                "hover" : {
                    "color" : "#a34a08",
                    "border" : "1px solid #a34a08"
                }
            },
            "filterBtn" : {
                "color" : "#4797cc",
                "hover" : {
                    "color" : "#a34a08",
                    "border" : "1px solid #a34a08"
                }
            },
            "connectBtn" : {
                "background" : "#a34a08",
                "color" : "white",
                "fontSize" : 18,
                "borderRadius" : 10,
                "padding" : "8px 15px"
            }
        },
        "menuApp" : {
            "background" : "white",
            "button" : {
                "fontSize" : 25,
                "color" : "#4797cc",
                "hover" : {
                    "color" : "#a34a08",
                    "borderBottom" : "2px solid #a34a08"
                }
            }
        },
        "button" : {
            "footer" : {
                "add" : {
                    "bottom" : 50,
                    "background" : "transparent",
                    "color" : "#a34a08"
                },
                "toolbarAdds" : {
                    "bottom" : 30
                }
            }
        },
        "color" : {
            "brown" : "#aa4420",
            "green" : "#93C020",
            "blue" : "#3595a8",
            "dark" : "#444"
        }
    },
    "app" : {
         "#regles" : {
            "hash" : "#app.view",
            "icon" : "",
            "urlExtra" : "/page/regles/url/costum.views.custom.chtitube.regles",
            "useHeader" : false,
            "useFooter" : false,
            "useFilter" : false,
            "inMenu" : true,
            "subdomainName" : "Règles du jeu"
        },
        "#classement" : {
            "hash" : "#app.view",
            "icon" : "",
            "urlExtra" : "/page/classement/url/costum.views.custom.chtitube.classement",
            "useHeader" : false,
            "useFooter" : false,
            "useFilter" : false,
            "inMenu" : true,
            "subdomainName" : "Classement"
        },
        "#apropos" : {
        	"hash" : "#app.view",
            "icon" : "",
            "urlExtra" : "/page/apropos/url/costum.views.custom.chtitube.apropos",
            "useHeader" : false,
            "useFooter" : false,
            "useFilter" : false,
            "inMenu" : true,
            "subdomainName" : "A propos"
        },
        "#reglement" : {
        	"hash" : "#app.view",
            "icon" : "",
            "urlExtra" : "/page/apropos/url/costum.views.custom.chtitube.reglement",
            "useHeader" : false,
            "useFooter" : false,
            "useFilter" : false,
            "inMenu" : true,
            "subdomainName" : "Règlement"
        },

        "#lots" : {
            "hash" : "#app.view",
            "icon" : "",
            "urlExtra" : "/page/lots/url/costum.views.custom.chtitube.lots",
            "useHeader" : false,
            "useFooter" : false,
            "useFilter" : false,
            "inMenu" : true,
            "subdomainName" : "A gagner"
        },
        "#play" : {
            "hash" : "#app.view",
            "icon" : "",
            "urlExtra" : "/page/play/url/costum.views.custom.chtitube.play",
            "useHeader" : false,
            "useFooter" : false,
            "useFilter" : false,
            "inMenu" : true,
            "subdomainName" : "Jeu"
        },
        "#references" :{
            "hash" : "#chtitube.references",
            "icon" : "tachometer",
            "module":"costum",
            "urlExtra" : "/url/costum.views.custom.chtitube.references",
            "useHeader" : false,
            "useFilter" : false,
            "useFooter" : true,
            "inMenu" : true,
            "dropdownResult":true,
            "subdomainName" : "References",
            "useMapBtn":false
        },
        "#search" : {
            "subdomainName" : "Carte du 62",
            "icon" : "search",
            "header":"costum.views.custom.chtitube.filters",
            "useFilter" : true,
            "useHeader" : false,
            "showMap":true,
            "filters" : {
                "scopes":{"zones":"597b1bee6ff992f0038b45b9"},
                "types":[
                    "NGO",
                    "Group",
                    "GovernmentOrganization",
                    "LocalBusiness",
                    "projects",
                    "events",
                    "poi",
                    "proposals"
                ]
            },
            "searchObject" : {
                "indexStep" : "0"
            }
        },
        "#agenda" : {
            "subdomainName" : "Agenda",
            "placeholderMainSearch" : "what are you looking for ?"
        },
        "#annonces" : {
            "subdomainName" : "Petites annonces",
            "icon" : "bullhorn"
        },
        "#live" : {
            "subdomainName" : "Actualité",
            "icon" : "newspaper-o"
        },
        "#dda" : {
            "subdomainName" : "Agora citoyenne",
            "icon" : "list"
        }
    },
    "map" : {
        "menuRight":false,
        "activePreview":true,
        "forced":{
            "latLon" : [ 
                50.333267, 
                2.2859
            ],
            "zoom":7
        }
    },
    "searchObject":{
        "indexStep" : 0
    },
    "filters" : {
        "scopes":{"zones":"597b1bee6ff992f0038b45b9"}
        
    }
}