   {
    "slug" : "cocityPrez",
    "welcomeTpl" : "costum.views.custom.cocityPrez.home",
    "formId" : "projetId",
    "docId":"id",
    "sourceKey" : true,
    "favicon" : "/ico/cocityPrez/1.ico",
    "metaImg" : "/images/cocityPrez/1.png",
    "js" : {
        "urls" : [ 
            "choices.js" 
        ]
    },
    "css" : {
        "urls" : [ 
            "style.css"
        ],
        "loader" : {
            "background" : "white",
            "ring1" : {
                "color" : "#8ABF32",
                "height" : 360,
                "width" : 360,
                "left" : -15,
                "borderWidth" : 4,
                "top" : -35
            },
            "ring2" : {
                "color" : "#0A96B5",
                "height" : 350,
                "width" : 350,
                "left" : -10,
                "borderWidth" : 5,
                "top" : -30
            }
        },
        "progress" : {
            "value" : {
                "background" : "#bec9f7"
            },
            "bar" : {
                "background" : "#fff"
            }
        },
        "menuApp" : {
            "background" : "#bec9f7",
            "button" : {
                "fontSize" : 25,
                "color" : "#fff",
                "hover" : {
                    "borderBottom" : "2px solid #fff"
                }
            }
        },
        "button" : {
            "footer" : {
                "add" : {
                    "paddingLeft":"10px",
                    "fontSize" :30,
                    "bottom" : 1000,
                    "background" : "transparent",
                    "color" : "#098048"
                },
                "toolbarAdds" : {
                    "bottom" : 10,
                    "paddingLeft":"40px",
                    "fontSize" :50,
                    "left": "0"
                }
            }
        },
        "color" : {
            "purple" : "#bec9f7"
        }
    },
    "dynForm" : {
        "jsonSchema" : {
            "title" : "Template config",
            "type" : "object"
        }
    },
    "appMenusPath":[
        "header.menuTop.left.buttonList.app",
        "header.menuTop.left.buttonList.xsMenu.buttonList.app"
    ],
    "htmlConstruct" : {
        "footer":false,
        "appRendering" : "horizontal",
        "header" : {
            "menuTop" : {
                "left" : {
                    "class":"text-right col-sm-6 col-lg-7 navigator ",
                    "buttonList" : {
                        "xsMenu":{
                            "buttonList":{                               
                                "app":{
                                    "label":true,
                                    "icon":true,
                                    "spanTooltip":true,
                                    "keyListButton":"pages",
                                    "buttonList":{

                                    }
                                }
                            }
                        },
                        "logo" : {
                            "assets" : "costum",
                            "url" : "/images/cocityPrez/kosasa-logo-rvb-couleur_orig.png",
                            "urlMin":"/images/cocityPrez/logo-point.png",
                            "heightMin":40,
                            "widthMin":45
                        },
                        "app" : {
                            "label" : true,
                            "icon" : false,
                            "labelClass" :"",
                            "class": "pull-right hidden-xs padding-5",
                            "tooltips" : true,
                            "buttonList":{

                            }
                        }
                    }
                },
                "right" : {
                    "addClass" : "",
                    "buttonList" : {
                        "login" : false,
                        "languages" : {
                            "connected" : false
                        },
                        "home" : true,
                        "chat" : true,
                        "notifications" : true,
                        "userProfil" : {
                            "img" : true,
                            "name" : true,
                            "dashboard" : true
                        }
                    }
                }
            }
        },

        "menuLeft":{
            "addClass":"align-middle",
            "buttonList":{
                "app":{
                    "buttonList":{
                        "#search": true,
                        "#live":true,
                        "#agenda": true,
                        "#annonces":true,
                        "#dda":true
                    }
                },
                "add":true
            }
        },
        "element" : {
            "tplCss":[
                "v1.0_pageProfil.css"
            ],
            "banner":"co2.views.element.bannerHorizontal",
            "containerClass":{
                "centralSection":"col-xs-12 col-lg-10 col-lg-offset-1"
            },
            "menuTop":{
                "class":"col-xs-12",
                "color": "#fff",
                "left":{
                    "class":"col-lg-3 col-md-3 col-sm-4 hidden-xs no-padding",
                    "buttonList":{
                        "imgUploader":true
                    }   
                },      
                "right":{
                    "class": "col-md-12 col-sm-12 col-lg-12 col-xs-12 text-center",
                    "buttonList":{
                        "xsMenu":{
                            "class":"visible-xs",
                            "buttonList":{
                                "detail":true,
                                "newspaper":true
                            }
                        },
                        "imgProfil":true,
                        "nameProfil":true,
                        "newspaper":true,
                        "detail":true,
                        "gallery":true,
                        "community":true,
                        "events":true,
                        "cospace":true,
                        "create":{
                            "class":"text-green-k visible-xs"
                        },
                        "chat":{
                            "class":"text-red visible-xs"
                        },
                        "share":true,
                        "params":{
                            "buttonList":{
                                "settings":true
                            }
                        }
                    }   
                }
            }
        },
        "directoryViewMode" : "block",
        "directory" : {
            "header" : {
                "map" : false,
                "viewMode" : false,
                "add" : {
                    "proposals" : true
                }
            }
        },
        "redirect" : {
            "logged" : "welcome",
            "unlogged" : "welcome"
        }
    },
    "app" : {
        "#home" : {
            "hash" : "#app.view",
            "icon" : "",
            "urlExtra" : "/page/home/url/costum.views.custom.cocityPrez.home",
            "useHeader" : true,
            "useFooter" : false,
            "useFilter" : false,
            "inMenu" : true,
            "subdomainName" : "Accueil"
        },

        "#annonce" : {
            "hash" : "#app.search",
            "icon" : "",
            "urlExtra" : "/page/annonce",
            "subdomainName" : "Annonce",
            "placeholderMainSearch" : "what are you looking for ?",
            "inMenu":true,
            "useHeader" : false,
            "useFilter" : false,
            "useFooter" : true,
            "filters" : {
                "types" : [
                    "classifieds"
                ]
            },
            "searchObject" : {
                "indexStep" : "0"
            }
        },
        "#live" : {
            "icon" : "",
            "subdomainName" : "Actualité",
            "slug" : "etangsale",
            "formCreate" : false,
            "useFilter" : false,
            "inMenu" : true,
            "viewMode" : "list"
        },
        "#article" : {
            "hash" : "#app.search",
            "icon" : "",
            "urlExtra" : "/page/article",
            "useHeader" : true,
            "useFilter" : false,
            "inMenu" : true,
            "open" : true,
            "subdomainName" : "Articles",
            "filters" : {
                "types" : [ 
                    "poi"
                ],
                "category" : "article"
            },
            "placeholderMainSearch" : "Quel article recherchez-vous ?"
        },
        "#agenda" : {
            "icon" : "",
            "subdomainName" : "Évènement",
            "useFilter" : false,
            "inMenu" : true
        },
        "#project" : {
            "hash" : "#app.search",
            "icon" : "",
            "urlExtra" : "/page/project",
            "subdomainName" : "Tous les projets",
            "placeholderMainSearch" : "what are you looking for ?",
            "inMenu":false,
            "useHeader" : false,
            "useFilter" : true,
            "useFooter" : true,
            "filters" : {
                "types" : [
                    "projects"
                ]
            },
            "searchObject" : {
                "indexStep" : "0"
            }
        },
        "#organization" : {
            "hash" : "#app.search",
            "icon" : "",
            "urlExtra" : "/page/organization",
            "subdomainName" : "Tous les organizations",
            "placeholderMainSearch" : "what are you looking for ?",
            "inMenu":false,
            "useHeader" : false,
            "useFilter" : true,
            "useFooter" : true,
            "filters" : {
                "types" : [
                    "organizations"
                ]
            },
            "searchObject" : {
                "indexStep" : "0"
            }
        },
        "#agriculture" : {
            "hash" : "#app.view",
            "icon" : "",
            "urlExtra" : "/page/agriculture/url/costum.views.custom.etangsale.pageStatic",
            "useHeader" : true,
            "useFooter" : true,
            "useFilter" : false,
            "useMap" : true,
            "inMenu" : true,
            "subdomainName" : "One",
            "bannerImg" : "/images/smarterre/construction/action_perso.jpeg",
            "css" : {
                "color1" : "silver",
                "color2" : "green",
                "color3" : "black"
            },
            "map" : {
                "params" : {
                    "zoom" : 10,
                    "lat" : 10.32,
                    "long" : -12.32
                },
                "filters" : {
                    "category":"cteR",
                    "types" : [
                        "organizations"
                    ]
                }
            }
        },
        "#search": {
            "results" : {
                "smartGrid" : "",
                "renderView" : "directory.elementPanelHtml"
            }
        },
        "#live":true,
        "#agenda": true,
        "#annonces":true,
        "#dda":true
    },
        "typeObj" : {
        "organizations" : {
            "add" : true
        },
        "citoyens" : {
            "add" : true
        },
        "poi" : {
            "add" : true,
            "name" : "Actus",
            "dynFormCostum" : {
                "beforeBuild" : {
                    "properties" : {
                        "name" : {
                            "label" : "Titre de l'actualité",
                            "placeholder" : "Entrez le titre de votre Actualité..."
                        },
                        "parent" : {
                            "label" : "Auteur(s)"
                        },
                        "shortDescription" : {
                            "inputType" : "textarea",
                            "label" : "Court résumé de l'actualité ",
                            "placeholder" : "Entrez un résumé de votre actualité (250 caractères max.)...",
                            "rules" : {
                                "maxlength" : 250
                            },
                            "order" : 5
                        },
                        "description" : {
                            "markdown" : true,
                            "label" : "Texte à ajouter popur plus d'informations",
                            "order" : 7
                        },
                        "image" : {
                            "label" : "Image(s)",
                            "order" : 8
                        },
                        "urls" : {
                            "label" : "Lien(s) : vidéo, page internet ou document...",
                            "order" : 9
                        }
                    }
                },
                "onload" : {
                    "actions" : {
                        "setTitle" : "Ecrire un article",
                        "html" : {
                            "infocustom" : "Formulaire de création d'un article"
                        },
                        "presetValue" : {
                            "type" : "article"
                        },
                        "hide" : {
                            "typeselect" : 1,
                            "breadcrumbcustom" : 1,
                            "locationlocation" : 1
                        }
                    }
                }
            }
        } 
    }
}