
 {
    "slug" : "creercostum",
    "welcomeTpl" : "costum.views.custom.creercostum.home",
    "sourceKey" : true,
    "favicon" : "/ico/creercostum/logo.png",
    "metaImg" : "/images/creercostum/logo.png",
    "logoMin" : "/images/creercostum/logo.png",
    "css" : {
        "urls" : [ 
            "styles.css"
        ],
        "loader" : {
            "background" : "white",
            "ring1" : {
                "color" : "#bec9f7",
                "height" : 360,
                "width" : 360,
                "left" : -15,
                "borderWidth" : 4,
                "top" : -35
            },
            "ring2" : {
                "color" : "#71b62c",
                "height" : 350,
                "width" : 350,
                "left" : -10,
                "borderWidth" : 5,
                "top" : -30
            }
        },
        "progress" : {
            "value" : {
                "background" : "#bec9f7"
            },
            "bar" : {
                "background" : "#fff"
            }
        },
        "menuApp" : {
            "background" : "#bec9f7",
            "button" : {
                "fontSize" : 25,
                "color" : "#fff",
                "hover" : {
                    "borderBottom" : "2px solid #fff"
                }
            }
        },
        "button" : {
            "footer" : {
                "add" : {
                    "bottom" : 25,
                    "background" : "transparent",
                    "color" : "white"
                },
                "toolbarAdds" : {
                    "bottom" : 30
                }
            }
        },
        "color" : {
            "purple" : "#bec9f7"
        }
    },
    "dynForm" : {
        "jsonSchema" : {
            "title" : "Template config",
            "type" : "object",
            "properties" : {
                "text1" : {
                    "label" : "Text 1",
                    "inputType" : "textarea",
                    "path" : "costum.text1"
                },
                "logoMin" : {
                    "label" : "Image Logo",
                    "inputType" : "text",
                    "path" : "costum.logoMin"
                },
                "elementBanner" : {
                    "label" : "Image Banière",
                    "inputType" : "image",
                    "path" : "costum.elementBanner"
                },
                "color1" : {
                    "label" : "Couleur 1",
                    "inputType" : "colorpicker",
                    "path" : "costum.colors.pink"
                },
                "color2" : {
                    "label" : "Couleur 2",
                    "inputType" : "colorpicker",
                    "path" : "costum.colors.dark"
                },
                "typeObj" : {
                    "label" : "Selectionnez les éléments qui peuvent etre ajouter",
                    "inputType" : "select",
                    "placeholder" : "---- Things that can be added ----",
                    "options" : {
                        "poi" : "Point of Interests",
                        "organization" : "Organization",
                        "project" : "projects",
                        "event" : "Events",
                        "person" : "People",
                        "proposal" : "Proposals"
                    },
                    "path" : "costum.slug"
                },
                "menuApp" : {
                    "label" : "Selectionnez les modules qui peuvent etre ajouter",
                    "inputType" : "select",
                    "placeholder" : "---- Active Modules ----",
                    "options" : {
                        "search" : "Search",
                        "agenda" : "Agenda"
                    },
                    "path" : "costum.slug"
                }
            }
        }
    },
    "appMenusPath":[
        "header.menuTop.left.buttonList.app",
        "header.menuTop.left.buttonList.xsMenu.buttonList.app"
    ],
    
    "htmlConstruct" : {
        "appRendering" : "horizontal",
        "header" : {
            "menuTop" : {
                "left" : {
                    "class":"text-left col-sm-6 col-lg-7 navigator",
                    "buttonList" : {
                        "xsMenu":{
                            "buttonList":{
                                "app":{
                                    "label":true,
                                    "icon":true,
                                    "spanTooltip":true,
                                    "keyListButton":"pages",
                                    "labelClass":"padding-left-5",
                                    "buttonList":{
                                        
                                    }
                                },
                                "addxs":{
                                    "label": "Add something",
                                    "icon":"plus",
                                    "href":"javascript",
                                    "class": "open-create-element"
                                }
                            }
                        },
                        "logo" : {
                            "assets" : "costum",
                            "url" : "/images/creercostum/logo.png",
                            "urlMin" : "/images/creercostum/logo.png",
                            "heightMin" : 45,
                            "widthMin" : 45
                        },
                        "app" : {
                            "label" : true,
                            "icon" : false,
                            "class": "pull-right hidden-xs padding-5",
                            "tooltips" : true,
                            "buttonList":{

                            }
                        }
                    }
                },

                "right" : {
                    "addClass" : "",
                    "buttonList" : {
                        "login" : false,
                        "languages" : {
                            "connected" : false
                        },
                        "home" : true,
                        "chat" : true,
                        "notifications" : true,
                        "userProfil" : {
                            "img" : true,
                            "name" : true,
                            "dashboard" : true
                        }
                    }
                }
            }
        },
        "directoryViewMode" : "block",
        "directory" : {
            "header" : {
                "map" : false,
                "viewMode" : false,
                "add" : {
                    "proposals" : true
                }
            }
        },
        "redirect" : {
            "logged" : "welcome",
            "unlogged" : "welcome"
        }
    },
    "app" : {
        "#home" : {
            "hash" : "#app.view",
            "icon" : "",
            "urlExtra" : "/page/home/url/costum.views.custom.creercostum.home",
            "useHeader" : true,
            "useFooter" : true,
            "useFilter" : false,
            "inMenu" : true,
            "subdomainName" : "Accueil"
        }
    },
    "typeObj" : {
        "organizations" : {
            "add" : true
        },
        "citoyens" : {
            "add" : true
        }
    }
}