{
    "welcomeTpl" : "costum.views.custom.home.csc",
    "sourceKey" : true,
    "slug" : "echangeDeRessourcesCentresSociauxConnectes",
    "metaImg" : "/images/csc/banniere_logo.jpg",
    "favicon" : "/ico/csc/favicon.ico",
    "typeObj" : {
        "ressources" : {
            "add" : true
        },
        "organizations" : {
            "add" : true
        },
        "projects" : {
            "add" : true
        },
        "citoyens" : {
            "add" : true
        }
    },
    "htmlConstruct" : {
        "appRendering" : "horizontal",
        "redirect" : {
            "logged" : "annonces",
            "unlogged" : "welcome"
        },
        "header" : {
            "menuTop" : {
                "navLeft" : {
                    "logo" : {
                        "height" : 45
                    },
                    "searchBar" : true,
                    "useFilter" : {
                        "scopeFilter" : true,
                        "showFilter" : true
                    }
                },
                "navRight" : {
                    "connected" : {
                        "dropdownUser" : {
                            "languages" : true,
                            "statistics" : false,
                            "documentation" : false,
                            "donate" : false,
                            "admin" : true,
                            "settings" : false,
                            "logout" : true
                        },
                        "userProfil" : {
                            "img" : true,
                            "name" : true
                        },
                        "networkFloop" : true,
                        "notifications" : true,
                        "dda" : false,
                        "chat" : true,
                        "home" : false,
                        "app" : false
                    },
                    "disconnected" : {
                        "languages" : true,
                        "login" : true
                    }
                }
            }
        },
        "element" : {
            "initView" : "detail",
            "menuLeft" : {
                "detail" : true,
                "gallery" : true,
                "events" : true,
                "projects" : true,
                "community" : true,
                "ressources" : true,
                "collections" : true
            },
            "menuTop" : {
                "news" : true,
                "params" : {
                    "history" : true,
                    "settings" : true,
                    "mindMap" : true,
                    "slug" : true,
                    "delete" : true
                }
            }
        },
        "menuBottom" : {
            "add" : true
        }
    },
    "css" : {
        "loader" : {
            "background" : "white",
            "ring1" : {
                "color" : "#5c5c5c"
            },
            "ring2" : {
                "color" : "#af2392"
            }
        },
        "progress" : {
            "value" : {
                "background" : "#af2392"
            },
            "bar" : {
                "background" : "#fff"
            }
        },
        "color" : {
            "blue" : "#2268b0",
            "red" : "#e95555"
        }
    },
    "app" : {
        "#annonces" : {
            "subdomainName" : "Echanges",
            "icon" : "cogs",
            "filters" : {
                "types" : "ressources"
            }
        }
    },
    "filters" : {
        "sourceKey" : true
    }
}