{
    "slug" : "lapossession",
    "welcomeTpl" : "costum.views.custom.lapossession.home",
    "sourceKey" : true,
    "filters" : {
        "sourceKey" : true
    },
    "favicon" : "/images/lapossession/logoPossession.jpg",
    "metaImg" : "/images/lapossession/logoPossession.jpg",
    "logoMin" : "/images/lapossession/logoPossession.jpg",
    "logo" : "/images/lapossession/logoPossession.jpg",
    "js" : {
        "urls" : [ 
            "lapossession_index.js"
        ]
    },
    "css" : {
        "urls" : [
            "index.css",
            "filters.css"
        ],
        "font" : {
            "url" : "/font/lapossession/MorebiRoundedMediumStencil.otf"
        },
        "loader" : {
            "background" : "white",
            "ring1" : {
                "color" : "#3253a0",
                "height" : 360,
                "width" : 380,
                "left" : -15,
                "borderWidth" : 4,
                "top" : -35
            },
            "ring2" : {
                "color" : "#3ca936",
                "height" : 350,
                "width" : 350,
                "left" : -10,
                "borderWidth" : 5,
                "top" : -30
            }
        },
        "progress" : {
            "value" : {
                "background" : "#3253a0"
            },
            "bar" : {
                "background" : "#3ca936"
            }
        },
        "menuTop" : {
            "background" : "rgba(0,0,0,.6)",
            "button" : {
                "paddingTop" : 1,
                "fontSize" : 25,
                "color" : "white"
            },
            "badge" : {
                "display" : "none"
            },
            "scopeBtn" : {
                "display" : "none"
            },
            "filterBtn" : {
                "display" : "none"
            },
            "connectBtn" : {
                "background" : "#5b2649",
                "color" : "white",
                "fontSize" : 13,
                "borderRadius" : 10,
                "padding" : "8px 15px"
            }
        },
        "menuApp" : {
            "top" : "50",
            "background" : "#f6f6f6",
            "button" : {
                "fontSize" : 25,
                "color" : "#41445c",
                "hover" : {
                    "borderBottom" : "2px solid #fff"
                }
            }
        },
        "button" : {
            "footer" : {
                "add" : {
                    "bottom" : 25,
                    "background" : "transparent",
                    "color" : "black",
                    "fontSize" : 30
                },
                "toolbarAdds" : {
                    "bottom" : 60
                }
            }
        }
    },
    "htmlConstruct" : {
        "appRendering" : "horizontal",
        "redirect" : {
            "logged" : "welcome",
            "unlogged" : "welcome"
        },
        "header" : {
            "menuTop" : {
                "left" : {
                    "buttonList" : {
                        "logo" : {
                            "height" : 40
                        },
                        "xsMenu":{
                            "buttonList":{
                                "app" : {
                                    "icon" : true,
                                    "label" :true,
                                    "labelClass" :"menuTop",
                                    "class": "pull-right hidden-xs padding-5",
                                    "buttonList" : {
                                        "#live" : true,
                                        "#agenda" : true,
                                        "#annonces" : true,
                                        "#annuaire":true
                                    }
                                } 
                            }
                        }
                    }
                },
                "center" : {
                    "class":"text-right col-sm-7 col-lg-7 navigator hidden-xs",
                    "buttonList":{
                        "app" : {
                            "img" : true,
                            "label" :true,
                            "labelClass" :"menuTop",
                            "class": "pull-right hidden-xs padding-5",
                            "buttonList" : {
                                "#live" : true,
                                "#agenda" : true,
                                "#annonces" : true,
                                "#annuaire":true
                            }
                        } 
                    }
                },
                "right" : {
                    "buttonList" : {
                        "networkFloop" : true,
                        "userProfil" : {
                            "img" : true,
                            "name" : true
                        },
                        "dropdown" : {
                            "connected" :true,
                            "buttonList" : {
                                "languages" : true,
                                "admin" : true,
                                "logout" : true
                            }
                        },
                        "login" : true,    
                        "languages" : {
                            "connected" : false
                        }
                    }
                }
            }
        },
        "adminPanel" : {
            "add" : true,
            "statistic" : true,
            "directory" : true,
            "community":{"show":true},
            "reference" : {"show":true}
        },
        "footer" : {
            "url" : "costum.views.custom.lapossession.footer"
        },
        "element" : {
            "js" : "pageProfil.js",
            "css" : "pageProfil.css",
            "banner" : {
                "img" : "/images/lapossession/connexion-lines.jpg",
                "preferences" : false,
                "editButton" : {
                    "dynform" : true
                },
                "badges" : false,
                "headerInfos": "costum.views.custom.lapossession.element.headerInfos"
            },
            "initView" : "home",
            "menuLeft" : false,
            "menuTop" : {
                "left":{
                    "buttonList":{
                        "imgUploader" : true,
                        "share" : true
                    }
                },
                "right":{
                    "buttonList" : {
                        "imgProfil":true,
                        "nameProfil":true,
                        "cospace":true,
                        "newspaper" : true,
                        "gallery" : true,
                        "events" : true,
                        "community" : true,
                        "detail" : true
                    }
                }
            }
        },
        "directoryViewMode" : "block",
        "directory" : {
            "header" : {
                "map" : false,
                "viewMode" : false,
                "add" : false
            },
            "preview" : true
        },
        "menuBottom" : {
            "buttonList" : {
                "add" : {
                    "class" : "pull-right padding-20 bottom-add"
                }
            }
        }
    },
    "typeObj" : {
        "jobs" : {
            "add" : true
        },
        "events" : {
            "add" : true
        },
        "organization" : {  
            "add" : true,
            "dynFormCostum" : {
                "beforeBuild" : {
                    "properties" : {
                        "category" : {
                            "placeholder" : "Catégorie d'action",
                            "inputType" : "select",
                            "label" : "Catégorie",
                            "order" : 5,
                            "options" : {
                                "citoyennete" : "citoyennete",
                                "energie" : "energie",
                                "construction" : "construction",
                                "communs" : "communs",
                                "dechets" : "dechets",
                                "education" : "education",
                                "economie" : "economie",
                                "alimentation/sante" : "alimentation/sante"
                            }
                        }
                    }
                }
            }
        }
    },
    "app" : {
        "#annuaire" : {
            "hash" : "#app.search",
            "icon" : "search",
            "filterObj": "costum.views.custom.lapossession.filters",
            "urlExtra" : "/page/annuaire",
            "img" : "/images/lapossession/icones/Search.svg",
            "subdomainName" : "Recherche",
            "class" : "Annuaire",
            "placeholderMainSearch" : "what are you looking for ?",
            "useHeader" : false,
            "useFilter" : true,
            "useFooter" : true,
            "filters" : {
                "types" : [ 
                    "organizations"
                ]
            },
            "searchObject" : {
                "indexStep" : "0"
            }
        },
        "#annonces" : {
            "hash" : "#app.search",
            "icon" : "cogs",
            "urlExtra" : "/page/Annonces",
            "filterObj": "costum.views.custom.lapossession.filters",
            "subdomainName" : "Les Annonces",
            "img" : "/images/lapossession/icones/annonce.svg",
            "placeholderMainSearch" : "what are you looking for ?",
            "useHeader" : false,
            "useFilter" : false,
            "useFooter" : false,
            "searchObject" : {
                "indexStep" : "0"
            }
        },
        "#agenda" : {
            "filterObj" : "costum.views.custom.lapossession.filters",
            "subdomainName" : "Le calendrier",
            "img" : "/images/lapossession/icones/calendrier.svg",
            "inMenu":true,
            "inMenuTop" : true,
            "useFilter" : false
        },
        "#citoyens" : {
            "hash" : "#app.search",
            "urlExtra" : "/page/citoyens",
            "subdomainName" : "",
            "icon" : "",
            "placeholderMainSearch" : "Tous les citoyens",
            "useHeader" : false,
            "useFilter" : false,
            "useFooter" : false,
            "filters" : {
                "types" :[
                    "citoyens"
                ]
            }, 
            "searchObject" : {
                "indexStep" : "0",
                "links" : [
                    "follows",
                    "memberOf"
                ]
            }
        },
        "#live" : {
            "formCreate" :false,
            "inMenu" : true,
            "inMenuTop" :true,
            "useFilter" : false,
            "useFooter" :false,
            "slug" : "lapossession",
            "subdomainName" : "Actualités",
            "icon" : "",
            "img" : "/images/lapossession/icones/Actu.svg",
            "viewMode" : "list"
        },
        "#search": {
            "hash": "#app.search",
            "subdomain": "map",
            "img" : "/images/lapossession/icones/Carto.svg",
            "filterObj": "costum.views.custom.lapossession.filters",
            "nameMenuTop" : "Carto",
            "icon": "map-marker",
            "inMenu" : true,
            "inMenuLeft" : false,
            "showMap" : true,
            "useFilter": false,
            "useFooter": false,
            "useHeader" : false,
            "subdomainName": "",
            "placeholderMainSearch": "Map",
            "filters": {
                "types": [
                    "organizations",
                    "events"
                ]
            }
        },
        "#mentions" : {
            "hash" : "#app.view",
            "subdomainName" : "",
            "icon" : "",
            "urlExtra" : "/page/lapossession/url/costum.views.custom.lapossession.mentions",
            "inMenu" : false,
            "viewMode" : "list",
            "placeholderMainSearch" : "Mentions légales",
            "useFilter" : false
        },
        "#politiqueConf" : {
            "hash" : "#app.view",
            "subdomainName" : "",
            "icon" : "",
            "urlExtra" : "/page/lapossession/url/costum.views.custom.lapossession.politiqueConf",
            "inMenu" : false,
            "placeholderMainSearch" : "Politique de confidentialité",
            "useFilter" : false
        },
        "#energie" : {
            "hash" : "#app.search",
            "header" : "costum.views.custom.lapossession.filters",
            "urlExtra" : "/page/energie", 
            "subdomainName" : "thematique energie",
            "placeholderMainSearch" : "thematique energie",
            "useHeader" : false,
            "useFilter" : false,
            "useFooter" : true,
            "filters" : {
                "category" : "energie",
                "types" : [ 
                    "organizations"
                ]
            },
            "searchObject" : {
                "indexStep" : "0"
            }
        },
        "#citoyennete" : {
            "hash" : "#app.search",
            "header" : "costum.views.custom.lapossession.filters",
            "urlExtra" : "/page/citoyennete", 
            "subdomainName" : "thématique citoyennete",
            "placeholderMainSearch" : "thématique citoyennete",
            "useHeader" : false,
            "useFilter" : false,
            "useFooter" : true,
            "filters" : {
                "category" : "citoyennete",
                "types" : [ 
                    "organizations"
                ]
            },
            "searchObject" : {
                "indexStep" : "0",
                "sourceKey" : "lapossession"
            }
        },
        "#construction" : {
            "hash" : "#app.search",
            "header" : "costum.views.custom.lapossession.filters",
            "urlExtra" : "/page/construction", 
            "subdomainName" : "thematique construction",
            "placeholderMainSearch" : "thematique construction",
            "useHeader" : false,
            "useFilter" : false,
            "useFooter" : true,
            "filters" : {
                "types" : [ 
                    "organizations"
                ]
            },
            "searchObject" : {
                "indexStep" : "0"
            }
        },
        "#communs" : {
            "hash" : "#app.search",
            "header" : "costum.views.custom.lapossession.filters",
            "urlExtra" : "/page/communs", 
            "subdomainName" : "thématique communs",
            "placeholderMainSearch" : "thematique communs",
            "useHeader" : false,
            "useFilter" : false,
            "useFooter" : true,
            "filters" : {
                "types" : [ 
                    "organizations"
                ]
            },
            "searchObject" : {
                "indexStep" : "0"
            }
        },
        "#dechets" : {
            "hash" : "#app.search",
            "header" : "costum.views.custom.lapossession.filters",
            "urlExtra" : "/page/dechets", 
            "subdomainName" : "thématique dechets",
            "placeholderMainSearch" : "thematique dechets",
            "useHeader" : false,
            "useFilter" : true,
            "useFooter" : true,
            "filters" : {
                "types" : [ 
                    "organizations"
                ]
            },
            "searchObject" : {
                "indexStep" : "0"
            }
        },
        "#education" : {
            "hash" : "#app.search",
            "header" : "costum.views.custom.lapossession.filters",
            "urlExtra" : "/page/education", 
            "subdomainName" : "thématique education",
            "placeholderMainSearch" : "thématique education",
            "useHeader" : false,
            "useFilter" : false,
            "useFooter" : true,
            "filters" : {
                "types" : [ 
                    "organizations"
                ]
            },
            "searchObject" : {
                "indexStep" : "0"
            }
        },
        "#economie" : {
            "hash" : "#app.search",
            "header" : "costum.views.custom.lapossession.filters",
            "urlExtra" : "/page/economie", 
            "subdomainName" : "economie",
            "placeholderMainSearch" : "thématique economie",
            "useHeader" : false,
            "useFilter" : false,
            "useFooter" : true,
            "filters" : {
                "types" : [ 
                    "organizations"
                ]
            },
            "searchObject" : {
                "indexStep" : "0"
            }
        },
        "#alimentation/sante" : {
            "header" : "costum.views.custom.lapossession.filters",
            "hash" : "#app.search",
            "urlExtra" : "/page/alimentation & sante", 
            "subdomainName" : "thématique alimentation/alimentation & sante",
            "placeholderMainSearch" : "alimentation/alimentation & sante",
            "useHeader" : false,
            "useFilter" : false,
            "useFooter" : true,
            "filters" : {
                "types" : [ 
                    "organizations"
                ]
            },
            "searchObject" : {
                "indexStep" : "0"
            }
        }

    }
}
