{
    "bannerTpl" : "leport",
    "welcomeTpl" : "costum.views.custom.home.lePortEmploi20",
    "slug" : "lePortEmploi20",
    "favicon" : "/ico/leportEmploi20/favicon.ico",
    "metaImg" : "/images/lePortEmploi20/LOGO.jpg",
    "typeObj" : {
        "citoyens" : {
            "add" : true
        },
        "jobs" : {
            "add" : true
        },
        "organizations" : {
            "add" : true
        },
        "projects" : {
            "add" : true
        },
        "events" : {
            "add" : true
        }
    },
    "htmlConstruct" : {
        "appRendering" : "horizontal",
        "redirect" : {
            "logged" : "welcome",
            "unlogged" : "welcome"
        },
        "header" : {
            "menuTop" : {
                "navLeft" : {
                    "logo" : {
                        "height" : 40
                    },
                    "searchBar" : true,
                    "useFilter" : {
                        "scopeFilter" : true,
                        "showFilter" : true
                    }
                },
                "navRight" : {
                    "connected" : {
                        "map" : true,
                        "dropdownUser" : {
                            "languages" : true,
                            "statistics" : false,
                            "documentation" : false,
                            "donate" : false,
                            "admin" : true,
                            "settings" : false,
                            "logout" : true
                        },
                        "userProfil" : {
                            "img" : true,
                            "name" : false
                        },
                        "networkFloop" : true,
                        "notifications" : true,
                        "dda" : false,
                        "chat" : false,
                        "home" : false,
                        "app" : false
                    },
                    "disconnected" : {
                        "map" : true,
                        "languages" : true,
                        "login" : true
                    }
                }
            }
        },
        "adminPanel" : {
            "add" : true,
            "menu":{
                "statistic" : true,
                "directory" : true,
                "converter":true,
                "import":true,
                "community" : {"show":true},
                "reference" : {
                    "show":true,
                    "initType" : [ 
                        "organizations"
                    ]
                }
            }
        },
        "element" : {
            "initView" : "detail",
            "menuLeft" : {
                "detail" : true,
                "jobs" : true,
                "community" : true,
                "events" : true,
                "projects" : true
            },
            "menuTop" : {
                "img":true,
                "btnGroup":{
                    "imgProfil":true,
                    "nameProfil":true,
                    "newspaper" : true,
                    "chat":true,
                    "create":true,
                    "params" : {
                        "dropdown":{
                            "history" : true,
                            "editSlug" : true,
                            "delete" : true
                        }
                    }
                }
            }
        },
        "menuBottom" : {
            "donate" : false,
            "add" : true
        }
    },
    "css" : {
        "loader" : {
            "background" : "white",
            "ring1" : {
                "color" : "#ff6209"
            },
            "ring2" : {
                "color" : "#ff0066"
            }
        },
        "progress" : {
            "value" : {
                "background" : "#fe9104"
            },
            "bar" : {
                "background" : "white"
            }
        },
        "menuTop" : {
            "logo" : {
                "borderRadius" : 20
            },
            "boxShadow" : "none",
            "button" : {
                "paddingTop" : 0,
                "fontSize" : 20,
                "lineHeight" : 40
            }
        },
        "menuApp" : {
            "button" : {
                "fontSize" : "14"
            }
        }
    },
    "app" : {
        "#annonces" : {
            "subdomainName" : "Offres d'emplois",
            "icon" : "briefcase",
            "filters" : {
                "types" : [ 
                    "jobs"
                ],
                "section" : [ 
                    "offer"
                ]
            }
        },
        "#search" : {
            "subdomainName" : "Acteurs et initiaves",
            "icon" : "connectdevelop",
            "filters" : {
                "types" : [ 
                    "NGO", 
                    "Group", 
                    "GovernmentOrganization", 
                    "LocalBusiness", 
                    "projects"
                ]
            }
        },
        "#agenda" : {
            "subdomainName" : "Agenda"
        },
        "#live" : {
            "subdomainName" : "Fil d'actualité",
            "filters" : {
                "types" : [ 
                    "news"
                ]
            }
        }
    },
    "filters" : {
        "scopes" : {
            "cities" : "54c0965cf6b95c141800a520"
        }
    }
}