{
    "welcomeTpl" : "costum.views.custom.numerisationlila.evaluation",
    "sourceKey" : true,
    "slug" : "LILAEvaluation",
    "name" : "LILA Evaluation",
    "favicon" : "/images/numerisationlila/logo.png",
    "metaImg" : "/images/numerisationlila/mada-background.jpg",
    "logoMin" : "/images/numerisationlila/logo.png",
    "logo" : "/images/numerisationlila/logo.png",
    "js" : {
        "urls" : [
            
        ]
    },
    "filters" : {
        "sourceKey" : true
    },
    "htmlConstruct" : {
        "appRendering" : "horizontal",
        "redirect" : {
            "logged" : "welcome",
            "unlogged" : "welcome"
        },
        "header" : {
            "menuTop" : {
                "left" : {
                    "buttonList" : {
                        "searchBar" : {
                            "class" : "text-left margin-top-5 margin-left-15 hidden-xs"
                        }
                    }
                },
                "right" : {
                    "addClass" : "margin-top-5",
                    "home" : true,
                    "chat" : true,
                    "notifications" : true,

                    "buttonList" : {
                        "login" : true,
                        "userProfil" : {
                            "img" : true,
                            "name" : true,
                            "dashboard": true
                        }
                    }
                }
            }
        },
        "adminPanel" : {
            "add" : true,
            "menu" : {
                "directory" : true,
                "statistic" : true,
                "converter" : true,
                "import" : true,
                "community" : {
                    "show" : true
                },
                "reference" : {
                    "show" : true
                }
            }
        },
        "directoryViewMode" : "block",
        "directory" : {
            "header" : {
                "map" : false,
                "viewMode" : false,
                "add" : false
            },
            "preview" : true,
            "results" : {
                "projets" : {
                    "defaultImg" : "/images/mednumRhoneAlpe/lightbulb.svg"
                },
                "events" : {
                    "defaultImg" : "/images/mednumRhoneAlpe/lightbulb.svg"
                }
            },
            "footer" : {
                "add" : true
            }
        },
        "menuBottom" : {
            "add" : true
        }
    },
    "css" : {
        "loader" : {
            "background" : "white",
            "ring1" : {
                "color" : "#6abea2",
                "height" : 360,
                "width" : 360,
                "left" : -15,
                "borderWidth" : 4,
                "top" : -35
            },
            "ring2" : {
                "color" : "#313757",
                "height" : 350,
                "width" : 350,
                "left" : -10,
                "borderWidth" : 5,
                "top" : -30
            }
        },
        "progress" : {
            "value" : {
                "background" : "#313757"
            },
            "bar" : {
                "background" : "red"
            }
        },
        "menuTop" : {
            "background" : "#e2e2e2",
            "button" : {
                "paddingTop" : 900,
                "fontSize" : 25,
                "color" : "#00aca9"
            },
            "badge" : {
                "background" : "#497614",
                "border" : "3px solid white"
            },
            "scopeBtn" : {
                "display" : "none"
            },
            "filterBtn" : {
                "display" : "none"
            },
            "connectBtn" : {
                "background" : "#313757",
                "color" : "white",
                "fontSize" : 18,
                "borderRadius" : 10,
                "padding" : "8px 15px"
            }
        },
        "menuApp" : {
            "top" : "55",
            "background" : "#f6f6f6",
            "button" : {
                "fontSize" : 25,
                "color" : "#41445c",
                "hover" : {
                    "borderBottom" : "2px solid #fff"
                }
            }
        },
        "button" : {
            "footer" : {
                "add" : {
                    "bottom" : 10,
                    "background" : "#00aca9",
                    "color" : "white"
                },
                "toolbarAdds" : {
                    "bottom" : 10
                }
            }
        },
        "color" : {
            "blue" : "#41435b",
            "bg-green" : "#00aca9"
        },
        "urls" : [ 
            "index.css", 
            "main.css", 
            "filters.css"
        ],
        "font" : {
            "url" : "/font/coeurEducation/SharpSansNo1-Medium.ttf"
        },
        "menuRight" : {
            "img" : {
                "chat" : "/images/coeurEducation/icon/chat.svg",
                "notifications" : "/images/coeurEducation/icon/notif.svg",
                "networkFloop" : "/images/coeurEducation/icon/people.svg"
            }
        }
    },
    "lists" : {
        "domainAction" : {
            "type" : "badges",
            "category" : "domainAction",
            "sourceKey" : true
        }
    }
}
