{
    "welcomeTpl" : "costum.views.custom.mocica.home",
    "sourceKey" : true,
    "slug" : "mocica",
    "host":"odg.mocica.org",
    "favicon" : "/ico/mocica/favicon.ico",
    "metaImg" : "/images/mocica/title_logo.png",
    "module" : "custom",
    "logo" : "/images/mocica/logo.png",
    "typeObj" : {
        "ressources" : {
            "add" : true
        },
        "organizations" : {
            "add" : true,
            "createLabel" : "Ajouter une assemblée",
            "name" : "Assemblée"
        },
        "events" : {
            "add" : true
        },
        "citoyens" : {
            "add" : true
        }
    },
    "htmlConstruct" : {
        "appRendering" : "horizontal",
        "redirect" : {
            "logged" : "welcome",
            "unlogged" : "welcome"
        },
        "header" : {
            "banner" : "costum.views.custom.mocica.banner",
            "menuTop" : {
                "navLeft" : {
                    "logo" : {
                        "height" : 45
                    },
                    "searchBar" : true,
                    "useFilter" : {
                        "scopeFilter" : true,
                        "showFilter" : true
                    }
                },
                "navRight" : {
                    "connected" : {
                        "dropdownUser" : {
                            "languages" : true,
                            "statistics" : false,
                            "documentation" : false,
                            "donate" : false,
                            "admin" : true,
                            "settings" : false,
                            "logout" : true
                        },
                        "userProfil" : {
                            "img" : true,
                            "name" : true
                        },
                        "networkFloop" : true,
                        "notifications" : true,
                        "dda" : false,
                        "chat" : true,
                        "home" : true,
                        "app" : false
                    },
                    "disconnected" : {
                        "languages" : true,
                        "login" : true
                    }
                }
            }
        },
        "adminPanel" : {
            "add" : true,
            "menu":{
                "statistic" : true,
                "directory" : true,
                "converter":true,
                "import":true,
                "community" : {"show":true},
                "reference" : {
                    "show":true,
                    "initType" : [ 
                        "organizations"
                    ]
                }
            }
        },
        "element" : {
            "initView" : "detail",
            "menuLeft" : {
                "detail" : true,
                "gallery" : true,
                "events" : true,
                "projects" : true,
                "community" : true,
                "ressources" : true,
                "collections" : true
            },
            "menuTop" : {
                "img":true,
                "btnGroup":{
                    "imgProfil":true,
                    "nameProfil":true,
                    "newspaper" : true,
                    "cospace":true,
                    "chat":true,
                    "create":true,
                    "params" : {
                        "dropdown":{
                            "history" : true,
                            "settings" : true,
                            "mindmap" : true,
                            "editSlug" : true,
                            "delete" : true
                        }
                    }
                }
            }
        },
        "menuBottom" : {
            "add" : true
        }
    },
    "css" : {
        "loader" : {
            "background" : "white",
            "ring1" : {
                "color" : "#00B1E4",
                "height" : 360,
                "width" : 360,
                "left" : -15,
                "borderWidth" : 4,
                "top" : -35
            },
            "ring2" : {
                "color" : "#9A1B7E",
                "height" : 350,
                "width" : 350,
                "left" : -10,
                "borderWidth" : 5,
                "top" : -30
            }
        },
        "progress" : {
            "value" : {
                "background" : "#af2392"
            },
            "bar" : {
                "background" : "#fff"
            }
        },
        "color" : {
            "blue" : "#2268b0",
            "red" : "#e95555"
        }
    },
    "app" : {
        "#agenda" : {
            "subdomainName" : "Agenda",
            "icon" : "calendar"
        },
        "#search" : {
            "subdomainName" : "Les assemblées",
            "icon" : "group",
            "filters" : {
                "types" : [ 
                    "Group", 
                    "NGO"
                ]
            }
        },
        "#annonces" : {
            "subdomainName" : "Echanges",
            "icon" : "cogs",
            "filters" : {
                "types" : "ressources"
            }
        }
    },
    "filters" : {
        "sourceKey" : true
    }
}