{
    "admin" : {
        "email" : "notr@agora.org"
    },
    "filters" : {
        "sourceKey" : true
    },
    "class" : {
        "function" : [ "elementBeforeSave", "elementBeforeDelete" ]
    },
    "slug" : "notragora",
    "welcomeTpl" : "costum.views.custom.notragora.home",
    "sourceKey" : true,
    "favicon" : "/ico/notragora/favicon.ico",
    "metaImg" : "/images/notragora/banner.jpg",
    "js" : {
        "urls" : [ 
            "notragora_index.js",
            "sly.min.js"
            
        ]
    },
    "css" : {
        "urls" : [ 
            "menuTop.css"
        ],
        "loader" : {
            "background" : "white",
            "ring1" : {
                "color" : "#b8d065",
                "height" : 360,
                "width" : 360,
                "left" : -15,
                "borderWidth" : 4,
                "top" : -35
            },
            "ring2" : {
                "color" : "#5c4b3e",
                "height" : 350,
                "width" : 350,
                "left" : -10,
                "borderWidth" : 5,
                "top" : -30
            }
        },
        "progress" : {
            "value" : {
                "background" : "#b8d065"
            },
            "bar" : {
                "background" : "#5c4b3e"
            }
        },
        "menuTop" : {
            "background" : "#ffffff",
            "badge" : {
                "background" : "#5b2649",
                "border" : "1px solid white"
            }
        },
        "menuApp" : {
            "background" : "#EA7D24",
            "button" : {
                "color" : "#c6c6c6",
                "hover" : {
                    "background" : "#c6c6c6"
                }
            }
        },
        "button" : {
            "footer" : {
                "add" : {
                    "bottom" : 25,
                    "background" : "#EA7D24",
                    "color" : "white"
                },
                "toolbarAdds" : {
                    "bottom" : 30
                }
            }
        },
        "color" : {
            "purple" : "#213533"
        }
    },
    "htmlConstruct" : {
        "appRendering" : "horizontal",
        "element" : {
            "urlTpl" : {
                "poi" : {
                    "default" : "costum.views.custom.notragora.production"
                },
                "badges" : {
                    "default" : "costum.views.custom.notragora.badges"
                },
                "organizations" : {
                    "default" : "costum.views.custom.notragora.element"
                },
                "citoyens" : {
                    "default" : "costum.views.custom.notragora.element"
                }
            },
            "js" : "pageProfil.js",
            "css" : "pageProfil.css",
            "initView" : "newspaper",
            "containerClass" : {
                "menuTop" : true,
                "menuTopImage" : true,
                "menuTopGroupBtn" : true,
                "menuLeft" : "hidden",
                "centralSection" : "col-xs-12",
                "centralSectionSub" : "col-xs-12 col-md-10 col-md-offset-1 col-lg-10 col-lg-offset-1 shadow2"
            },
            "menuLeft" : false,
            "menuTop" : {
                "img" : true,
                "btnGroup" : {
                    "newspaper" : {
                        "label" : "Newspaper",
                        "icon" : "rss",
                        "class" : "ssmla pull-left",
                        "view" : "newspaper"
                    },
                    "detail" : {
                        "label" : "A Propos",
                        "icon" : "home",
                        "view" : "detail",
                        "class" : "ssmla pull-left"
                    },
                    "community" : {
                        "label" : "Community",
                        "icon" : "users",
                        "class" : "ssmla pull-left",
                        "view" : "community",
                        "dataAttr" : {
                            "icon" : "users"
                        }
                    },
                    "pois":{
                        "label":"Productions",
                        "icon":"video-camera",
                        "class":"ssmla pull-left",
                        "view":"directory",
                        "dataAttr":{
                            "dir":"poi",
                            "icon":"video-camera"
                        }
                    },
                    "create":{
                        "label":"",
                        "icon":"plus-circle fa-2x", 
                        "class":"letter-green hidden-xs",
                        "action":"create",
                        "edit":true
                    }
                }
            }
        },
        "add" : [ 
            "organization", 
            "poi"
        ],
        "subMenu" : {
            "url" : "costum.views.custom.notragora.menuLeft"
        },
        "header" : {
            "searchTypeHtml" : true,
            "banner" : "costum.views.custom.notragora.banner",
            "menuTop" : {
                "left" : {
                    "buttonList" : {
                        "logo" : {
                            "height" : 40
                        },
                        "app" : {
                            "class" : "btn hidden-xs",
                            "label" : false,
                            "icon" : true,
                            "buttonList" : {
                                "#accueil" : true,
                                "#search" : true,
                                "#production" : true,
                                "#map" : true,
                                "#partner" : true,
                                "#apropos" : true
                            }
                        },
                        "xsMenu" : {
                            "buttonList" : {
                                "app" : {
                                    "label" : false,
                                    "icon" : true,
                                    "buttonList" : {
                                        "#agenda" : true,
                                        "#search" : true,
                                        "#annonces" : true,
                                        "#who" : true,
                                        "#contact" : true,
                                        "#mention" : true
                                    }
                                },
                                "logout" : true
                            }
                        }
                    }
                },
                "right" : {
                    "class" : "navbar-collapse pull-right navbar-right no-padding",
                    "buttonList" : {
                        "searchBar" : true,
                        "notifications" : true,
                        "networkFloop" : true,
                        "userProfil" : {
                            "img" : true
                        },
                        "dropdown" : {
                            "connected" : true,
                            "buttonList" : {
                                "admin" : true,
                                "logout" : true
                            }
                        },
                        "register" : true,
                        "login" : true
                    }
                }
            }
        },
        "adminPanel" : {
            "js":true,
            "add" : true,
            "menu":{
                "statistic" : true,
                "directory" : {
                    "label" : "Utilisateurs",
                    "show":true
                },
                "community" : {
                    "label" : "Admin",
                    "show":true
                },
                "group" : {
                    "label" : "Groupes de travail",
                    "class" : "text-dark",
                    "view":"group",
                    "icon" : "group"
                },
                "productions" : {
                    "label" : "Productions",
                    "class" : "text-red",
                    "view":"productions",
                    "icon" : "video-camera"
                },
                "collections" : {
                    "label" : "Collections",
                    "class" : "text-green",
                    "view" : "collections",
                    "icon" : "folder-open"
                },
                "genres" : {
                    "label" : "Genres",
                    "class" : "text-brown",
                    "view" : "genres",
                    "icon" : "folder-open-o"
                }
            }
        },
        "directoryViewMode" : "block",
        "directory" : {
            "header" : {
                "class" : "col-xs-12 ",
                "map" : true,
                "viewMode" : false
            },
            "footer" : {
            },
            "body" : {
                "class" : "col-xs-12 "
            }
        },
        "footer" : {
            "url" : "costum.views.custom.notragora.footer"
        },
        "redirect" : {
            "logged" : "welcome",
            "unlogged" : "welcome"
        }
    },
    "app" : {
        "#accueil" : {
            "hash" : "#app.welcome",
            "icon" : "home",
            "subdomainName" : "",
            "placeholderMainSearch" : "Accueil",
            "inMenu" : true,
            "dropdownResult" : true
        },
        "#search" : {
            "icon" : "group",
            "subdomainName" : "",
            "placeholderMainSearch" : "Groupe de travail",
            "useFilter" : false,
            "filters" : {
                "types" : [ 
                    "NGO","LocalBusiness","Group","GovernmentOrganization"
                ]
            },
            "searchObject" : {
                "filters": {
                    "categoryNA" : [ "group" ]
                }
            }
        },
        "#production" : {
            "hash" : "#app.search",
            "inMenu" : true,
            "urlExtra" : "/page/production",
            "icon" : "video-camera",
            "subdomainName" : "",
            "placeholderMainSearch" : "Productions",
            "useFilter" : false,
            "map" : {
                "hash" : "#map"
            },
            "filters" : {
                "types" : [ 
                    "poi", "poi"
                ]
            }
        },
        "#map" : {
            "inMenu" : true,
            "icon" : "map",
            "subdomainName" : "",
            "mainTitle" : "Cartes",
            "placeholderMainSearch" : "Cartes",
            "filtres" : {
                "types" : ["poi"]
            }
        },
        "#partner" : {
            "hash" : "#app.search",
            "urlExtra" : "/page/partner",
            "inMenu" : true,
            "icon" : "handshake-o",
            "subdomainName" : "",
            "placeholderMainSearch" : "Partenaires",
            "useFilter" : false,
            "filters" : {
                "types" : [ 
                    "NGO","LocalBusiness","Group","GovernmentOrganization"
                ]
            },
            "searchObject" : {
                "filters": {
                    "categoryNA" : [ "partner", "producors", "supports" ]
                }
            }
        },
        "#apropos" : {
            "hash" : "#app.view",
            "icon" : "star",
            "urlExtra" : "/page/apropos/url/costum.views.custom.notragora.apropos",
            "useHeader" : true,
            "useFilter" : false,
            "inMenu" : true,
            "subdomainName" : "",
            "placeholderMainSearch" : "A Propos"
        }
    },
    "typeObj" : {
        "organization" : {
            "add" : false,
            "dynFormCostum" : {
                "beforeBuild" : {
                    "properties" : {
                        "description" : {
                            "inputType" : "textarea",
                            "markdown" : true,
                            "label" : "Description",
                            "placeholder" : "Description",
                            "order" : 6
                        },
                        "tags" : {
                            "inputType" : "tags",
                            "placeholder" : "Ajouter des tags",
                            "values" : null,
                            "label" : "Ajouter des tags",
                            "group" : null,
                            "minimumInputLength" : 0,
                            "order" : 7
                        }
                    }
                },
                "onload" : {
                    "actions" : {
                        "presetValue" : {
                            "type" : "NGO"
                        },
                        "hide" : {
                            "typeselect" : 1,
                            "urltext" : 1,
                            "emailtext" : 1,
                            "shortDescriptiontextarea" : 1,
                            "categoryselect" : 1,
                            "tags1tags" : 1,
                            "tags2tags" : 1
                        }
                    }
                }
            }
        },
        "poi" : {
            "createLabel" : "Ajouter une production",
            "add" : false,
            "dynFormCostum" : {
                "beforeBuild" : {
                    "properties" : {
                        "name" : {
                            "label" : "Nom de votre production"
                        },
                        "urls": {
                            "label" : "Url votre production",
                            "order" : 6
                        },
                        "tags1" : {
                            "inputType" : "tags",
                            "label" : "Collections",
                            "placeholder" : "Choisir une collection",
                            "minimumInputLength" : 0,
                            "tagsList" : "collections",
                            "order" : 7
                        },
                        "tags2" : {
                            "inputType" : "tags",
                            "label" : "Genres",
                            "placeholder" : "Choisir un genre",
                            "minimumInputLength" : 0,
                            "tagsList" : "genres",
                            "order" : 8
                        },
                        "tags" : {
                            "inputType" : "tags",
                            "placeholder" : "Ajouter des tags",
                            "values" : null,
                            "label" : "Ajouter des tags",
                            "group" : null,
                            "minimumInputLength" : 0,
                            "order" : 9
                        }
                    }
                },
                "onload" : {
                    "actions" : {
                        "setTitle" : "Créer une production",
                        "presetValue" : {
                            "type" : "video"
                        },
                        "html" : {
                            "titletext>label" : "",
                            "infocustom" : ""
                        },
                        "hide" : {
                            "breadcrumbcustom" : 1,
                            "imageuploader" : 1,
                            "urlsarrayBtn" : 1,
                            "parentfinder" : 1,
                            "removePropLineBtn" : 1
                        }
                    }
                },
                "afterSave" : "costum.notragora.poi.afterSave"
            }
        },
        "collections" : {
            "color" : "green",
            "name" : "Collection",
            "add" : "onlyAdmin",
            "createLabel" : "Ajouter une collection",
            "icon" : "folder-open",
            "sameAs" : "badge",
            "formType" : "collections",
            "formParent" : "badge",
            "explainText":"",
            "dynFormCostum" : {
                "beforeBuild" : {
                    "properties" : {
                        "name" : {
                            "label" : "Titre de la collection",
                            "order":3,
                            "placeholder" : "Titre de la collection"
                        },
                        "category" : {
                            "inputType" : "hidden",
                            "label" : "",
                            "placeholder" : "",
                            "value" : "collections"
                        }
                    }
                },
                "onload" : {
                    "actions" : {
                        "setTitle" : "Ajouter une collection",
                        "hide" : {
                            "parentfinder" : 1,
                            "icontext" : 1,
                            "colortext" : 1,
                            "imguploader" : 1,
                            "structagstags" : 1,
                            "tags1tags" : 1,
                            "tags2tags" : 1
                        }
                    }
                },
                "afterSave" : "costum.notragora.badges.afterSave"
            }
        },
        "genres" : {
            "color" : "brown",
            "name" : "Genres",
            "add" : "onlyAdmin",
            "createLabel" : "Ajouter un genre",
            "icon" : "folder-open-o",
            "sameAs" : "badge",
            "formType" : "genres",
            "formParent" : "badge",
            "explainText":"",
            "dynFormCostum" : {
                "beforeBuild" : {
                    "properties" : {
                        "name" : {
                            "label" : "Titre du genre",
                            "order":3,
                            "placeholder" : "Titre du genre"
                        },
                        "category" : {
                            "inputType" : "hidden",
                            "label" : "",
                            "placeholder" : "",
                            "value" : "genres"
                        }
                    }
                },
                "onload" : {
                    "actions" : {
                        "setTitle" : "Ajouter un genre",
                        "hide" : {
                            "parentfinder" : 1,
                            "icontext" : 1,
                            "colortext" : 1,
                            "imguploader" : 1,
                            "structagstags" : 1,
                            "tags1tags" : 1,
                            "tags2tags" : 1
                        }
                    }
                },
                "afterSave" : "costum.notragora.badges.afterSave"
            }
        }
    },
    "lists":{        
        "collections":{
            "type":"badges",
            "category":"collections",
            "sourceKey":true,
            "typeList" : "array"
        },
        "genres":{
            "type":"badges",
            "category":"genres",
            "sourceKey":true,
            "typeList" : "array"
        }
    },
    "dynForm" : {
        "extra" : {
            "tags" : {},
            "tags1" : { 
                "list" : "collections",
                "placeholder" : "Ajouter une Géographique"
            },
            "tags2" : {
                "list" : "genres",
                "placeholder" : "Ajouter une Structures"
            }
        }
    }
}