{
    "welcomeTpl" : "costum.views.custom.pixelHumain.home",
    "name" : "test",
    "sourceKey" : true,
    "slug" : "pixelHumain",
    "favicon" : "/images/pixelHumain/icone.png",
    "metaImg" : "/images/pixelHumain/logo.png",
    "logoMin" : "/images/pixelHumain/logo.png",
    "logo" : "/images/pixelHumain/logo.png",
    "js" : {
        "urls" : [
            "pixelHumain_index.js"
        ]
    },
    "filters" : {
        "sourceKey" : true
    },
    "htmlConstruct" : {
        "appRendering" : "vertical",
        "redirect" : {
            "logged" : "welcome",
            "unlogged" : "welcome"
        },
        "header" : {
            "menuTop" : {
                "navLeft" : {
                    "logo" : {
                        "height" : 40
                    },
                    "searchBar" : true,
                    "useFilter" : {
                        "scopeFilter" : false,
                        "showFilter" : false
                    }
                },
                "navRight" : {
                    "connected" : {
                        "dropdownUser" : {
                            "languages" : false,
                            "statistics" : false,
                            "documentation" : false,
                            "donate" : false,
                            "admin" : true,
                            "settings" : false,
                            "logout" : true
                        },
                        "userProfil" : {
                            "img" : true,
                            "name" : true
                        },
                        "networkFloop" : true,
                        "notifications" : true,
                        "dda" : false,
                        "chat" : true,
                        "home" : false,
                        "app" : true
                    },
                    "disconnected" : {
                        "languages" : false,
                        "login" : true
                    }
                }
            }
        },
        "adminPanel" : {
            "add" : true,
            "menu" : {
                "directory" : true,
                "statistic" : true,
                "converter" : true,
                "import" : true,
                "community":{
                    "show": true
                },
                "reference" : {
                    "show": true
                }
            }
        },
        "directory" : {
            "results" : {
                "organizations" : {
                    "defaultImg" : "/images/pixelHumain/default_directory.png"
                },
                "projects" : {
                    "defaultImg" : "/images/pixelHumain/default_directory.png"
                },
                "events" : {
                    "defaultImg" : "/images/pixelHumain/default_directory.png"
                }
            },
            "preview" : true,
            "footer" : {
                "add" : false
            }
        },
        "footer" : {
            "url" : "costum.views.custom.pixelHumain.footer"
        },
        "element" : {
            "js" : "pageProfil.js",
            "css" : "pageProfil.css",
            "initView" : "newspaper",
            "banner" : {
                "img" : "/images/pixelHumain/banner.jpg",
                "preferences" : true,
                "editButton" : {
                    "dynform" : true
            },
            "headerInfos": "costum.views.custom.pixelHumain.element.headerInfos"
        },
            "menuLeft" : {
                "detail" : true,
                "gallery" : true,
                "events" : true,
                "projects" : true,
                "community" : true,
                "collections":{
                    "label": "Favoris",
                    "icon":"star",
                    "class":"",
                    "separator":true,
                    "view":"directory",
                    "dataAttr":{
                        "dir":"collections",
                        "icon":"star"
                    },
                    "typeAllow":["citoyens"]
                }
            },
            "menuTop" : {
                "img" : true,
                "btnGroup" : {
                    "imgProfil" : true,
                    "nameProfil" : true,
                    "newspaper" : true,
                    "cospace" : false,
                    "chat" : false,
                    "create" : false,
                    "params" : {
                        "dropdown" : true
                    }
                },
                "navRight" : {
                    "connected" : {
                        "dropdownUser" : {
                            "languages" : true,
                            "statistics" : false,
                            "documentation" : false,
                            "donate" : false,
                            "admin" : true,
                            "settings" : false,
                            "logout" : true
                        },
                        "userProfil" : {
                            "img" : true
                        },
                        "networkFloop" : false,
                        "notifications" : true,
                        "dda" : false,
                        "chat" : false,
                        "home" : false,
                        "app" : false
                    },
                    "disconnected" : {
                        "languages" : false,
                        "login" : true,
                        "app" : true
                    }
                }
            }
        },
        "menuBottom" : {
            "add" : true
        }
    },
    "css" : {
        "loader" : {
            "background" : "white",
            "ring1" : {
                "color" : "#f8e600",
                "height" : 360,
                "width" : 360,
                "left" : -15,
                "borderWidth" : 4,
                "top" : -35
            },
            "ring2" : {
                "color" : "#2A353D",
                "height" : 350,
                "width" : 350,
                "left" : -10,
                "borderWidth" : 5,
                "top" : -30
            }
        },
        "progress" : {
            "value" : {
                "background" : "#313757"
            },
            "bar" : {
                "background" : "red"
            }
        },
        "menuTop" : {
            "background" : "white",
            "button" : {
                "paddingTop" : 900,
                "fontSize" : 25,
                "color" : "black"
            },
            "badge" : {
                "background" : "#497614",
                "border" : "3px solid white"
            },
            "scopeBtn" : {
                "display" : "none"
            },
            "filterBtn" : {
                "display" : "none"
            },
            "connectBtn" : {
                "background" : "#313757",
                "color" : "white",
                "fontSize" : 18,
                "borderRadius" : 10,
                "padding" : "8px 15px"
            }
        },
        "menuApp" : {
            "top" : "55",
            "background" : "white",
            "button" : {
                "fontSize" : 25,
                "color" : "black",
                "hover" : {
                    "borderBottom" : "2px solid #fff"
                }
            }
        },
        "button" : {
            "footer" : {
                "add" : {
                    "bottom" : 10,
                    "background" : "transparent",
                    "color" : "black"
                },
                "toolbarAdds" : {
                    "bottom" : 10
                }
            }
        },
        "urls" : [
            "index.css"
        ]
    },
    "app" : {
        "#citoyens" : {
            "hash" : "#app.search",
            "urlExtra" : "/page/citoyens", 
            "subdomainName" : "Les pixels",
            "icon" : "search",
            "inMenu": true,
            "inMenuTop" : false,
            "inMenuLeft" :true,
            "placeholderMainSearch" : "Les pixels",
            "useHeader" : false,
            "useFilter" : false,
            "useFooter" : true,
            "filters" : {
                "community" : {
                    "memberOf" : true
                },
                "types" :[
                    "citoyens"
                ]
            }, 
            "searchObject" : {
                "indexStep" : "10"
            }
        },
        "#live" : {
            "subdomainName" : "Actualités",
            "class" : "Annuaire",
            "slug" : "pixelHumain",
            "formCreate" : false,
            "inMenu" : true,
            "inMenuTop" : false,
            "inMenuLeft" : true,
            "useFilter" : false,
            "viewMode" : "list"
        },
        "#agenda" : {
            "subdomainName" : "Évènements",
            "inMenu" : true,
            "inMenuTop" : false,
            "inMenuLeft" : true
        }
    },
    "typeObj" : {
        "persons" : {
            "add": true
        },
        "event":{
            "add": true
        },
        "projects" : {
            "add" : true
        }
    }
}
