{
    "slug" : "pte",
    "welcomeTpl" : "costum.views.custom.pte.collectif",
    "sourceKey" : true,
    "favicon" : "/ico/pte/favicon.ico",
    "metaImg" : "/images/pte/banner.png",
    "logoMin" : "/images/pte/logo-min.png",
    "js" : {
        "urls" : [ 
            "index.js"
        ]
    },
    "css" : {
        "urls" : [ 
            "index.css"
        ],
        "font" : {
            "url" : "/font/pte/fengardoneue_regular-webfont.ttf"
        },

        "loader" : {
            "background" : "white",
            "ring1" : {
                "color" : "#6d925c",
                "height" : 360,
                "width" : 360,
                "left" : -15,
                "borderWidth" : 4,
                "top" : -35
            },
            "ring2" : {
                "color" : "#6d925c",
                "height" : 350,
                "width" : 350,
                "left" : -10,
                "borderWidth" : 5,
                "top" : -30
            }
        },
        "progress" : {
            "value" : {
                "background" : "#62a444ff"
            },
            "bar" : {
                "background" : "#fff"
            }
        },
        "menuTop" : {
            "background" : "white",
            "button" : {
                "paddingTop" : 0,
                "fontSize" : 30,
                "color" : "#6d925c"
            },
            "app" : {
                "paddingLeft" : "30px",
                "button" : {
                    "fontSize" : 24,
                    "fontWeight" : 800,
                    "paddingBottom" : "0px",
                    "marginLeft" : "10px",
                    "textTransform" : "capitalize",
                    "color" : "#6d925c"
                }
            },
            "scopeBtn" : {
                "color" : "#6d925c"
            },
            "filterBtn" : {
                "color" : "#6d925c"
            },
            "badge" : {
                "background" : "#6d925c",
                "border" : "1px solid white"
            },
            "connectBtn" : {
                "background" : "#6d925c",
                "color" : "#6d925c",
                "fontSize" : 18,
                "borderRadius" : 10,
                "padding" : "8px 15px"
            }
        },
        "menuApp" : {
            "background" : "#6d925c",
            "button" : {
                "fontSize" : 25,
                "color" : "#fff",
                "hover" : {
                    "borderBottom" : "2px solid #fff"
                }
            }
        },
        "button" : {
            "footer" : {
                "add" : {
                    "bottom" : 25,
                    "background" : "transparent",
                    "color" : "white"
                },
                "toolbarAdds" : {
                    "bottom" : 30
                }
            }
        },
        "color" : {
            "green" : "#6d925c"
        }
    },
    "htmlConstruct" : {
        "appRendering" : "horizontal",
        "header" : {
            "menuTop" : {
                "navLeft" : {
                    "logo" : {
                        "height" : 60
                    },
                    "app" : {
                        "label" : true,
                        "icon" : false,
                        "tooltips" : false
                    },
                    "searchBar" : false,
                    "useFilter" : {
                        "scopeFilter" : false,
                        "showFilter" : false
                    }
                },
                "navRight" : {
                    "connected" : {
                        "dropdownUser" : {
                            "languages" : false,
                            "statistics" : false,
                            "documentation" : false,
                            "donate" : false,
                            "admin" : true,
                            "settings" : false,
                            "logout" : true
                        },
                        "userProfil" : {
                            "img" : true,
                            "name" : false
                        },
                        "networkFloop" : false,
                        "notifications" : false,
                        "dda" : false,
                        "chat" : false,
                        "home" : false
                    },
                    "disconnected" : {
                        "languages" : false,
                        "login" : true
                    }
                }
            }
        },
        "subMenu" : false,
        "menuBottom" : {
            "add" : false,
            "donate" : false
        },
        "adminPanel" : {
            "add" : true,
            "statistic" : true,
            "directory" : true,
            "community" : true,
            "reference" : {
                "initType" : [ 
                    "organizations"
                ]
            }
        },
        "directoryViewMode" : "block",
        "directory" : {
            "header" : {
                "map" : false,
                "viewMode" : false,
                "add" : {
                    "proposals" : true
                }
            },
            "results" : {
                "proposals" : {
                    "defaultImg" : "/images/pte/default_directory.png"
                }
            },
            "footer" : {
                "add" : true
            }
        },
        "footer" : {
            "url" : "costum.views.custom.pte.footer"
        },

        "element" : {
            "initView" : "detail",
            "menuLeft" : {
                "detail" : true,
                "gallery" : true,
                "community" : true
            },
            "menuTop" : {
                "news" : true,
                "params" : {
                    "history" : true,
                    "slug" : true,
                    "delete" : true
                }
            }
        },
        "redirect" : {
            "logged" : "welcome",
            "unlogged" : "welcome"
        }
    },
    "filters" : {
        "sourceKey" : true,
        "searchTypeGS" : [ 
            "proposals"
        ]
    },
    "app" : {
        
        "#home" : {
            "hash" : "#app.view",
            "icon" : "",
            "urlExtra" : "/page/home/url/costum.views.custom.pte.collectif",
            "useHeader" : true,
            "useFooter" : true,
            "useFilter" : false,
            "inMenu" : true,
            "subdomainName" : "Le Collectif"
        },
        
        "#liste" : {
            "hash" : "#app.view",
            "icon" : "",
            "urlExtra" : "/page/liste/url/costum.views.custom.pte.collectif",
            "useHeader" : true,
            "useFooter" : true,
            "useFilter" : false,
            "inMenu" : true,
            "subdomainName" : "Le Collectif"
        },
        
        "#dda" : {
            "title" : "Les Propositions",
            "subdomainName" : "Propositions",
            "placeholderMainSearch" : "Que cherchez vous ?",
            "icon":"",
            "showInviteBtn":false,
            "showAmendmentBlock":true,
            "showExternLinkBlock":false
        },
        
        "#live" : {
            "title":    "Les actualités",
            "subdomainName" : "Actualités",
            "placeholderMainSearch" : "Que cherchez vous ?",
            "slug" : "pte",
            "formCreate" : false,
            "useFilter" : false,
            "icon":"",
            "showAskLogin":false
        },
                
        "#mentions" : {
            "hash" : "#app.view",
            "icon" : "",
            "urlExtra" : "/page/mentions/url/costum.views.custom.pte.mentions",
            "useHeader" : true,
            "useFooter" : true,
            "useFilter" : false,
            "inMenu" : false,
            "subdomainName" : "Mentions légales"
        }
        

    },
    "searchOpenMenu" : {
        "url" : "#dda",
        "msg" : "Toutes les idées"
    },
    "typeObj" : {
        "organizations" : {
            "add" : true
        },
        "proposals" : {
            "add" : "true",
            "color" : "green",
            "name" : "Idée",
            "createLabel" : "Ajouter une proposition",
            "dynFormCostum" : {
                "onload" : {
                    "actions" : {
                        "formatAmendVote" : 1,
                        "adminOnly" : {
                            "producerfinder" : 1,
                            "imageuploader" : 1
                        },
                        "setTitle" : "Ajouter une proposition",
                        "html" : {
                            "titletext>label" : "Détail de la proposition",
                            "infocustom" : "Ajoutez ici des propositions qui seront ainsi rendues visibles, discutées, voir votées sur cet espace. A ce stade, les propoositions ne sont pas triées ni sélectionnées."
                        },
                        "presetValue" : {
                            "voteDateEnd" : "28/03/2020 23:59",
                            "voteAnonymous" : true,
                            "voteCanChange" : true,
                            "majority" : 50,
                            "amendementAndVote" : true,
                            "amendementActivated" : true,
                            "multiChoicecheckboxSimple" : true
                        },
                        "hide" : {
                            "voteDateEnddatetime" : 1,
                            "urlsarray" : 1,
                            "voteAnonymouscheckboxSimple" : 1,
                            "voteCanChangecheckboxSimple" : 1,
                            "majoritytext" : 1,
                            "amendementAndVotecheckboxSimple" : 1,
                            "amendementActivatedcheckboxSimple" : 1,
                            "multiChoicecheckboxSimple" : 1,
                            "answersarray" : 1,
                            "multiChoicecheckboxSimple" : 1,
                            "producerfinder" : 1
                        }
                    }
                }
            }
        },
        "citoyens" : {
            "add" : true
        }
    }
}

