{
    "welcomeTpl" : "costum.views.custom.templateCostumDesTiersLieux.home",
    "isTemplate" : true,
    "sourceKey" : true,
    "slug" : "templateCostumDesTiersLieux",
    "favicon" : "/images/laCompagnieDesTierslieux/logo.png",
    "metaImg" : "/images/laCompagnieDesTierslieux/banner.png",
    "shortDescription" : "Testez notre costum qui se base sur le design des tiers lieux avec la possibilité de moduler ces app à sa guise",
    "name" : "Tiers lieux Générique",
    "filters" : {
        "sourceKey" : true
    },
    "dynForm" : {
        "jsonSchema" : {
            "title" : "Template config",
            "type" : "object",
            "properties" : {
                "title1" : {
                    "label" : "Title 1",
                    "path" : "costum.cms.title1"
                },
                "subtitle1" : {
                    "label" : "Sub Title 1",
                    "path" : "costum.cms.subtitle1"
                },
                "text1" : {
                    "label" : "Text 1",
                    "inputType" : "textarea",
                    "path" : "costum.cms.text1"
                },
                "logoMin" : {
                    "label" : "Image Logo",
                    "inputType" : "text",
                    "path" : "costum.logoMin"
                },
                "elementBanner" : {
                    "label" : "Image Banière",
                    "inputType" : "image",
                    "path" : "costum.elementBanner"
                },
                "color1" : {
                    "label" : "Couleur 1",
                    "inputType" : "colorpicker",
                    "path" : "costum.colors.pink"
                },
                "color2" : {
                    "label" : "Couleur 2",
                    "inputType" : "colorpicker",
                    "path" : "costum.colors.dark"
                },
                "typeObj" : {
                    "label" : "Selectionnez les éléments qui peuvent etre ajouter",
                    "inputType" : "select",
                    "placeholder" : "---- Things that can be added ----",
                    "options" : {
                        "poi" : "Point of Interests",
                        "organization" : "Organization",
                        "project" : "projects",
                        "event" : "Events",
                        "person" : "People",
                        "proposal" : "Proposals"
                    },
                    "path" : "costum.slug"
                },
                "menuApp" : {
                    "label" : "Selectionnez les modules qui peuvent etre ajouter",
                    "inputType" : "select",
                    "placeholder" : "---- Active Modules ----",
                    "options" : {
                        "search" : "Search",
                        "agenda" : "Agenda"
                    },
                    "path" : "costum.slug"
                }
            }
        }
    },
    "htmlConstruct" : {
        "appRendering" : "horizontal",
        "redirect" : {
            "logged" : "welcome",
            "unlogged" : "welcome"
        },
        "header" : {
            "menuTop" : {
                "navLeft" : {
                    "logo" : {
                        "height" : 40
                    },
                    "searchBar" : false
                },
                "navRight" : {
                    "connected" : {
                        "dropdownUser" : {
                            "languages" : false,
                            "statistics" : false,
                            "documentation" : false,
                            "donate" : false,
                            "admin" : true,
                            "settings" : false,
                            "logout" : true
                        },
                        "userProfil" : {
                            "img" : true,
                            "name" : true
                        },
                        "networkFloop" : false,
                        "notifications" : false,
                        "dda" : false,
                        "chat" : false,
                        "home" : false,
                        "app" : false,
                        "map" : false
                    },
                    "disconnected" : {
                        "languages" : false,
                        "login" : true,
                        "map" : false
                    }
                }
            }
        },
    "footer" : false,
    "directory" : {
        "results" : {
            "organizations" : {
                "defaultImg" : "/images/templateCostum/no-banner.jpg"
            }
        },
        "footer" : {
            "add" : false
        }
    },
    "adminPanel" : {
        "add" : true,
        "statistic" : true,
        "directory" : true,
        "community":{"show":true},
        "reference" : {"show":true}
    },
    "element" : {
        "menuLeft" : {
            "detail" : true,
            "gallery" : true,
            "events" : true,
            "projects" : true,
            "community" : true
        },
        "menuTop" : {
            "img" : true,
            "btnGroup" : {
                "imgProfil" : true,
                "nameProfil" : true,
                "newspaper" : false,
                "cospace" : false,
                "chat" : false,
                "create" : false,
                "params" : {
                    "dropdown" : true
                }
            },
            "navRight" : {
                "connected" : {
                    "dropdownUser" : {
                        "languages" : true,
                        "statistics" : false,
                        "documentation" : false,
                        "donate" : false,
                        "admin" : true,
                        "settings" : false,
                        "logout" : true
                    },
                    "userProfil" : {
                        "img" : true
                    },
                    "networkFloop" : true,
                    "notifications" : true,
                    "dda" : false,
                    "chat" : true,
                    "home" : true,
                    "app" : false
                },
                "disconnected" : {
                    "languages" : false,
                    "login" : true,
                    "app" : false
                }
            }
        }
    }
    },
    "css" : {
        "loader" : {
            "background" : "white",
            "ring1" : {
                "color" : "#00acaa",
                "height" : 360,
                "width" : 360,
                "left" : -15,
                "borderWidth" : 4,
                "top" : -35
            },
            "ring2" : {
                "color" : "#95c235",
                "height" : 350,
                "width" : 350,
                "left" : -10,
                "borderWidth" : 5,
                "top" : -30
            }
        },
        "progress" : {
            "value" : {
                "background" : "#313757"
            },
            "bar" : {
                "background" : "red"
            }
        },
        "menuTop" : {
            "background" : "#e2e2e1",
            "button" : {
                "paddingTop" : 900,
                "fontSize" : 25,
                "color" : "#2cb522"
            },
            "badge" : {
                "background" : "#497614",
                "border" : "3px solid white"
            },
            "scopeBtn" : {
                "display" : "none"
            },
            "filterBtn" : {
                "display" : "none"
            },
            "connectBtn" : {
                "background" : "#95c235",
                "color" : "white",
                "fontSize" : 18,
                "borderRadius" : 10,
                "padding" : "8px 15px"
            }
        },
        "menuApp" : {
            "top" : "60",
            "background" : "#f6f6f6",
            "button" : {
                "fontSize" : 25,
                "color" : "#00acaa",
                "hover" : {
                    "borderBottom" : "2px solid #fff"
                }
            }
        },
        "button" : {
            "footer" : {
                "add" : {
                    "bottom" : 10,
                    "background" : "#c8d400",
                    "color" : "white"
                },
                "toolbarAdds" : {
                    "bottom" : 10
                }
            }
        },
        "header" : {
            "background" : "#97bf1e"
        },
        "footer" : {
            "background" : "#91a926",
            "color" : "white"
        },
        "color" : {
            "blue" : "#354d57",
            "bg-green" : "#95c235"
        }
    },
    "app" : {
        "#home" : {
            "subdomainName" : "Accueil"
        },
        "#search" : {
            "hash" : "#app.search",
            "icon" : "search",
            "urlExtra" : "/page/annuaire",
            "subdomainName" : "Recherche",
            "placeholderMainSearch" : "what are you looking for ?",
            "inMenu":true,
            "useHeader" : false,
            "useFilter" : true,
            "useFooter" : true,
            "filters" : {
                "types" : [
                    "organizations"
                ]
            },
            "searchObject" : {
                "indexStep" : "0"
            }
        },
        "#live" : {
            "icon" : "newspaper-o",
            "subdomainName" : "Actualité",
            "slug" : "templateCostumDesTiersLieux",
            "nameMenuTop" : "Actus",
            "formCreate" : false,
            "useFilter" : false,
            "inMenu" : true,
            "viewMode" : "list"
        },
        "#agenda" : {
            "icon" : "calendar",
            "subdomainName" : "Agenda",
            "inMenu" : false
        },
        "#map" : {
            "icon" : "map-marker",
            "inMenu" : true,
            "urlExtra" : "/page/maps",
            "subdomainName" : "Carte",
            "useFilter" : true,
            "useFooter" : false,
            "useHeader" : true,
            "inMenuLeft" : false,
            "filters" : {
                "types" : [ 
                    "organizations"
                ]
            },
            "searchObject" : {
                "indexStep" : "0"
            }
        },
        "#dda" : {
            "icon" : "",
            "subdomainName" : "Sondage",
            "placeholderMainSearch" : "Que cherchez vous ?",
            "inMenu" : false,
            "showInviteBtn":false,
            "showAmendmentBlock":false,
            "showExternLinkBlock":false
        }
    },
    "menuBottom" : {
        "add" : false
    },
    "typeObj" : {
        "organizations" : {
            "add" : true
        }
    }
}