{
    "welcomeTpl" : "costum.views.custom.smarterritoireCameroun.home",
    "host" : "www.action.voxcive.com",
    "sourceKey" : true,
    "slug" : "vcweb",
    "favicon" : "/ico/smarterritoireautre/favicon.ico",
    "metaImg" : "/images/smarterritoireautre/logo.png",
    "logoMin" : "/images/smarterritoireautre/logo.png",
    "logo" : "/images/smarterritoireautre/logo.png",
    "filters" : {
        "sourceKey" : true
    },
    "htmlConstruct" : {
        "appRendering" : "vertical",
        "redirect" : {
            "logged" : "welcome",
            "unlogged" : "welcome"
        },
        "header" : {
            "menuTop" : {
                "navLeft" : {
                    "logo" : {
                        "height" : 40
                    },
                    "searchBar" : false,
                    "useFilter" : {
                        "scopeFilter" : false,
                        "showFilter" : false
                    }
                },
                "navRight" : {
                    "connected" : {
                        "dropdownUser" : {
                            "languages" : false,
                            "statistics" : false,
                            "documentation" : false,
                            "donate" : false,
                            "admin" : true,
                            "settings" : false,
                            "logout" : true
                        },
                        "userProfil" : {
                            "img" : true,
                            "name" : true
                        },
                        "networkFloop" : true,
                        "notifications" : true,
                        "dda" : false,
                        "chat" : true,
                        "home" : false,
                        "app" : false
                    },
                    "disconnected" : {
                        "languages" : false,
                        "login" : true
                    }
                }
            }
        },
        "adminPanel" : {
            "add" : true,
            "menu" : {
                "directory" : true,
                "statistic" : true,
                "converter" : true,
                "import" : true,
                "community":{
                    "show": true
                },
                "reference" : {
                    "show": true
                }
            }
        },
        "directory" : {
            "results" : {
                "organizations" : {
                    "defaultImg" : "/images/filiereCostum/no-banner.jpg"
                },
                "projects" : {
                    "defaultImg" : "/images/filiereCostum/no-banner.jpg"
                },
                "events" : {
                    "defaultImg" : "/images/filiereCostum/no-banner.jpg"
                }
            },
            "preview" : true,
            "footer" : {
                "add" : false
            }
        },
        "element" : {
            "menuLeft" : {
                "detail" : true,
                "gallery" : true,
                "events" : true,
                "projects" : true,
                "community" : true,
                "collections":{
                    "label": "Favoris",
                    "icon":"star",
                    "class":"",
                    "separator":true,
                    "view":"directory",
                    "dataAttr":{
                        "dir":"collections",
                        "icon":"star"
                    },
                    "typeAllow":["citoyens"]
                }
            },
            "menuTop" : {
                "img" : true,
                "btnGroup" : {
                    "imgProfil" : true,
                    "nameProfil" : true,
                    "newspaper" : true,
                    "cospace" : false,
                    "chat" : false,
                    "create" : false,
                    "params" : {
                        "dropdown" : true
                    }
                },
                "navRight" : {
                    "connected" : {
                        "dropdownUser" : {
                            "languages" : true,
                            "statistics" : false,
                            "documentation" : false,
                            "donate" : false,
                            "admin" : true,
                            "settings" : false,
                            "logout" : true
                        },
                        "userProfil" : {
                            "img" : true
                        },
                        "networkFloop" : false,
                        "notifications" : true,
                        "dda" : false,
                        "chat" : false,
                        "home" : false,
                        "app" : false
                    },
                    "disconnected" : {
                        "languages" : false,
                        "login" : true,
                        "app" : true
                    }
                }
            }
        },
        "menuBottom" : {
            "add" : true
        }
    },
    "css" : {
        "urls" : [
            "../smarterritoireautre/index.css"
        ],
        "loader" : {
            "background" : "white",
            "ring1" : {
                "color" : "#ce1126",
                "height" : 360,
                "width" : 360,
                "left" : -15,
                "borderWidth" : 4,
                "top" : -35
            },
            "ring2" : {
                "color" : "#fcd116",
                "height" : 350,
                "width" : 350,
                "left" : -10,
                "borderWidth" : 5,
                "top" : -30
            }
        },
        "progress" : {
            "value" : {
                "background" : "#ce1126"
            },
            "bar" : {
                "background" : "red"
            }
        },
        "menuTop" : {
            "background" : "#e2e2e2",
            "button" : {
                "paddingTop" : 900,
                "fontSize" : 25,
                "color" : "#ce1126"
            },
            "badge" : {
                "background" : "#497614",
                "border" : "3px solid white"
            },
            "scopeBtn" : {
                "display" : "none"
            },
            "filterBtn" : {
                "display" : "none"
            },
            "connectBtn" : {
                "background" : "#ce1126",
                "color" : "white",
                "fontSize" : 18,
                "borderRadius" : 10,
                "padding" : "8px 15px"
            }
        },
        "menuApp" : {
            "top" : "55",
            "background" : "#f6f6f6",
            "button" : {
                "fontSize" : 25,
                "color" : "#41445c",
                "hover" : {
                    "borderBottom" : "2px solid #fff"
                }
            }
        },
        "button" : {
            "footer" : {
                "add" : {
                    "bottom" : 10,
                    "background" : "#00aca9",
                    "color" : "white"
                },
                "toolbarAdds" : {
                    "bottom" : 10
                }
            }
        },
        "color" : {
            "blue" : "#41435b",
            "bg-green" : "#00aca9"
        },
        "font":{
            "url" : "/font/coeurNumerique/SharpSansNo1-Medium.ttf"
        }
    },
    "app" : {
        "#welcome" : {
            "subdomainName" : "Accueil"
        },
        "#search" : {
            "hash" : "#app.search",
            "icon" : "search",
            "subdomainName" : "Annuaire",
            "class" : "Annuaire",
            "placeholderMainSearch" : "what are you looking for ?",
            "inMenu":true,
            "useHeader" : false,
            "useFilter" : true,
            "useFooter" : true,
            "filters" : {
                "types" : [ 
                    "organizations",
                    "events",
                    "projects"
                ]
            },
            "searchObject" : {
                "indexStep" : "0"
            }
        },
        "#live" : {
            "subdomainName" : "Actualités",
            "slug" : "vcweb",
            "formCreate" : false,
            "useFilter" : false,
            "viewMode" : "list"
        },
        "#agenda" : {
            "subdomainName" : "Agenda"
        }
    },
    "typeObj" : {
            "projects" : {
                "add" : true
            },
            "events" : {
                "add" : true
            }
    }

}
