{
    "_id" : ObjectId("60113f82baabc547048b45c3"),
    "type" : "blockCms",
    "path" : "tpls.blockCms.textImg.blocimgleftcustom",
    "name" : "Text avec image à gauche",
    "collection" : "cms",
    "updated" : NumberLong(1611747721),
    "creator" : "5f09a237c629700c008b4570",
    "created" : NumberLong(1611743153),
    "description" : "Text avec image à gauche"
}