{
    "_id" : ObjectId("5f8936e166d924165e6f7883"),
    "type" : "blockCms",
    "path" : "tpls.blockCms.meteolamer.meteolamerPageHeader",
    "name" : "Entete du page meteolamer",
    "developpeur" : "false",
    "img" : "",
    "description" : "",
    "parent" : "",
    "created" : NumberLong(1601362153),
    "creator" : "5f09a237c629700c008b4570"
}