{
    "_id" : ObjectId("5f635f37c6297014008b456e"),
    "type" : "blockCms",
    "path" : "tpls.blockCms.article.blockarticlescarousel",
    "name" : "Block article avec carousel",
    "developpeur" : "true",
    "img" : "",
    "description" : "",
    "parent" : "",
    "created" : NumberLong(1600347959),
    "creator" : "5f09a237c629700c008b4570"
}