{
    "_id" : ObjectId("5f9bdba5f5100e0d008b4567"),
    "type" : "blockCms",
    "path" : "tpls.blockCms.eywa.community",
    "name" : "community",
    "developpeur" : "true",
    "img" : "",
    "description" : "",
    "parent" : "",
    "created" : NumberLong(1604049829),
    "creator" : "5f04be4313c2670d008b4570"
}