{
    "_id" : ObjectId("5fb696e68b509ced408b4644"),
    "type" : "blockCms",
    "path" : "tpls.blockCms.community.communityEnPod",
    "name" : "Reseau collaboration",
    "developpeur" : "false",
    "img" : "",
    "description" : "",
    "parent" : "",
    "created" : NumberLong(1605801702),
    "creator" : "5f6c9e568b509c5b728b45d9"
}