{
    "_id" : ObjectId("6012940fbaabc51d048b459e"),
    "type" : "blockCms",
    "path" : "tpls.blockCms.contact.contact",
    "name" : "Bloc contactez nous",
    "collection" : "cms",
    "updated" : NumberLong(1611830498),
    "creator" : "5f09a237c629700c008b4570",
    "created" : NumberLong(1611830322),
    "description" : ""
}