{
    "_id" : ObjectId("5fac3582c6297010008b456d"),
    "type" : "blockCms",
    "path" : "tpls.blockCms.contact.envoyerMessage",
    "name" : "Envoyer message kosasa",
    "developpeur" : "false",
    "img" : "",
    "description" : "",
    "parent" : "",
    "created" : NumberLong(1605121410),
    "creator" : "5f09a237c629700c008b4570"
}