{
    "_id" : ObjectId("5f72d954c629700c008b4579"),
    "type" : "blockCms",
    "path" : "tpls.blockCms.events.eventcarousel",
    "name" : "Évenement en carousel",
    "developpeur" : "false",
    "img" : "",
    "description" : "",
    "parent" : "",
    "created" : NumberLong(1601362260),
    "creator" : "5f09a237c629700c008b4570"
}