{
    "_id" : ObjectId("5fb7adedf5100e11008b456b"),
    "type" : "blockCms",
    "path" : "tpls.blockCms.gallery.gallery",
    "name" : "Gallery",
    "developpeur" : "false",
    "img" : "",
    "description" : "",
    "parent" : "",
    "created" : NumberLong(1605873133),
    "creator" : "5f04be4313c2670d008b4570"
}