{
    "_id" : ObjectId("5f78c4cec629700c008b4569"),
    "type" : "blockCms",
    "path" : "tpls.blockCms.text.textWithBackgroundPhoto",
    "name" : "Texte avec background photo",
    "developpeur" : "false",
    "img" : "",
    "description" : "Texte avec background photo",
    "parent" : "",
    "created" : NumberLong(1601750222),
    "creator" : "5f09a237c629700c008b4570"
}