<?xml version="1.0" encoding="utf-8"?>
<!-- Generator: Adobe Illustrator 24.0.3, SVG Export Plug-In . SVG Version: 6.00 Build 0)  -->
<svg version="1.1" id="Calque_1" xmlns="http://www.w3.org/2000/svg" xmlns:xlink="http://www.w3.org/1999/xlink" x="0px" y="0px"
	 viewBox="0 0 29 28" style="enable-background:new 0 0 29 28;" xml:space="preserve">
<style type="text/css">
	.st0{fill:#FFFFFF;}
</style>
<g>
	<g>
		<g>
			<path class="st0" d="M23.24,14.14h-1.88c0.19,0.53,0.3,1.09,0.3,1.68v7.11c0,0.25-0.04,0.48-0.12,0.7h3.11
				c1.16,0,2.11-0.95,2.11-2.11v-3.88C26.75,15.71,25.17,14.14,23.24,14.14z"/>
		</g>
	</g>
	<g>
		<g>
			<path class="st0" d="M7.51,15.82c0-0.59,0.1-1.16,0.3-1.68H5.93c-1.94,0-3.51,1.58-3.51,3.51v3.88c0,1.16,0.95,2.11,2.11,2.11
				h3.11c-0.08-0.22-0.12-0.46-0.12-0.7V15.82z"/>
		</g>
	</g>
	<g>
		<g>
			<path class="st0" d="M16.73,12.31h-4.3c-1.94,0-3.51,1.58-3.51,3.51v7.11c0,0.39,0.31,0.7,0.7,0.7h9.92c0.39,0,0.7-0.31,0.7-0.7
				v-7.11C20.25,13.88,18.67,12.31,16.73,12.31z"/>
		</g>
	</g>
	<g>
		<g>
			<path class="st0" d="M14.58,2.99c-2.33,0-4.22,1.9-4.22,4.22c0,1.58,0.87,2.96,2.16,3.68c0.61,0.34,1.32,0.54,2.06,0.54
				s1.45-0.2,2.06-0.54c1.29-0.72,2.16-2.1,2.16-3.68C18.81,4.89,16.91,2.99,14.58,2.99z"/>
		</g>
	</g>
	<g>
		<g>
			<path class="st0" d="M7.16,6.93C5.42,6.93,4,8.35,4,10.09s1.42,3.16,3.16,3.16c0.44,0,0.86-0.09,1.25-0.26
				c0.66-0.28,1.21-0.79,1.54-1.42c0.24-0.44,0.37-0.95,0.37-1.48C10.32,8.35,8.91,6.93,7.16,6.93z"/>
		</g>
	</g>
	<g>
		<g>
			<path class="st0" d="M22,6.93c-1.74,0-3.16,1.42-3.16,3.16c0,0.54,0.13,1.04,0.37,1.48c0.34,0.63,0.88,1.13,1.54,1.42
				c0.38,0.16,0.8,0.26,1.25,0.26c1.74,0,3.16-1.42,3.16-3.16S23.74,6.93,22,6.93z"/>
		</g>
	</g>
</g>
</svg>
