<?xml version="1.0" encoding="utf-8"?>
<!-- Generator: Adobe Illustrator 22.0.1, SVG Export Plug-In . SVG Version: 6.00 Build 0)  -->
<svg version="1.1" id="Calque_1" xmlns="http://www.w3.org/2000/svg" xmlns:xlink="http://www.w3.org/1999/xlink" x="0px" y="0px"
	 viewBox="0 0 39.8 38.5" style="enable-background:new 0 0 39.8 38.5;" xml:space="preserve">
<style type="text/css">
	.st0{fill:#FFFFFF;}
	.st1{fill:#9AC21E;}
</style>
<g>
	<polygon class="st0" points="25.8,8.9 13.8,8.9 7.8,19.3 13.8,29.7 25.8,29.7 31.8,19.3 	"/>
	<path class="st1" d="M15.6,18.9C15.6,18.9,15.6,18.9,15.6,18.9c0.1-0.3,0.3-0.4,0.5-0.4c0.4,0,0.8,0,1.2,0c1.6,0,3.1,0,4.7,0
		c0,0,0.1,0,0.1,0c0,0-0.1-0.1-0.1-0.1c-0.6-0.6-1.2-1.2-1.8-1.8c-0.3-0.3-0.3-0.5,0-0.8c0.1-0.1,0.2-0.2,0.3-0.3
		c0.2-0.2,0.5-0.2,0.7,0c1.1,1.1,2.2,2.2,3.2,3.2c0.2,0.2,0.2,0.5,0,0.7c-1.1,1.1-2.2,2.2-3.2,3.2c-0.2,0.2-0.5,0.2-0.7,0
		c-0.1-0.1-0.2-0.2-0.3-0.3c-0.2-0.2-0.2-0.5,0-0.7c0.4-0.4,0.8-0.8,1.2-1.2c0.2-0.2,0.5-0.5,0.7-0.7c0,0-0.1,0-0.1,0
		c-1.9,0-3.9,0-5.8,0c-0.4,0-0.5-0.1-0.6-0.4C15.6,19.3,15.6,19.1,15.6,18.9z"/>
	<path class="st1" d="M15.6,18.9C15.6,18.9,15.6,18.9,15.6,18.9c0.1-0.3,0.3-0.4,0.5-0.4c0.4,0,0.8,0,1.2,0c1.6,0,3.1,0,4.7,0
		c0,0,0.1,0,0.1,0c0,0-0.1-0.1-0.1-0.1c-0.6-0.6-1.2-1.2-1.8-1.8c-0.3-0.3-0.3-0.5,0-0.8c0.1-0.1,0.2-0.2,0.3-0.3
		c0.2-0.2,0.5-0.2,0.7,0c1.1,1.1,2.2,2.2,3.2,3.2c0.2,0.2,0.2,0.5,0,0.7c-1.1,1.1-2.2,2.2-3.2,3.2c-0.2,0.2-0.5,0.2-0.7,0
		c-0.1-0.1-0.2-0.2-0.3-0.3c-0.2-0.2-0.2-0.5,0-0.7c0.4-0.4,0.8-0.8,1.2-1.2c0.2-0.2,0.5-0.5,0.7-0.7c0,0-0.1,0-0.1,0
		c-1.9,0-3.9,0-5.8,0c-0.4,0-0.5-0.1-0.6-0.4C15.6,19.3,15.6,19.1,15.6,18.9z"/>
</g>
</svg>
