    {
        "_id" : ObjectId("5d4d15d32f626620068b4571"),
        "contextId" : "5d0b6b7fa1d9f073798b4568",
        "contextType" : "organizations",
        "name" : "CITOYEN Engagé",
        "created" : NumberLong(1565332947),
        "updated" : NumberLong(1565332947),
        "docType" : "smarterre.citoyennete"
    }
    {
        "_id" : ObjectId("5d4d15db2f626608068b4573"),
        "contextId" : "5d0b6b7fa1d9f073798b4568",
        "contextType" : "organizations",
        "name" : "Acteur et sentinelle locale",
        "created" : NumberLong(1565332955),
        "updated" : NumberLong(1565332955),
        "parentId" : "5d4d15d32f626620068b4571",
        "docType" : "smarterre.citoyennete"
    }
    {
        "_id" : ObjectId("5d4d15e42f626634078b456c"),
        "contextId" : "5d0b6b7fa1d9f073798b4568",
        "contextType" : "organizations",
        "name" : "Ne transmet pas ses droits",
        "created" : NumberLong(1565332964),
        "updated" : NumberLong(1565332964),
        "parentId" : "5d4d15d32f626620068b4571",
        "docType" : "smarterre.citoyennete"
    }
    {
        "_id" : ObjectId("5d4d15eb2f6266b1078b4567"),
        "contextId" : "5d0b6b7fa1d9f073798b4568",
        "contextType" : "organizations",
        "name" : "Assume son role citoyen",
        "created" : NumberLong(1565332971),
        "updated" : NumberLong(1565332971),
        "parentId" : "5d4d15d32f626620068b4571",
        "docType" : "smarterre.citoyennete"
    }
    {
        "_id" : ObjectId("5d4d15f52f6266b3078b4567"),
        "contextId" : "5d0b6b7fa1d9f073798b4568",
        "contextType" : "organizations",
        "name" : "Fait des propositions librement",
        "created" : NumberLong(1565332981),
        "updated" : NumberLong(1565332981),
        "parentId" : "5d4d15d32f626620068b4571",
        "docType" : "smarterre.citoyennete"
    }
    {
        "_id" : ObjectId("5d4d15fd2f626635078b456b"),
        "contextId" : "5d0b6b7fa1d9f073798b4568",
        "contextType" : "organizations",
        "name" : "CITOYEN Connecté",
        "created" : NumberLong(1565332989),
        "updated" : NumberLong(1565332989),
        "docType" : "smarterre.citoyennete"
    }
    {
        "_id" : ObjectId("5d4d16062f62662c078b456b"),
        "contextId" : "5d0b6b7fa1d9f073798b4568",
        "contextType" : "organizations",
        "name" : "Acteur Temps réél",
        "created" : NumberLong(1565332998),
        "updated" : NumberLong(1565332998),
        "parentId" : "5d4d15fd2f626635078b456b",
        "docType" : "smarterre.citoyennete"
    }
    {
        "_id" : ObjectId("5d4d160e2f6266f3048b4574"),
        "contextId" : "5d0b6b7fa1d9f073798b4568",
        "contextType" : "organizations",
        "name" : "Contributeur illimité",
        "created" : NumberLong(1565333006),
        "updated" : NumberLong(1565333006),
        "parentId" : "5d4d15fd2f626635078b456b",
        "docType" : "smarterre.citoyennete"
    }
    {
        "_id" : ObjectId("5d4d16172f6266f3048b4575"),
        "contextId" : "5d0b6b7fa1d9f073798b4568",
        "contextType" : "organizations",
        "name" : "Informé sur tout",
        "created" : NumberLong(1565333015),
        "updated" : NumberLong(1565333015),
        "parentId" : "5d4d15fd2f626635078b456b",
        "docType" : "smarterre.citoyennete"
    }
    {
        "_id" : ObjectId("5d4d16202f626627068b4574"),
        "contextId" : "5d0b6b7fa1d9f073798b4568",
        "contextType" : "organizations",
        "name" : "Voter sur tout",
        "created" : NumberLong(1565333024),
        "updated" : NumberLong(1565333024),
        "parentId" : "5d4d15fd2f626635078b456b",
        "docType" : "smarterre.citoyennete"
    }
    {
        "_id" : ObjectId("5d4d162b2f6266b6078b4567"),
        "contextId" : "5d0b6b7fa1d9f073798b4568",
        "contextType" : "organizations",
        "name" : "Connecté aux acteurs et aux lieux du territoire",
        "created" : NumberLong(1565333035),
        "updated" : NumberLong(1565333035),
        "parentId" : "5d4d15fd2f626635078b456b",
        "docType" : "smarterre.citoyennete"
    }
    {
        "_id" : ObjectId("5d4d16342f626620068b4572"),
        "contextId" : "5d0b6b7fa1d9f073798b4568",
        "contextType" : "organizations",
        "name" : "CITOYEN REsponsable",
        "created" : NumberLong(1565333044),
        "updated" : NumberLong(1565333044),
        "docType" : "smarterre.citoyennete"
    }
    {
        "_id" : ObjectId("5d4d163b2f626608068b4574"),
        "contextId" : "5d0b6b7fa1d9f073798b4568",
        "contextType" : "organizations",
        "name" : "Ne délègue pas le pouvoir",
        "created" : NumberLong(1565333051),
        "updated" : NumberLong(1565333051),
        "parentId" : "5d4d16342f626620068b4572",
        "docType" : "smarterre.citoyennete"
    }
    {
        "_id" : ObjectId("5d4d164a2f626634078b456d"),
        "contextId" : "5d0b6b7fa1d9f073798b4568",
        "contextType" : "organizations",
        "name" : "Utilise son pouvoir quotidiennement",
        "created" : NumberLong(1565333066),
        "updated" : NumberLong(1565333066),
        "parentId" : "5d4d16342f626620068b4572",
        "docType" : "smarterre.citoyennete"
    }
    {
        "_id" : ObjectId("5d4d16522f6266b1078b4568"),
        "contextId" : "5d0b6b7fa1d9f073798b4568",
        "contextType" : "organizations",
        "name" : "Ne critique pas mais construit son environnement politique",
        "created" : NumberLong(1565333074),
        "updated" : NumberLong(1565333074),
        "parentId" : "5d4d16342f626620068b4572",
        "docType" : "smarterre.citoyennete"
    }
    {
        "_id" : ObjectId("5d4d16752f6266b3078b4568"),
        "contextId" : "5d0b6b7fa1d9f073798b4568",
        "contextType" : "organizations",
        "name" : "Démocratie",
        "created" : NumberLong(1565333109),
        "updated" : NumberLong(1565333109),
        "docType" : "smarterre.citoyennete"
    }
    {
        "_id" : ObjectId("5d4d167c2f62662c078b456c"),
        "contextId" : "5d0b6b7fa1d9f073798b4568",
        "contextType" : "organizations",
        "name" : "Réélle",
        "created" : NumberLong(1565333116),
        "updated" : NumberLong(1565333116),
        "parentId" : "5d4d16752f6266b3078b4568",
        "docType" : "smarterre.citoyennete"
    }
    {
        "_id" : ObjectId("5d4d168d2f6266f3048b4576"),
        "contextId" : "5d0b6b7fa1d9f073798b4568",
        "contextType" : "organizations",
        "name" : "Peut être liquide",
        "created" : NumberLong(1565333133),
        "updated" : NumberLong(1565333133),
        "parentId" : "5d4d16752f6266b3078b4568",
        "docType" : "smarterre.citoyennete"
    }
    {
        "_id" : ObjectId("5d4d16962f626627068b4575"),
        "contextId" : "5d0b6b7fa1d9f073798b4568",
        "contextType" : "organizations",
        "name" : "Questionner la représentativité",
        "created" : NumberLong(1565333142),
        "updated" : NumberLong(1565333142),
        "parentId" : "5d4d16752f6266b3078b4568",
        "docType" : "smarterre.citoyennete"
    }
    {
        "_id" : ObjectId("5d4d169d2f6266b6078b4568"),
        "contextId" : "5d0b6b7fa1d9f073798b4568",
        "contextType" : "organizations",
        "name" : "Justice",
        "created" : NumberLong(1565333149),
        "updated" : NumberLong(1565333149),
        "docType" : "smarterre.citoyennete"
    }
    {
        "_id" : ObjectId("5d4d16a42f626620068b4573"),
        "contextId" : "5d0b6b7fa1d9f073798b4568",
        "contextType" : "organizations",
        "name" : "Adapté",
        "created" : NumberLong(1565333156),
        "updated" : NumberLong(1565333156),
        "parentId" : "5d4d169d2f6266b6078b4568",
        "docType" : "smarterre.citoyennete"
    }
    {
        "_id" : ObjectId("5d4d16b92f626608068b4575"),
        "contextId" : "5d0b6b7fa1d9f073798b4568",
        "contextType" : "organizations",
        "name" : "Pas de double vitesse",
        "created" : NumberLong(1565333177),
        "updated" : NumberLong(1565333177),
        "parentId" : "5d4d169d2f6266b6078b4568",
        "docType" : "smarterre.citoyennete"
    }
    {
        "_id" : ObjectId("5d4d16ca2f626634078b456e"),
        "contextId" : "5d0b6b7fa1d9f073798b4568",
        "contextType" : "organizations",
        "name" : "Justice Agile",
        "created" : NumberLong(1565333194),
        "updated" : NumberLong(1565333194),
        "parentId" : "5d4d169d2f6266b6078b4568",
        "docType" : "smarterre.citoyennete"
    }
    {
        "_id" : ObjectId("5d4d16d32f6266b1078b456a"),
        "contextId" : "5d0b6b7fa1d9f073798b4568",
        "contextType" : "organizations",
        "name" : "Pas de préférence hiérarchique",
        "created" : NumberLong(1565333203),
        "updated" : NumberLong(1565333203),
        "parentId" : "5d4d169d2f6266b6078b4568",
        "docType" : "smarterre.citoyennete"
    }
    {
        "_id" : ObjectId("5d4d16df2f626635078b456c"),
        "contextId" : "5d0b6b7fa1d9f073798b4568",
        "contextType" : "organizations",
        "name" : "Education",
        "created" : NumberLong(1565333215),
        "updated" : NumberLong(1565333215),
        "docType" : "smarterre.citoyennete"
    }
    {
        "_id" : ObjectId("5d4d16e62f6266b3078b4569"),
        "contextId" : "5d0b6b7fa1d9f073798b4568",
        "contextType" : "organizations",
        "name" : "Se retrouver pour mieux agir",
        "created" : NumberLong(1565333222),
        "updated" : NumberLong(1565333222),
        "parentId" : "5d4d16df2f626635078b456c",
        "docType" : "smarterre.citoyennete"
    }
    {
        "_id" : ObjectId("5d4d16ed2f62662c078b456d"),
        "contextId" : "5d0b6b7fa1d9f073798b4568",
        "contextType" : "organizations",
        "name" : "Motiver l’autonomie et la résilience",
        "created" : NumberLong(1565333229),
        "updated" : NumberLong(1565333229),
        "parentId" : "5d4d16df2f626635078b456c",
        "docType" : "smarterre.citoyennete"
    }
    {
        "_id" : ObjectId("5d4d16f52f62662c078b456e"),
        "contextId" : "5d0b6b7fa1d9f073798b4568",
        "contextType" : "organizations",
        "name" : "Apprendre ses droits et devoir citoyens",
        "created" : NumberLong(1565333237),
        "updated" : NumberLong(1565333237),
        "parentId" : "5d4d16df2f626635078b456c",
        "docType" : "smarterre.citoyennete"
    }
    {
        "_id" : ObjectId("5d4d17232f626627068b4576"),
        "contextId" : "5d0b6b7fa1d9f073798b4568",
        "contextType" : "organizations",
        "name" : "Respect des droits de l’homme et de la nature",
        "created" : NumberLong(1565333283),
        "updated" : NumberLong(1565333283),
        "parentId" : "5d4d16df2f626635078b456c",
        "docType" : "smarterre.citoyennete"
    }
    {
        "_id" : ObjectId("5d4d172c2f6266b6078b4569"),
        "contextId" : "5d0b6b7fa1d9f073798b4568",
        "contextType" : "organizations",
        "name" : "Expérimenter",
        "created" : NumberLong(1565333292),
        "updated" : NumberLong(1565333292),
        "docType" : "smarterre.citoyennete"
    }
    {
        "_id" : ObjectId("5d4d17322f626620068b4574"),
        "contextId" : "5d0b6b7fa1d9f073798b4568",
        "contextType" : "organizations",
        "name" : "Questionner",
        "created" : NumberLong(1565333298),
        "updated" : NumberLong(1565333298),
        "parentId" : "5d4d172c2f6266b6078b4569",
        "docType" : "smarterre.citoyennete"
    }
    {
        "_id" : ObjectId("5d4d173b2f626608068b4576"),
        "contextId" : "5d0b6b7fa1d9f073798b4568",
        "contextType" : "organizations",
        "name" : "Créer des zones d’experimentations ()",
        "created" : NumberLong(1565333307),
        "updated" : NumberLong(1565333307),
        "parentId" : "5d4d172c2f6266b6078b4569",
        "docType" : "smarterre.citoyennete"
    }
    {
        "_id" : ObjectId("5d4d17432f626634078b456f"),
        "contextId" : "5d0b6b7fa1d9f073798b4568",
        "contextType" : "organizations",
        "name" : "Proposer des alternatives",
        "created" : NumberLong(1565333315),
        "updated" : NumberLong(1565333315),
        "parentId" : "5d4d172c2f6266b6078b4569",
        "docType" : "smarterre.citoyennete"
    }
    {
        "_id" : ObjectId("5d4d17522f6266b1078b456b"),
        "contextId" : "5d0b6b7fa1d9f073798b4568",
        "contextType" : "organizations",
        "name" : "Agilité politique",
        "created" : NumberLong(1565333330),
        "updated" : NumberLong(1565333330),
        "parentId" : "5d4d172c2f6266b6078b4569",
        "docType" : "smarterre.citoyennete"
    }
    {
        "_id" : ObjectId("5d4d175b2f626635078b456d"),
        "contextId" : "5d0b6b7fa1d9f073798b4568",
        "contextType" : "organizations",
        "name" : "Amateurisme politique",
        "created" : NumberLong(1565333339),
        "updated" : NumberLong(1565333339),
        "parentId" : "5d4d172c2f6266b6078b4569",
        "docType" : "smarterre.citoyennete"
    }
    {
        "_id" : ObjectId("5d4d17632f6266b3078b456a"),
        "contextId" : "5d0b6b7fa1d9f073798b4568",
        "contextType" : "organizations",
        "name" : "Tirage au sort",
        "created" : NumberLong(1565333347),
        "updated" : NumberLong(1565333347),
        "parentId" : "5d4d172c2f6266b6078b4569",
        "docType" : "smarterre.citoyennete"
    }
    {
        "_id" : ObjectId("5d4d176a2f6266b3078b456b"),
        "contextId" : "5d0b6b7fa1d9f073798b4568",
        "contextType" : "organizations",
        "name" : "Débat citoyen",
        "created" : NumberLong(1565333354),
        "updated" : NumberLong(1565333354),
        "parentId" : "5d4d172c2f6266b6078b4569",
        "docType" : "smarterre.citoyennete"
    }
    {
        "_id" : ObjectId("5d4d17722f6266b3078b456c"),
        "contextId" : "5d0b6b7fa1d9f073798b4568",
        "contextType" : "organizations",
        "name" : "Outils",
        "created" : NumberLong(1565333362),
        "updated" : NumberLong(1565333362),
        "docType" : "smarterre.citoyennete"
    }
    {
        "_id" : ObjectId("5d4d17792f6266f3048b4577"),
        "contextId" : "5d0b6b7fa1d9f073798b4568",
        "contextType" : "organizations",
        "name" : "Utiliser les outils de son temps",
        "created" : NumberLong(1565333369),
        "updated" : NumberLong(1565333369),
        "parentId" : "5d4d17722f6266b3078b456c",
        "docType" : "smarterre.citoyennete"
    }
    {
        "_id" : ObjectId("5d4d17802f6266f3048b4578"),
        "contextId" : "5d0b6b7fa1d9f073798b4568",
        "contextType" : "organizations",
        "name" : "Attention",
        "created" : NumberLong(1565333376),
        "updated" : NumberLong(1565333376),
        "docType" : "smarterre.citoyennete"
    }
    {
        "_id" : ObjectId("5d4d17862f62662c078b456f"),
        "contextId" : "5d0b6b7fa1d9f073798b4568",
        "contextType" : "organizations",
        "name" : "Technoverdose",
        "created" : NumberLong(1565333382),
        "updated" : NumberLong(1565333382),
        "parentId" : "5d4d17802f6266f3048b4578",
        "docType" : "smarterre.citoyennete"
    }
    {
        "_id" : ObjectId("5d4d178d2f626627068b4577"),
        "contextId" : "5d0b6b7fa1d9f073798b4568",
        "contextType" : "organizations",
        "name" : "Accaparation / Vigilance constante",
        "created" : NumberLong(1565333389),
        "updated" : NumberLong(1565333389),
        "parentId" : "5d4d17802f6266f3048b4578",
        "docType" : "smarterre.citoyennete"
    }
    {
        "_id" : ObjectId("5d4d17952f6266b6078b456a"),
        "contextId" : "5d0b6b7fa1d9f073798b4568",
        "contextType" : "organizations",
        "name" : "Rester fidèle à ses valeurs",
        "created" : NumberLong(1565333397),
        "updated" : NumberLong(1565333397),
        "parentId" : "5d4d17802f6266f3048b4578",
        "docType" : "smarterre.citoyennete"
    }
    {
        "_id" : ObjectId("5d4d17a02f626620068b4575"),
        "contextId" : "5d0b6b7fa1d9f073798b4568",
        "contextType" : "organizations",
        "name" : "N’ayons pas peur du changement",
        "created" : NumberLong(1565333408),
        "updated" : NumberLong(1565333408),
        "parentId" : "5d4d17802f6266f3048b4578",
        "docType" : "smarterre.citoyennete"
    }