    {
        "_id" : ObjectId("5d4273462f6266fb048b4567"),
        "contextId" : "5d0b6aaba1d9f004668b456c",
        "contextType" : "citoyens",
        "name" : "test",
        "created" : NumberLong(1564635974),
        "updated" : NumberLong(1564635974)
    }
    {
        "_id" : ObjectId("5d4276c62f62661d068b4567"),
        "contextId" : "5d0b6aaba1d9f004668b456c",
        "contextType" : "citoyens",
        "name" : "sous_dossier",
        "created" : NumberLong(1564636870),
        "updated" : NumberLong(1564636870),
        "docType" : "bookmarks"
    }
    {
        "_id" : ObjectId("5d42863e2f6266fa048b456a"),
        "contextId" : "5d0b6aaba1d9f004668b456c",
        "contextType" : "citoyens",
        "name" : "pas les mêmes",
        "created" : NumberLong(1564640830),
        "updated" : NumberLong(1564640830),
        "docType" : "bookmarks"
    }
    {
        "_id" : ObjectId("5d42916b2f6266fa048b456b"),
        "contextId" : "5d0b6aaba1d9f004668b456c",
        "contextType" : "citoyens",
        "name" : "Empathie : développer l'empathie pour contribuer au vivre ensemble",
        "created" : NumberLong(1564643691),
        "updated" : NumberLong(1564643691),
        "parentId" : "5d42863e2f6266fa048b456a",
        "docType" : "bookmarks"
    }
    {
        "_id" : ObjectId("5d42bf7c2f6266f8058b4568"),
        "contextId" : "5d0b6aaba1d9f004668b456c",
        "contextType" : "citoyens",
        "name" : "10 balles",
        "created" : NumberLong(1564655484),
        "updated" : NumberLong(1564655484),
        "docType" : "bookmarks"
    }
    {
        "_id" : ObjectId("5d4400022f6266db058b456a"),
        "contextId" : "5d0b6aaba1d9f004668b456c",
        "contextType" : "citoyens",
        "name" : "VALEURS",
        "created" : NumberLong(1564737538),
        "updated" : NumberLong(1564737538),
        "docType" : "smarterre.education"
    }
    {
        "_id" : ObjectId("5d4400162f6266e7058b4567"),
        "contextId" : "5d0b6aaba1d9f004668b456c",
        "contextType" : "citoyens",
        "name" : "Empathie : développer l'empathie pour contribuer au vivre ensemble",
        "created" : NumberLong(1564737558),
        "updated" : NumberLong(1564737558),
        "parentId" : "5d4400022f6266db058b456a",
        "docType" : "smarterre.education"
    }
    {
        "_id" : ObjectId("5d44002f2f6266de058b456d"),
        "contextId" : "5d0b6aaba1d9f004668b456c",
        "contextType" : "citoyens",
        "name" : "Vivre ensemble : moins de compétition",
        "created" : NumberLong(1564737583),
        "updated" : NumberLong(1564737583),
        "parentId" : "5d4400022f6266db058b456a",
        "docType" : "smarterre.education"
    }
    {
        "_id" : ObjectId("5d44005d2f62665a058b4571"),
        "contextId" : "5d0b6aaba1d9f004668b456c",
        "contextType" : "citoyens",
        "name" : "Interculturalité : nos différences sont nos richesses",
        "created" : NumberLong(1564737629),
        "updated" : NumberLong(1564737629),
        "parentId" : "5d4400022f6266db058b456a",
        "docType" : "smarterre.education"
    }
    {
        "_id" : ObjectId("5d4400772f62669d048b4570"),
        "contextId" : "5d0b6aaba1d9f004668b456c",
        "contextType" : "citoyens",
        "name" : "Valoriser les spécificités culturelle de chacun, pour découvrir l'autre",
        "created" : NumberLong(1564737655),
        "updated" : NumberLong(1564737655),
        "parentId" : "5d44005d2f62665a058b4571",
        "docType" : "smarterre.education"
    }
    {
        "_id" : ObjectId("5d4400842f6266e8058b4567"),
        "contextId" : "5d0b6aaba1d9f004668b456c",
        "contextType" : "citoyens",
        "name" : "Valoriser les valeurs communes",
        "created" : NumberLong(1564737668),
        "updated" : NumberLong(1564737668),
        "parentId" : "5d44005d2f62665a058b4571",
        "docType" : "smarterre.education"
    }
    {
        "_id" : ObjectId("5d4400a42f626653058b456a"),
        "contextId" : "5d0b6aaba1d9f004668b456c",
        "contextType" : "citoyens",
        "name" : "Le libre arbitre, l'auto-détermination:  développer les capacités à se décider, à faire un choix.",
        "created" : NumberLong(1564737700),
        "updated" : NumberLong(1564737700),
        "parentId" : "5d4400022f6266db058b456a",
        "docType" : "smarterre.education"
    }
    {
        "_id" : ObjectId("5d47c2882f62664f068b4567"),
        "contextId" : "5d0b6aaba1d9f004668b456c",
        "contextType" : "citoyens",
        "name" : "Nouvelles Methodes",
        "created" : NumberLong(1564983944),
        "updated" : NumberLong(1564983944),
        "docType" : "smarterre.education"
    }
    {
        "_id" : ObjectId("5d47c2a52f6266ed048b4567"),
        "contextId" : "5d0b6aaba1d9f004668b456c",
        "contextType" : "citoyens",
        "name" : "Permettons donc à l'intelligence d'explorer et de réaliser des milliards de connexions",
        "created" : NumberLong(1564983973),
        "updated" : NumberLong(1564983973),
        "parentId" : "5d47c2882f62664f068b4567",
        "docType" : "smarterre.education"
    }
    {
        "_id" : ObjectId("5d47c2b62f626645068b4567"),
        "contextId" : "5d0b6aaba1d9f004668b456c",
        "contextType" : "citoyens",
        "name" : "Adopter une approche interdisciplinaire et transversale pour retrouver du sens aux apprentissages",
        "created" : NumberLong(1564983990),
        "updated" : NumberLong(1564983990),
        "parentId" : "5d47c2882f62664f068b4567",
        "docType" : "smarterre.education"
    }
    {
        "_id" : ObjectId("5d47c2ed2f6266c8068b4567"),
        "contextId" : "5d0b6aaba1d9f004668b456c",
        "contextType" : "citoyens",
        "name" : "Favoriser l’autonomie et  l’expérimentation,  l’expression du SOI, ",
        "created" : NumberLong(1564984045),
        "updated" : NumberLong(1564984045),
        "parentId" : "5d47c2882f62664f068b4567",
        "docType" : "smarterre.education"
    }
    {
        "_id" : ObjectId("5d47c3012f6266c5068b4567"),
        "contextId" : "5d0b6aaba1d9f004668b456c",
        "contextType" : "citoyens",
        "name" : " Mixité générationnelle dans les classes pour multiplier le champ des possibles en terme d’exemplarité",
        "created" : NumberLong(1564984065),
        "updated" : NumberLong(1564984065),
        "parentId" : "5d47c2882f62664f068b4567",
        "docType" : "smarterre.education"
    }
    {
        "_id" : ObjectId("5d47f1e52f62661f0a8b4567"),
        "contextId" : "5d0b6aaba1d9f004668b456c",
        "contextType" : "citoyens",
        "name" : "La médiation par les pairs, donner les outils aux enfants pour leur permettre de désamorcer des situations de conflits: apprentissage du langage émotionnel, et culturel.",
        "created" : NumberLong(1564996069),
        "updated" : NumberLong(1564996069),
        "parentId" : "5d47c2882f62664f068b4567",
        "docType" : "smarterre.education"
    }
    {
        "_id" : ObjectId("5d47fcc92f6266190a8b4567"),
        "contextId" : "5d0b6aaba1d9f004668b456c",
        "contextType" : "citoyens",
        "name" : "Mise en application",
        "created" : NumberLong(1564998857),
        "updated" : NumberLong(1564998857),
        "docType" : "smarterre.education"
    }
    {
        "_id" : ObjectId("5d47fce12f6266220a8b4571"),
        "contextId" : "5d0b6aaba1d9f004668b456c",
        "contextType" : "citoyens",
        "name" : "Apprentissage de la coopération: Freinet (1896-1966)",
        "created" : NumberLong(1564998881),
        "updated" : NumberLong(1564998881),
        "parentId" : "5d47fcc92f6266190a8b4567",
        "docType" : "smarterre.education"
    }
    {
        "_id" : ObjectId("5d47fd162f62662d0a8b456a"),
        "contextId" : "5d0b6aaba1d9f004668b456c",
        "contextType" : "citoyens",
        "name" : "Apprentissage à partir du réel vers le réel: Decroly (1871-1932)",
        "created" : NumberLong(1564998934),
        "updated" : NumberLong(1564998934),
        "parentId" : "5d47fcc92f6266190a8b4567",
        "docType" : "smarterre.education"
    }
    {
        "_id" : ObjectId("5d47fd1f2f62661f0a8b4568"),
        "contextId" : "5d0b6aaba1d9f004668b456c",
        "contextType" : "citoyens",
        "name" : "Pédagogie reposant sur l’éducation sensorielle: Montessori (1870-1952)",
        "created" : NumberLong(1564998943),
        "updated" : NumberLong(1564998943),
        "parentId" : "5d47fcc92f6266190a8b4567",
        "docType" : "smarterre.education"
    }
    {
        "_id" : ObjectId("5d47fd272f6266df0b8b4567"),
        "contextId" : "5d0b6aaba1d9f004668b456c",
        "contextType" : "citoyens",
        "name" : "Céline Alvarez : Les lois naturelles de l’enfant ( 2016)",
        "created" : NumberLong(1564998951),
        "updated" : NumberLong(1564998951),
        "parentId" : "5d47fcc92f6266190a8b4567",
        "docType" : "smarterre.education"
    }
    {
        "_id" : ObjectId("5d47fd2f2f6266690b8b4567"),
        "contextId" : "5d0b6aaba1d9f004668b456c",
        "contextType" : "citoyens",
        "name" : "CONSTRUCTION DURABLEMENT : Matériaux de construction à faible impact carbone",
        "created" : NumberLong(1564998959),
        "updated" : NumberLong(1564998959),
        "parentId" : "5d47fcc92f6266190a8b4567",
        "docType" : "smarterre.education"
    }
    {
        "_id" : ObjectId("5d47fde32f6266220a8b4572"),
        "contextId" : "5d0b6aaba1d9f004668b456c",
        "contextType" : "citoyens",
        "name" : "Attention",
        "created" : NumberLong(1564999139),
        "updated" : NumberLong(1564999139),
        "docType" : "smarterre.education"
    }
    {
        "_id" : ObjectId("5d47fe022f6266690b8b4568"),
        "contextId" : "5d0b6aaba1d9f004668b456c",
        "contextType" : "citoyens",
        "name" : "Au colonialisme culturel",
        "created" : NumberLong(1564999170),
        "updated" : NumberLong(1564999170),
        "parentId" : "5d47fde32f6266220a8b4572",
        "docType" : "smarterre.education"
    }
    {
        "_id" : ObjectId("5d47fe142f62661e0a8b4567"),
        "contextId" : "5d0b6aaba1d9f004668b456c",
        "contextType" : "citoyens",
        "name" : "Trop d’info tue : la créativité, esprit critique, la volonté, libre arbitre…",
        "created" : NumberLong(1564999188),
        "updated" : NumberLong(1564999188),
        "parentId" : "5d47fde32f6266220a8b4572",
        "docType" : "smarterre.education"
    }
    {
        "_id" : ObjectId("5d47fe1e2f62662d0a8b456b"),
        "contextId" : "5d0b6aaba1d9f004668b456c",
        "contextType" : "citoyens",
        "name" : "L’exposition à la violence et le manque d'interactions",
        "created" : NumberLong(1564999198),
        "updated" : NumberLong(1564999198),
        "parentId" : "5d47fde32f6266220a8b4572",
        "docType" : "smarterre.education"
    }
    {
        "_id" : ObjectId("5d47fe292f6266de0b8b4567"),
        "contextId" : "5d0b6aaba1d9f004668b456c",
        "contextType" : "citoyens",
        "name" : "Respecter : spiritualité laïque",
        "created" : NumberLong(1564999209),
        "updated" : NumberLong(1564999209),
        "parentId" : "5d47fde32f6266220a8b4572",
        "docType" : "smarterre.education"
    }
    {
        "_id" : ObjectId("5d47fecd2f62661b0a8b4567"),
        "contextId" : "5d0b6aaba1d9f004668b456c",
        "contextType" : "citoyens",
        "name" : "Outils",
        "created" : NumberLong(1564999373),
        "updated" : NumberLong(1564999373),
        "docType" : "smarterre.education"
    }
    {
        "_id" : ObjectId("5d47fedb2f6266220a8b4573"),
        "contextId" : "5d0b6aaba1d9f004668b456c",
        "contextType" : "citoyens",
        "name" : "Formation sur les pratiques de l'économie circulaire",
        "created" : NumberLong(1564999387),
        "updated" : NumberLong(1564999387),
        "parentId" : "5d47fecd2f62661b0a8b4567",
        "docType" : "smarterre.education"
    }
    {
        "_id" : ObjectId("5d47fee42f6266150a8b4567"),
        "contextId" : "5d0b6aaba1d9f004668b456c",
        "contextType" : "citoyens",
        "name" : "Dés le plus jeune age, Education et implication à la citoyenneté",
        "created" : NumberLong(1564999396),
        "updated" : NumberLong(1564999396),
        "parentId" : "5d47fecd2f62661b0a8b4567",
        "docType" : "smarterre.education"
    }
    {
        "_id" : ObjectId("5d47feed2f6266de0b8b4568"),
        "contextId" : "5d0b6aaba1d9f004668b456c",
        "contextType" : "citoyens",
        "name" : "Utlisation et philosophie du Libre et du Partage (Logiciel Libre, Wikipedia..)",
        "created" : NumberLong(1564999405),
        "updated" : NumberLong(1564999405),
        "parentId" : "5d47fecd2f62661b0a8b4567",
        "docType" : "smarterre.education"
    }
    {
        "_id" : ObjectId("5d47fef62f6266f10b8b4567"),
        "contextId" : "5d0b6aaba1d9f004668b456c",
        "contextType" : "citoyens",
        "name" : "MOOC Massive Online Open Courses",
        "created" : NumberLong(1564999414),
        "updated" : NumberLong(1564999414),
        "parentId" : "5d47fecd2f62661b0a8b4567",
        "docType" : "smarterre.education"
    }
    {
        "_id" : ObjectId("5d480d892f62660b0d8b4567"),
        "contextId" : "5d0b6aaba1d9f004668b456c",
        "contextType" : "citoyens",
        "name" : "test l'ajoute d'une phrase",
        "created" : NumberLong(1565003145),
        "updated" : NumberLong(1565003145),
        "parentId" : "5d4400022f6266db058b456a",
        "docType" : "smarterre.education"
    }
    {
        "_id" : ObjectId("5d480e392f6266070d8b4569"),
        "contextId" : "5d0b6aaba1d9f004668b456c",
        "contextType" : "citoyens",
        "name" : "C'est 20 balles pour le minimum",
        "created" : NumberLong(1565003321),
        "updated" : NumberLong(1565003321),
        "parentId" : "5d480d892f62660b0d8b4567",
        "docType" : "smarterre.education"
    }